<?xml version="1.0" encoding="utf-8" standalone="no"?>
<!DOCTYPE svg PUBLIC "-//W3C//DTD SVG 1.1//EN"
  "http://www.w3.org/Graphics/SVG/1.1/DTD/svg11.dtd">
<svg xmlns:xlink="http://www.w3.org/1999/xlink" width="304.295674pt" height="304.295674pt" viewBox="0 0 304.295674 304.295674" xmlns="http://www.w3.org/2000/svg" version="1.1">
 <metadata>
  <rdf:RDF xmlns:dc="http://purl.org/dc/elements/1.1/" xmlns:cc="http://creativecommons.org/ns#" xmlns:rdf="http://www.w3.org/1999/02/22-rdf-syntax-ns#">
   <cc:Work>
    <dc:type rdf:resource="http://purl.org/dc/dcmitype/StillImage"/>
    <dc:date>2023-06-14T20:26:20.909916</dc:date>
    <dc:format>image/svg+xml</dc:format>
    <dc:creator>
     <cc:Agent>
      <dc:title>Matplotlib v3.7.1, https://matplotlib.org/</dc:title>
     </cc:Agent>
    </dc:creator>
   </cc:Work>
  </rdf:RDF>
 </metadata>
 <defs>
  <style type="text/css">*{stroke-linejoin: round; stroke-linecap: butt}</style>
 </defs>
 <g id="figure_1">
  <g id="patch_1">
   <path d="M 0 304.295674 
L 304.295674 304.295674 
L 304.295674 0 
L 0 0 
L 0 304.295674 
z
" style="fill: none"/>
  </g>
  <g id="axes_1">
   <g id="patch_2">
    <path d="M 7.2 297.095674 
L 19.38049 297.095674 
L 19.38049 284.915183 
L 7.2 284.915183 
z
" clip-path="url(#p51ac57b92b)" style="fill: #b2b2b2; stroke: #b2b2b2; stroke-linejoin: miter"/>
   </g>
   <g id="patch_3">
    <path d="M 7.2 282.479085 
L 19.38049 282.479085 
L 19.38049 270.298595 
L 7.2 270.298595 
z
" clip-path="url(#p51ac57b92b)" style="fill: #b2b2b2; stroke: #b2b2b2; stroke-linejoin: miter"/>
   </g>
   <g id="patch_4">
    <path d="M 7.2 267.862496 
L 19.38049 267.862496 
L 19.38049 255.682006 
L 7.2 255.682006 
z
" clip-path="url(#p51ac57b92b)" style="fill: #b2b2b2; stroke: #b2b2b2; stroke-linejoin: miter"/>
   </g>
   <g id="patch_5">
    <path d="M 7.2 253.245908 
L 19.38049 253.245908 
L 19.38049 241.065417 
L 7.2 241.065417 
z
" clip-path="url(#p51ac57b92b)" style="fill: #b2b2b2; stroke: #b2b2b2; stroke-linejoin: miter"/>
   </g>
   <g id="patch_6">
    <path d="M 7.2 238.629319 
L 19.38049 238.629319 
L 19.38049 226.448829 
L 7.2 226.448829 
z
" clip-path="url(#p51ac57b92b)" style="fill: #b2b2b2; stroke: #b2b2b2; stroke-linejoin: miter"/>
   </g>
   <g id="patch_7">
    <path d="M 7.2 224.012731 
L 19.38049 224.012731 
L 19.38049 211.83224 
L 7.2 211.83224 
z
" clip-path="url(#p51ac57b92b)" style="fill: #b2b2b2; stroke: #b2b2b2; stroke-linejoin: miter"/>
   </g>
   <g id="patch_8">
    <path d="M 7.2 209.396142 
L 19.38049 209.396142 
L 19.38049 197.215652 
L 7.2 197.215652 
z
" clip-path="url(#p51ac57b92b)" style="fill: #b2b2b2; stroke: #b2b2b2; stroke-linejoin: miter"/>
   </g>
   <g id="patch_9">
    <path d="M 7.2 194.779554 
L 19.38049 194.779554 
L 19.38049 182.599063 
L 7.2 182.599063 
z
" clip-path="url(#p51ac57b92b)" style="fill: #b2b2b2; stroke: #b2b2b2; stroke-linejoin: miter"/>
   </g>
   <g id="patch_10">
    <path d="M 7.2 180.162965 
L 19.38049 180.162965 
L 19.38049 167.982474 
L 7.2 167.982474 
z
" clip-path="url(#p51ac57b92b)" style="fill: #b2b2b2; stroke: #b2b2b2; stroke-linejoin: miter"/>
   </g>
   <g id="patch_11">
    <path d="M 7.2 165.546376 
L 19.38049 165.546376 
L 19.38049 153.365886 
L 7.2 153.365886 
z
" clip-path="url(#p51ac57b92b)" style="fill: #b2b2b2; stroke: #b2b2b2; stroke-linejoin: miter"/>
   </g>
   <g id="patch_12">
    <path d="M 7.2 150.929788 
L 19.38049 150.929788 
L 19.38049 138.749297 
L 7.2 138.749297 
z
" clip-path="url(#p51ac57b92b)" style="fill: #b2b2b2; stroke: #b2b2b2; stroke-linejoin: miter"/>
   </g>
   <g id="patch_13">
    <path d="M 7.2 136.313199 
L 19.38049 136.313199 
L 19.38049 124.132709 
L 7.2 124.132709 
z
" clip-path="url(#p51ac57b92b)" style="fill: #b2b2b2; stroke: #b2b2b2; stroke-linejoin: miter"/>
   </g>
   <g id="patch_14">
    <path d="M 7.2 121.696611 
L 19.38049 121.696611 
L 19.38049 109.51612 
L 7.2 109.51612 
z
" clip-path="url(#p51ac57b92b)" style="fill: #b2b2b2; stroke: #b2b2b2; stroke-linejoin: miter"/>
   </g>
   <g id="patch_15">
    <path d="M 7.2 107.080022 
L 19.38049 107.080022 
L 19.38049 94.899532 
L 7.2 94.899532 
z
" clip-path="url(#p51ac57b92b)" style="fill: #b2b2b2; stroke: #b2b2b2; stroke-linejoin: miter"/>
   </g>
   <g id="patch_16">
    <path d="M 7.2 92.463433 
L 19.38049 92.463433 
L 19.38049 80.282943 
L 7.2 80.282943 
z
" clip-path="url(#p51ac57b92b)" style="fill: #b2b2b2; stroke: #b2b2b2; stroke-linejoin: miter"/>
   </g>
   <g id="patch_17">
    <path d="M 7.2 77.846845 
L 19.38049 77.846845 
L 19.38049 65.666354 
L 7.2 65.666354 
z
" clip-path="url(#p51ac57b92b)" style="fill: #b2b2b2; stroke: #b2b2b2; stroke-linejoin: miter"/>
   </g>
   <g id="patch_18">
    <path d="M 7.2 63.230256 
L 19.38049 63.230256 
L 19.38049 51.049766 
L 7.2 51.049766 
z
" clip-path="url(#p51ac57b92b)" style="fill: #b2b2b2; stroke: #b2b2b2; stroke-linejoin: miter"/>
   </g>
   <g id="patch_19">
    <path d="M 7.2 48.613668 
L 19.38049 48.613668 
L 19.38049 36.433177 
L 7.2 36.433177 
z
" clip-path="url(#p51ac57b92b)" style="fill: #b2b2b2; stroke: #b2b2b2; stroke-linejoin: miter"/>
   </g>
   <g id="patch_20">
    <path d="M 7.2 33.997079 
L 19.38049 33.997079 
L 19.38049 21.816589 
L 7.2 21.816589 
z
" clip-path="url(#p51ac57b92b)" style="fill: #b2b2b2; stroke: #b2b2b2; stroke-linejoin: miter"/>
   </g>
   <g id="patch_21">
    <path d="M 7.2 19.38049 
L 19.38049 19.38049 
L 19.38049 7.2 
L 7.2 7.2 
z
" clip-path="url(#p51ac57b92b)" style="fill: #b2b2b2; stroke: #b2b2b2; stroke-linejoin: miter"/>
   </g>
   <g id="patch_22">
    <path d="M 21.816589 19.38049 
L 33.997079 19.38049 
L 33.997079 7.2 
L 21.816589 7.2 
z
" clip-path="url(#p51ac57b92b)" style="fill: #b2b2b2; stroke: #b2b2b2; stroke-linejoin: miter"/>
   </g>
   <g id="patch_23">
    <path d="M 21.816589 33.997079 
L 33.997079 33.997079 
L 33.997079 21.816589 
L 21.816589 21.816589 
z
" clip-path="url(#p51ac57b92b)" style="fill: #b2b2b2; stroke: #b2b2b2; stroke-linejoin: miter"/>
   </g>
   <g id="patch_24">
    <path d="M 21.816589 48.613668 
L 33.997079 48.613668 
L 33.997079 36.433177 
L 21.816589 36.433177 
z
" clip-path="url(#p51ac57b92b)" style="fill: #b2b2b2; stroke: #b2b2b2; stroke-linejoin: miter"/>
   </g>
   <g id="patch_25">
    <path d="M 21.816589 63.230256 
L 33.997079 63.230256 
L 33.997079 51.049766 
L 21.816589 51.049766 
z
" clip-path="url(#p51ac57b92b)" style="fill: #b2b2b2; stroke: #b2b2b2; stroke-linejoin: miter"/>
   </g>
   <g id="patch_26">
    <path d="M 21.816589 77.846845 
L 33.997079 77.846845 
L 33.997079 65.666354 
L 21.816589 65.666354 
z
" clip-path="url(#p51ac57b92b)" style="fill: #b2b2b2; stroke: #b2b2b2; stroke-linejoin: miter"/>
   </g>
   <g id="patch_27">
    <path d="M 21.816589 92.463433 
L 33.997079 92.463433 
L 33.997079 80.282943 
L 21.816589 80.282943 
z
" clip-path="url(#p51ac57b92b)" style="fill: #b2b2b2; stroke: #b2b2b2; stroke-linejoin: miter"/>
   </g>
   <g id="patch_28">
    <path d="M 21.816589 107.080022 
L 33.997079 107.080022 
L 33.997079 94.899532 
L 21.816589 94.899532 
z
" clip-path="url(#p51ac57b92b)" style="fill: #b2b2b2; stroke: #b2b2b2; stroke-linejoin: miter"/>
   </g>
   <g id="patch_29">
    <path d="M 21.816589 121.696611 
L 33.997079 121.696611 
L 33.997079 109.51612 
L 21.816589 109.51612 
z
" clip-path="url(#p51ac57b92b)" style="fill: #b2b2b2; stroke: #b2b2b2; stroke-linejoin: miter"/>
   </g>
   <g id="patch_30">
    <path d="M 21.816589 136.313199 
L 33.997079 136.313199 
L 33.997079 124.132709 
L 21.816589 124.132709 
z
" clip-path="url(#p51ac57b92b)" style="fill: #b2b2b2; stroke: #b2b2b2; stroke-linejoin: miter"/>
   </g>
   <g id="patch_31">
    <path d="M 21.816589 150.929788 
L 33.997079 150.929788 
L 33.997079 138.749297 
L 21.816589 138.749297 
z
" clip-path="url(#p51ac57b92b)" style="fill: #b2b2b2; stroke: #b2b2b2; stroke-linejoin: miter"/>
   </g>
   <g id="patch_32">
    <path d="M 21.816589 165.546376 
L 33.997079 165.546376 
L 33.997079 153.365886 
L 21.816589 153.365886 
z
" clip-path="url(#p51ac57b92b)" style="fill: #b2b2b2; stroke: #b2b2b2; stroke-linejoin: miter"/>
   </g>
   <g id="patch_33">
    <path d="M 21.816589 180.162965 
L 33.997079 180.162965 
L 33.997079 167.982474 
L 21.816589 167.982474 
z
" clip-path="url(#p51ac57b92b)" style="fill: #b2b2b2; stroke: #b2b2b2; stroke-linejoin: miter"/>
   </g>
   <g id="patch_34">
    <path d="M 21.816589 194.779554 
L 33.997079 194.779554 
L 33.997079 182.599063 
L 21.816589 182.599063 
z
" clip-path="url(#p51ac57b92b)" style="fill: #b2b2b2; stroke: #b2b2b2; stroke-linejoin: miter"/>
   </g>
   <g id="patch_35">
    <path d="M 21.816589 209.396142 
L 33.997079 209.396142 
L 33.997079 197.215652 
L 21.816589 197.215652 
z
" clip-path="url(#p51ac57b92b)" style="fill: #b2b2b2; stroke: #b2b2b2; stroke-linejoin: miter"/>
   </g>
   <g id="patch_36">
    <path d="M 21.816589 224.012731 
L 33.997079 224.012731 
L 33.997079 211.83224 
L 21.816589 211.83224 
z
" clip-path="url(#p51ac57b92b)" style="fill: #b2b2b2; stroke: #b2b2b2; stroke-linejoin: miter"/>
   </g>
   <g id="patch_37">
    <path d="M 21.816589 238.629319 
L 33.997079 238.629319 
L 33.997079 226.448829 
L 21.816589 226.448829 
z
" clip-path="url(#p51ac57b92b)" style="fill: #b2b2b2; stroke: #b2b2b2; stroke-linejoin: miter"/>
   </g>
   <g id="patch_38">
    <path d="M 21.816589 253.245908 
L 33.997079 253.245908 
L 33.997079 241.065417 
L 21.816589 241.065417 
z
" clip-path="url(#p51ac57b92b)" style="fill: #b2b2b2; stroke: #b2b2b2; stroke-linejoin: miter"/>
   </g>
   <g id="patch_39">
    <path d="M 21.816589 267.862496 
L 33.997079 267.862496 
L 33.997079 255.682006 
L 21.816589 255.682006 
z
" clip-path="url(#p51ac57b92b)" style="fill: #b2b2b2; stroke: #b2b2b2; stroke-linejoin: miter"/>
   </g>
   <g id="patch_40">
    <path d="M 21.816589 282.479085 
L 33.997079 282.479085 
L 33.997079 270.298595 
L 21.816589 270.298595 
z
" clip-path="url(#p51ac57b92b)" style="fill: #b2b2b2; stroke: #b2b2b2; stroke-linejoin: miter"/>
   </g>
   <g id="patch_41">
    <path d="M 21.816589 297.095674 
L 33.997079 297.095674 
L 33.997079 284.915183 
L 21.816589 284.915183 
z
" clip-path="url(#p51ac57b92b)" style="fill: #b2b2b2; stroke: #b2b2b2; stroke-linejoin: miter"/>
   </g>
   <g id="patch_42">
    <path d="M 36.433177 297.095674 
L 48.613668 297.095674 
L 48.613668 284.915183 
L 36.433177 284.915183 
z
" clip-path="url(#p51ac57b92b)" style="fill: #b2b2b2; stroke: #b2b2b2; stroke-linejoin: miter"/>
   </g>
   <g id="patch_43">
    <path d="M 36.433177 282.479085 
L 48.613668 282.479085 
L 48.613668 270.298595 
L 36.433177 270.298595 
z
" clip-path="url(#p51ac57b92b)" style="fill: #b2b2b2; stroke: #b2b2b2; stroke-linejoin: miter"/>
   </g>
   <g id="patch_44">
    <path d="M 36.433177 267.862496 
L 48.613668 267.862496 
L 48.613668 255.682006 
L 36.433177 255.682006 
z
" clip-path="url(#p51ac57b92b)" style="fill: #b2b2b2; stroke: #b2b2b2; stroke-linejoin: miter"/>
   </g>
   <g id="patch_45">
    <path d="M 36.433177 253.245908 
L 48.613668 253.245908 
L 48.613668 241.065417 
L 36.433177 241.065417 
z
" clip-path="url(#p51ac57b92b)" style="fill: #b2b2b2; stroke: #b2b2b2; stroke-linejoin: miter"/>
   </g>
   <g id="patch_46">
    <path d="M 36.433177 238.629319 
L 48.613668 238.629319 
L 48.613668 226.448829 
L 36.433177 226.448829 
z
" clip-path="url(#p51ac57b92b)" style="fill: #b2b2b2; stroke: #b2b2b2; stroke-linejoin: miter"/>
   </g>
   <g id="patch_47">
    <path d="M 36.433177 224.012731 
L 48.613668 224.012731 
L 48.613668 211.83224 
L 36.433177 211.83224 
z
" clip-path="url(#p51ac57b92b)" style="fill: #b2b2b2; stroke: #b2b2b2; stroke-linejoin: miter"/>
   </g>
   <g id="patch_48">
    <path d="M 36.433177 209.396142 
L 48.613668 209.396142 
L 48.613668 197.215652 
L 36.433177 197.215652 
z
" clip-path="url(#p51ac57b92b)" style="fill: #b2b2b2; stroke: #b2b2b2; stroke-linejoin: miter"/>
   </g>
   <g id="patch_49">
    <path d="M 36.433177 194.779554 
L 48.613668 194.779554 
L 48.613668 182.599063 
L 36.433177 182.599063 
z
" clip-path="url(#p51ac57b92b)" style="fill: #b2b2b2; stroke: #b2b2b2; stroke-linejoin: miter"/>
   </g>
   <g id="patch_50">
    <path d="M 36.433177 180.162965 
L 48.613668 180.162965 
L 48.613668 167.982474 
L 36.433177 167.982474 
z
" clip-path="url(#p51ac57b92b)" style="fill: #b2b2b2; stroke: #b2b2b2; stroke-linejoin: miter"/>
   </g>
   <g id="patch_51">
    <path d="M 36.433177 165.546376 
L 48.613668 165.546376 
L 48.613668 153.365886 
L 36.433177 153.365886 
z
" clip-path="url(#p51ac57b92b)" style="fill: #b2b2b2; stroke: #b2b2b2; stroke-linejoin: miter"/>
   </g>
   <g id="patch_52">
    <path d="M 36.433177 150.929788 
L 48.613668 150.929788 
L 48.613668 138.749297 
L 36.433177 138.749297 
z
" clip-path="url(#p51ac57b92b)" style="fill: #b2b2b2; stroke: #b2b2b2; stroke-linejoin: miter"/>
   </g>
   <g id="patch_53">
    <path d="M 36.433177 136.313199 
L 48.613668 136.313199 
L 48.613668 124.132709 
L 36.433177 124.132709 
z
" clip-path="url(#p51ac57b92b)" style="fill: #b2b2b2; stroke: #b2b2b2; stroke-linejoin: miter"/>
   </g>
   <g id="patch_54">
    <path d="M 36.433177 121.696611 
L 48.613668 121.696611 
L 48.613668 109.51612 
L 36.433177 109.51612 
z
" clip-path="url(#p51ac57b92b)" style="fill: #b2b2b2; stroke: #b2b2b2; stroke-linejoin: miter"/>
   </g>
   <g id="patch_55">
    <path d="M 36.433177 107.080022 
L 48.613668 107.080022 
L 48.613668 94.899532 
L 36.433177 94.899532 
z
" clip-path="url(#p51ac57b92b)" style="fill: #b2b2b2; stroke: #b2b2b2; stroke-linejoin: miter"/>
   </g>
   <g id="patch_56">
    <path d="M 36.433177 92.463433 
L 48.613668 92.463433 
L 48.613668 80.282943 
L 36.433177 80.282943 
z
" clip-path="url(#p51ac57b92b)" style="fill: #b2b2b2; stroke: #b2b2b2; stroke-linejoin: miter"/>
   </g>
   <g id="patch_57">
    <path d="M 36.433177 77.846845 
L 48.613668 77.846845 
L 48.613668 65.666354 
L 36.433177 65.666354 
z
" clip-path="url(#p51ac57b92b)" style="fill: #b2b2b2; stroke: #b2b2b2; stroke-linejoin: miter"/>
   </g>
   <g id="patch_58">
    <path d="M 36.433177 63.230256 
L 48.613668 63.230256 
L 48.613668 51.049766 
L 36.433177 51.049766 
z
" clip-path="url(#p51ac57b92b)" style="fill: #b2b2b2; stroke: #b2b2b2; stroke-linejoin: miter"/>
   </g>
   <g id="patch_59">
    <path d="M 36.433177 48.613668 
L 48.613668 48.613668 
L 48.613668 36.433177 
L 36.433177 36.433177 
z
" clip-path="url(#p51ac57b92b)" style="fill: #b2b2b2; stroke: #b2b2b2; stroke-linejoin: miter"/>
   </g>
   <g id="patch_60">
    <path d="M 36.433177 33.997079 
L 48.613668 33.997079 
L 48.613668 21.816589 
L 36.433177 21.816589 
z
" clip-path="url(#p51ac57b92b)" style="fill: #b2b2b2; stroke: #b2b2b2; stroke-linejoin: miter"/>
   </g>
   <g id="patch_61">
    <path d="M 36.433177 19.38049 
L 48.613668 19.38049 
L 48.613668 7.2 
L 36.433177 7.2 
z
" clip-path="url(#p51ac57b92b)" style="fill: #b2b2b2; stroke: #b2b2b2; stroke-linejoin: miter"/>
   </g>
   <g id="patch_62">
    <path d="M 51.049766 19.38049 
L 63.230256 19.38049 
L 63.230256 7.2 
L 51.049766 7.2 
z
" clip-path="url(#p51ac57b92b)" style="fill: #b2b2b2; stroke: #b2b2b2; stroke-linejoin: miter"/>
   </g>
   <g id="patch_63">
    <path d="M 51.049766 33.997079 
L 63.230256 33.997079 
L 63.230256 21.816589 
L 51.049766 21.816589 
z
" clip-path="url(#p51ac57b92b)" style="fill: #b2b2b2; stroke: #b2b2b2; stroke-linejoin: miter"/>
   </g>
   <g id="patch_64">
    <path d="M 51.049766 48.613668 
L 63.230256 48.613668 
L 63.230256 36.433177 
L 51.049766 36.433177 
z
" clip-path="url(#p51ac57b92b)" style="fill: #b2b2b2; stroke: #b2b2b2; stroke-linejoin: miter"/>
   </g>
   <g id="patch_65">
    <path d="M 51.049766 63.230256 
L 63.230256 63.230256 
L 63.230256 51.049766 
L 51.049766 51.049766 
z
" clip-path="url(#p51ac57b92b)" style="fill: #b2b2b2; stroke: #b2b2b2; stroke-linejoin: miter"/>
   </g>
   <g id="patch_66">
    <path d="M 51.049766 77.846845 
L 63.230256 77.846845 
L 63.230256 65.666354 
L 51.049766 65.666354 
z
" clip-path="url(#p51ac57b92b)" style="fill: #b2b2b2; stroke: #b2b2b2; stroke-linejoin: miter"/>
   </g>
   <g id="patch_67">
    <path d="M 51.049766 92.463433 
L 63.230256 92.463433 
L 63.230256 80.282943 
L 51.049766 80.282943 
z
" clip-path="url(#p51ac57b92b)" style="fill: #b2b2b2; stroke: #b2b2b2; stroke-linejoin: miter"/>
   </g>
   <g id="patch_68">
    <path d="M 51.049766 107.080022 
L 63.230256 107.080022 
L 63.230256 94.899532 
L 51.049766 94.899532 
z
" clip-path="url(#p51ac57b92b)" style="fill: #b2b2b2; stroke: #b2b2b2; stroke-linejoin: miter"/>
   </g>
   <g id="patch_69">
    <path d="M 51.049766 121.696611 
L 63.230256 121.696611 
L 63.230256 109.51612 
L 51.049766 109.51612 
z
" clip-path="url(#p51ac57b92b)" style="fill: #b2b2b2; stroke: #b2b2b2; stroke-linejoin: miter"/>
   </g>
   <g id="patch_70">
    <path d="M 51.049766 136.313199 
L 63.230256 136.313199 
L 63.230256 124.132709 
L 51.049766 124.132709 
z
" clip-path="url(#p51ac57b92b)" style="fill: #b2b2b2; stroke: #b2b2b2; stroke-linejoin: miter"/>
   </g>
   <g id="patch_71">
    <path d="M 51.049766 150.929788 
L 63.230256 150.929788 
L 63.230256 138.749297 
L 51.049766 138.749297 
z
" clip-path="url(#p51ac57b92b)" style="fill: #b2b2b2; stroke: #b2b2b2; stroke-linejoin: miter"/>
   </g>
   <g id="patch_72">
    <path d="M 51.049766 165.546376 
L 63.230256 165.546376 
L 63.230256 153.365886 
L 51.049766 153.365886 
z
" clip-path="url(#p51ac57b92b)" style="fill: #b2b2b2; stroke: #b2b2b2; stroke-linejoin: miter"/>
   </g>
   <g id="patch_73">
    <path d="M 51.049766 180.162965 
L 63.230256 180.162965 
L 63.230256 167.982474 
L 51.049766 167.982474 
z
" clip-path="url(#p51ac57b92b)" style="fill: #b2b2b2; stroke: #b2b2b2; stroke-linejoin: miter"/>
   </g>
   <g id="patch_74">
    <path d="M 51.049766 194.779554 
L 63.230256 194.779554 
L 63.230256 182.599063 
L 51.049766 182.599063 
z
" clip-path="url(#p51ac57b92b)" style="fill: #b2b2b2; stroke: #b2b2b2; stroke-linejoin: miter"/>
   </g>
   <g id="patch_75">
    <path d="M 51.049766 209.396142 
L 63.230256 209.396142 
L 63.230256 197.215652 
L 51.049766 197.215652 
z
" clip-path="url(#p51ac57b92b)" style="fill: #b2b2b2; stroke: #b2b2b2; stroke-linejoin: miter"/>
   </g>
   <g id="patch_76">
    <path d="M 51.049766 224.012731 
L 63.230256 224.012731 
L 63.230256 211.83224 
L 51.049766 211.83224 
z
" clip-path="url(#p51ac57b92b)" style="fill: #b2b2b2; stroke: #b2b2b2; stroke-linejoin: miter"/>
   </g>
   <g id="patch_77">
    <path d="M 51.049766 238.629319 
L 63.230256 238.629319 
L 63.230256 226.448829 
L 51.049766 226.448829 
z
" clip-path="url(#p51ac57b92b)" style="fill: #b2b2b2; stroke: #b2b2b2; stroke-linejoin: miter"/>
   </g>
   <g id="patch_78">
    <path d="M 51.049766 253.245908 
L 63.230256 253.245908 
L 63.230256 241.065417 
L 51.049766 241.065417 
z
" clip-path="url(#p51ac57b92b)" style="fill: #b2b2b2; stroke: #b2b2b2; stroke-linejoin: miter"/>
   </g>
   <g id="patch_79">
    <path d="M 51.049766 267.862496 
L 63.230256 267.862496 
L 63.230256 255.682006 
L 51.049766 255.682006 
z
" clip-path="url(#p51ac57b92b)" style="fill: #b2b2b2; stroke: #b2b2b2; stroke-linejoin: miter"/>
   </g>
   <g id="patch_80">
    <path d="M 51.049766 282.479085 
L 63.230256 282.479085 
L 63.230256 270.298595 
L 51.049766 270.298595 
z
" clip-path="url(#p51ac57b92b)" style="fill: #b2b2b2; stroke: #b2b2b2; stroke-linejoin: miter"/>
   </g>
   <g id="patch_81">
    <path d="M 51.049766 297.095674 
L 63.230256 297.095674 
L 63.230256 284.915183 
L 51.049766 284.915183 
z
" clip-path="url(#p51ac57b92b)" style="fill: #b2b2b2; stroke: #b2b2b2; stroke-linejoin: miter"/>
   </g>
   <g id="patch_82">
    <path d="M 65.666354 297.095674 
L 77.846845 297.095674 
L 77.846845 284.915183 
L 65.666354 284.915183 
z
" clip-path="url(#p51ac57b92b)" style="fill: #b2b2b2; stroke: #b2b2b2; stroke-linejoin: miter"/>
   </g>
   <g id="patch_83">
    <path d="M 65.666354 282.479085 
L 77.846845 282.479085 
L 77.846845 270.298595 
L 65.666354 270.298595 
z
" clip-path="url(#p51ac57b92b)" style="fill: #b2b2b2; stroke: #b2b2b2; stroke-linejoin: miter"/>
   </g>
   <g id="patch_84">
    <path d="M 65.666354 267.862496 
L 77.846845 267.862496 
L 77.846845 255.682006 
L 65.666354 255.682006 
z
" clip-path="url(#p51ac57b92b)" style="fill: #b2b2b2; stroke: #b2b2b2; stroke-linejoin: miter"/>
   </g>
   <g id="patch_85">
    <path d="M 65.666354 253.245908 
L 77.846845 253.245908 
L 77.846845 241.065417 
L 65.666354 241.065417 
z
" clip-path="url(#p51ac57b92b)" style="fill: #b2b2b2; stroke: #b2b2b2; stroke-linejoin: miter"/>
   </g>
   <g id="patch_86">
    <path d="M 65.666354 238.629319 
L 77.846845 238.629319 
L 77.846845 226.448829 
L 65.666354 226.448829 
z
" clip-path="url(#p51ac57b92b)" style="fill: #b2b2b2; stroke: #b2b2b2; stroke-linejoin: miter"/>
   </g>
   <g id="patch_87">
    <path d="M 65.666354 224.012731 
L 77.846845 224.012731 
L 77.846845 211.83224 
L 65.666354 211.83224 
z
" clip-path="url(#p51ac57b92b)" style="fill: #b2b2b2; stroke: #b2b2b2; stroke-linejoin: miter"/>
   </g>
   <g id="patch_88">
    <path d="M 65.666354 209.396142 
L 77.846845 209.396142 
L 77.846845 197.215652 
L 65.666354 197.215652 
z
" clip-path="url(#p51ac57b92b)" style="fill: #b2b2b2; stroke: #b2b2b2; stroke-linejoin: miter"/>
   </g>
   <g id="patch_89">
    <path d="M 65.666354 194.779554 
L 77.846845 194.779554 
L 77.846845 182.599063 
L 65.666354 182.599063 
z
" clip-path="url(#p51ac57b92b)" style="fill: #b2b2b2; stroke: #b2b2b2; stroke-linejoin: miter"/>
   </g>
   <g id="patch_90">
    <path d="M 65.666354 180.162965 
L 77.846845 180.162965 
L 77.846845 167.982474 
L 65.666354 167.982474 
z
" clip-path="url(#p51ac57b92b)" style="fill: #b2b2b2; stroke: #b2b2b2; stroke-linejoin: miter"/>
   </g>
   <g id="patch_91">
    <path d="M 65.666354 165.546376 
L 77.846845 165.546376 
L 77.846845 153.365886 
L 65.666354 153.365886 
z
" clip-path="url(#p51ac57b92b)" style="fill: #b2b2b2; stroke: #b2b2b2; stroke-linejoin: miter"/>
   </g>
   <g id="patch_92">
    <path d="M 65.666354 150.929788 
L 77.846845 150.929788 
L 77.846845 138.749297 
L 65.666354 138.749297 
z
" clip-path="url(#p51ac57b92b)" style="fill: #b2b2b2; stroke: #b2b2b2; stroke-linejoin: miter"/>
   </g>
   <g id="patch_93">
    <path d="M 65.666354 136.313199 
L 77.846845 136.313199 
L 77.846845 124.132709 
L 65.666354 124.132709 
z
" clip-path="url(#p51ac57b92b)" style="fill: #b2b2b2; stroke: #b2b2b2; stroke-linejoin: miter"/>
   </g>
   <g id="patch_94">
    <path d="M 65.666354 121.696611 
L 77.846845 121.696611 
L 77.846845 109.51612 
L 65.666354 109.51612 
z
" clip-path="url(#p51ac57b92b)" style="fill: #b2b2b2; stroke: #b2b2b2; stroke-linejoin: miter"/>
   </g>
   <g id="patch_95">
    <path d="M 65.666354 107.080022 
L 77.846845 107.080022 
L 77.846845 94.899532 
L 65.666354 94.899532 
z
" clip-path="url(#p51ac57b92b)" style="fill: #b2b2b2; stroke: #b2b2b2; stroke-linejoin: miter"/>
   </g>
   <g id="patch_96">
    <path d="M 65.666354 92.463433 
L 77.846845 92.463433 
L 77.846845 80.282943 
L 65.666354 80.282943 
z
" clip-path="url(#p51ac57b92b)" style="fill: #b2b2b2; stroke: #b2b2b2; stroke-linejoin: miter"/>
   </g>
   <g id="patch_97">
    <path d="M 65.666354 77.846845 
L 77.846845 77.846845 
L 77.846845 65.666354 
L 65.666354 65.666354 
z
" clip-path="url(#p51ac57b92b)" style="fill: #b2b2b2; stroke: #b2b2b2; stroke-linejoin: miter"/>
   </g>
   <g id="patch_98">
    <path d="M 65.666354 63.230256 
L 77.846845 63.230256 
L 77.846845 51.049766 
L 65.666354 51.049766 
z
" clip-path="url(#p51ac57b92b)" style="fill: #b2b2b2; stroke: #b2b2b2; stroke-linejoin: miter"/>
   </g>
   <g id="patch_99">
    <path d="M 65.666354 48.613668 
L 77.846845 48.613668 
L 77.846845 36.433177 
L 65.666354 36.433177 
z
" clip-path="url(#p51ac57b92b)" style="fill: #b2b2b2; stroke: #b2b2b2; stroke-linejoin: miter"/>
   </g>
   <g id="patch_100">
    <path d="M 65.666354 33.997079 
L 77.846845 33.997079 
L 77.846845 21.816589 
L 65.666354 21.816589 
z
" clip-path="url(#p51ac57b92b)" style="fill: #b2b2b2; stroke: #b2b2b2; stroke-linejoin: miter"/>
   </g>
   <g id="patch_101">
    <path d="M 65.666354 19.38049 
L 77.846845 19.38049 
L 77.846845 7.2 
L 65.666354 7.2 
z
" clip-path="url(#p51ac57b92b)" style="fill: #b2b2b2; stroke: #b2b2b2; stroke-linejoin: miter"/>
   </g>
   <g id="patch_102">
    <path d="M 80.282943 19.38049 
L 92.463433 19.38049 
L 92.463433 7.2 
L 80.282943 7.2 
z
" clip-path="url(#p51ac57b92b)" style="fill: #b2b2b2; stroke: #b2b2b2; stroke-linejoin: miter"/>
   </g>
   <g id="patch_103">
    <path d="M 80.282943 33.997079 
L 92.463433 33.997079 
L 92.463433 21.816589 
L 80.282943 21.816589 
z
" clip-path="url(#p51ac57b92b)" style="fill: #b2b2b2; stroke: #b2b2b2; stroke-linejoin: miter"/>
   </g>
   <g id="patch_104">
    <path d="M 80.282943 48.613668 
L 92.463433 48.613668 
L 92.463433 36.433177 
L 80.282943 36.433177 
z
" clip-path="url(#p51ac57b92b)" style="fill: #b2b2b2; stroke: #b2b2b2; stroke-linejoin: miter"/>
   </g>
   <g id="patch_105">
    <path d="M 80.282943 63.230256 
L 92.463433 63.230256 
L 92.463433 51.049766 
L 80.282943 51.049766 
z
" clip-path="url(#p51ac57b92b)" style="fill: #b2b2b2; stroke: #b2b2b2; stroke-linejoin: miter"/>
   </g>
   <g id="patch_106">
    <path d="M 80.282943 77.846845 
L 92.463433 77.846845 
L 92.463433 65.666354 
L 80.282943 65.666354 
z
" clip-path="url(#p51ac57b92b)" style="fill: #b2b2b2; stroke: #b2b2b2; stroke-linejoin: miter"/>
   </g>
   <g id="patch_107">
    <path d="M 80.282943 92.463433 
L 92.463433 92.463433 
L 92.463433 80.282943 
L 80.282943 80.282943 
z
" clip-path="url(#p51ac57b92b)" style="fill: #b2b2b2; stroke: #b2b2b2; stroke-linejoin: miter"/>
   </g>
   <g id="patch_108">
    <path d="M 80.282943 107.080022 
L 92.463433 107.080022 
L 92.463433 94.899532 
L 80.282943 94.899532 
z
" clip-path="url(#p51ac57b92b)" style="fill: #b2b2b2; stroke: #b2b2b2; stroke-linejoin: miter"/>
   </g>
   <g id="patch_109">
    <path d="M 80.282943 121.696611 
L 92.463433 121.696611 
L 92.463433 109.51612 
L 80.282943 109.51612 
z
" clip-path="url(#p51ac57b92b)" style="fill: #b2b2b2; stroke: #b2b2b2; stroke-linejoin: miter"/>
   </g>
   <g id="patch_110">
    <path d="M 80.282943 136.313199 
L 92.463433 136.313199 
L 92.463433 124.132709 
L 80.282943 124.132709 
z
" clip-path="url(#p51ac57b92b)" style="fill: #b2b2b2; stroke: #b2b2b2; stroke-linejoin: miter"/>
   </g>
   <g id="patch_111">
    <path d="M 80.282943 150.929788 
L 92.463433 150.929788 
L 92.463433 138.749297 
L 80.282943 138.749297 
z
" clip-path="url(#p51ac57b92b)" style="fill: #b2b2b2; stroke: #b2b2b2; stroke-linejoin: miter"/>
   </g>
   <g id="patch_112">
    <path d="M 80.282943 165.546376 
L 92.463433 165.546376 
L 92.463433 153.365886 
L 80.282943 153.365886 
z
" clip-path="url(#p51ac57b92b)" style="fill: #b2b2b2; stroke: #b2b2b2; stroke-linejoin: miter"/>
   </g>
   <g id="patch_113">
    <path d="M 80.282943 180.162965 
L 92.463433 180.162965 
L 92.463433 167.982474 
L 80.282943 167.982474 
z
" clip-path="url(#p51ac57b92b)" style="fill: #b2b2b2; stroke: #b2b2b2; stroke-linejoin: miter"/>
   </g>
   <g id="patch_114">
    <path d="M 80.282943 194.779554 
L 92.463433 194.779554 
L 92.463433 182.599063 
L 80.282943 182.599063 
z
" clip-path="url(#p51ac57b92b)" style="fill: #b2b2b2; stroke: #b2b2b2; stroke-linejoin: miter"/>
   </g>
   <g id="patch_115">
    <path d="M 80.282943 209.396142 
L 92.463433 209.396142 
L 92.463433 197.215652 
L 80.282943 197.215652 
z
" clip-path="url(#p51ac57b92b)" style="fill: #b2b2b2; stroke: #b2b2b2; stroke-linejoin: miter"/>
   </g>
   <g id="patch_116">
    <path d="M 80.282943 224.012731 
L 92.463433 224.012731 
L 92.463433 211.83224 
L 80.282943 211.83224 
z
" clip-path="url(#p51ac57b92b)" style="fill: #b2b2b2; stroke: #b2b2b2; stroke-linejoin: miter"/>
   </g>
   <g id="patch_117">
    <path d="M 80.282943 238.629319 
L 92.463433 238.629319 
L 92.463433 226.448829 
L 80.282943 226.448829 
z
" clip-path="url(#p51ac57b92b)" style="fill: #b2b2b2; stroke: #b2b2b2; stroke-linejoin: miter"/>
   </g>
   <g id="patch_118">
    <path d="M 80.282943 253.245908 
L 92.463433 253.245908 
L 92.463433 241.065417 
L 80.282943 241.065417 
z
" clip-path="url(#p51ac57b92b)" style="fill: #b2b2b2; stroke: #b2b2b2; stroke-linejoin: miter"/>
   </g>
   <g id="patch_119">
    <path d="M 80.282943 267.862496 
L 92.463433 267.862496 
L 92.463433 255.682006 
L 80.282943 255.682006 
z
" clip-path="url(#p51ac57b92b)" style="fill: #b2b2b2; stroke: #b2b2b2; stroke-linejoin: miter"/>
   </g>
   <g id="patch_120">
    <path d="M 80.282943 282.479085 
L 92.463433 282.479085 
L 92.463433 270.298595 
L 80.282943 270.298595 
z
" clip-path="url(#p51ac57b92b)" style="fill: #b2b2b2; stroke: #b2b2b2; stroke-linejoin: miter"/>
   </g>
   <g id="patch_121">
    <path d="M 80.282943 297.095674 
L 92.463433 297.095674 
L 92.463433 284.915183 
L 80.282943 284.915183 
z
" clip-path="url(#p51ac57b92b)" style="fill: #b2b2b2; stroke: #b2b2b2; stroke-linejoin: miter"/>
   </g>
   <g id="patch_122">
    <path d="M 94.899532 297.095674 
L 107.080022 297.095674 
L 107.080022 284.915183 
L 94.899532 284.915183 
z
" clip-path="url(#p51ac57b92b)" style="fill: #b2b2b2; stroke: #b2b2b2; stroke-linejoin: miter"/>
   </g>
   <g id="patch_123">
    <path d="M 94.899532 282.479085 
L 107.080022 282.479085 
L 107.080022 270.298595 
L 94.899532 270.298595 
z
" clip-path="url(#p51ac57b92b)" style="fill: #b2b2b2; stroke: #b2b2b2; stroke-linejoin: miter"/>
   </g>
   <g id="patch_124">
    <path d="M 94.899532 267.862496 
L 107.080022 267.862496 
L 107.080022 255.682006 
L 94.899532 255.682006 
z
" clip-path="url(#p51ac57b92b)" style="fill: #b2b2b2; stroke: #b2b2b2; stroke-linejoin: miter"/>
   </g>
   <g id="patch_125">
    <path d="M 94.899532 253.245908 
L 107.080022 253.245908 
L 107.080022 241.065417 
L 94.899532 241.065417 
z
" clip-path="url(#p51ac57b92b)" style="fill: #b2b2b2; stroke: #b2b2b2; stroke-linejoin: miter"/>
   </g>
   <g id="patch_126">
    <path d="M 94.899532 238.629319 
L 107.080022 238.629319 
L 107.080022 226.448829 
L 94.899532 226.448829 
z
" clip-path="url(#p51ac57b92b)" style="fill: #b2b2b2; stroke: #b2b2b2; stroke-linejoin: miter"/>
   </g>
   <g id="patch_127">
    <path d="M 94.899532 224.012731 
L 107.080022 224.012731 
L 107.080022 211.83224 
L 94.899532 211.83224 
z
" clip-path="url(#p51ac57b92b)" style="fill: #b2b2b2; stroke: #b2b2b2; stroke-linejoin: miter"/>
   </g>
   <g id="patch_128">
    <path d="M 94.899532 209.396142 
L 107.080022 209.396142 
L 107.080022 197.215652 
L 94.899532 197.215652 
z
" clip-path="url(#p51ac57b92b)" style="fill: #b2b2b2; stroke: #b2b2b2; stroke-linejoin: miter"/>
   </g>
   <g id="patch_129">
    <path d="M 94.899532 194.779554 
L 107.080022 194.779554 
L 107.080022 182.599063 
L 94.899532 182.599063 
z
" clip-path="url(#p51ac57b92b)" style="fill: #b2b2b2; stroke: #b2b2b2; stroke-linejoin: miter"/>
   </g>
   <g id="patch_130">
    <path d="M 94.899532 180.162965 
L 107.080022 180.162965 
L 107.080022 167.982474 
L 94.899532 167.982474 
z
" clip-path="url(#p51ac57b92b)" style="fill: #b2b2b2; stroke: #b2b2b2; stroke-linejoin: miter"/>
   </g>
   <g id="patch_131">
    <path d="M 94.899532 165.546376 
L 107.080022 165.546376 
L 107.080022 153.365886 
L 94.899532 153.365886 
z
" clip-path="url(#p51ac57b92b)" style="fill: #b2b2b2; stroke: #b2b2b2; stroke-linejoin: miter"/>
   </g>
   <g id="patch_132">
    <path d="M 94.899532 150.929788 
L 107.080022 150.929788 
L 107.080022 138.749297 
L 94.899532 138.749297 
z
" clip-path="url(#p51ac57b92b)" style="fill: #b2b2b2; stroke: #b2b2b2; stroke-linejoin: miter"/>
   </g>
   <g id="patch_133">
    <path d="M 94.899532 136.313199 
L 107.080022 136.313199 
L 107.080022 124.132709 
L 94.899532 124.132709 
z
" clip-path="url(#p51ac57b92b)" style="fill: #b2b2b2; stroke: #b2b2b2; stroke-linejoin: miter"/>
   </g>
   <g id="patch_134">
    <path d="M 94.899532 121.696611 
L 107.080022 121.696611 
L 107.080022 109.51612 
L 94.899532 109.51612 
z
" clip-path="url(#p51ac57b92b)" style="fill: #b2b2b2; stroke: #b2b2b2; stroke-linejoin: miter"/>
   </g>
   <g id="patch_135">
    <path d="M 94.899532 107.080022 
L 107.080022 107.080022 
L 107.080022 94.899532 
L 94.899532 94.899532 
z
" clip-path="url(#p51ac57b92b)" style="fill: #b2b2b2; stroke: #b2b2b2; stroke-linejoin: miter"/>
   </g>
   <g id="patch_136">
    <path d="M 94.899532 92.463433 
L 107.080022 92.463433 
L 107.080022 80.282943 
L 94.899532 80.282943 
z
" clip-path="url(#p51ac57b92b)" style="fill: #b2b2b2; stroke: #b2b2b2; stroke-linejoin: miter"/>
   </g>
   <g id="patch_137">
    <path d="M 94.899532 77.846845 
L 107.080022 77.846845 
L 107.080022 65.666354 
L 94.899532 65.666354 
z
" clip-path="url(#p51ac57b92b)" style="fill: #b2b2b2; stroke: #b2b2b2; stroke-linejoin: miter"/>
   </g>
   <g id="patch_138">
    <path d="M 94.899532 63.230256 
L 107.080022 63.230256 
L 107.080022 51.049766 
L 94.899532 51.049766 
z
" clip-path="url(#p51ac57b92b)" style="fill: #b2b2b2; stroke: #b2b2b2; stroke-linejoin: miter"/>
   </g>
   <g id="patch_139">
    <path d="M 94.899532 48.613668 
L 107.080022 48.613668 
L 107.080022 36.433177 
L 94.899532 36.433177 
z
" clip-path="url(#p51ac57b92b)" style="fill: #b2b2b2; stroke: #b2b2b2; stroke-linejoin: miter"/>
   </g>
   <g id="patch_140">
    <path d="M 94.899532 33.997079 
L 107.080022 33.997079 
L 107.080022 21.816589 
L 94.899532 21.816589 
z
" clip-path="url(#p51ac57b92b)" style="fill: #b2b2b2; stroke: #b2b2b2; stroke-linejoin: miter"/>
   </g>
   <g id="patch_141">
    <path d="M 94.899532 19.38049 
L 107.080022 19.38049 
L 107.080022 7.2 
L 94.899532 7.2 
z
" clip-path="url(#p51ac57b92b)" style="fill: #b2b2b2; stroke: #b2b2b2; stroke-linejoin: miter"/>
   </g>
   <g id="patch_142">
    <path d="M 109.51612 19.38049 
L 121.696611 19.38049 
L 121.696611 7.2 
L 109.51612 7.2 
z
" clip-path="url(#p51ac57b92b)" style="fill: #b2b2b2; stroke: #b2b2b2; stroke-linejoin: miter"/>
   </g>
   <g id="patch_143">
    <path d="M 109.51612 33.997079 
L 121.696611 33.997079 
L 121.696611 21.816589 
L 109.51612 21.816589 
z
" clip-path="url(#p51ac57b92b)" style="fill: #b2b2b2; stroke: #b2b2b2; stroke-linejoin: miter"/>
   </g>
   <g id="patch_144">
    <path d="M 109.51612 48.613668 
L 121.696611 48.613668 
L 121.696611 36.433177 
L 109.51612 36.433177 
z
" clip-path="url(#p51ac57b92b)" style="fill: #b2b2b2; stroke: #b2b2b2; stroke-linejoin: miter"/>
   </g>
   <g id="patch_145">
    <path d="M 109.51612 63.230256 
L 121.696611 63.230256 
L 121.696611 51.049766 
L 109.51612 51.049766 
z
" clip-path="url(#p51ac57b92b)" style="fill: #b2b2b2; stroke: #b2b2b2; stroke-linejoin: miter"/>
   </g>
   <g id="patch_146">
    <path d="M 109.51612 77.846845 
L 121.696611 77.846845 
L 121.696611 65.666354 
L 109.51612 65.666354 
z
" clip-path="url(#p51ac57b92b)" style="fill: #b2b2b2; stroke: #b2b2b2; stroke-linejoin: miter"/>
   </g>
   <g id="patch_147">
    <path d="M 109.51612 92.463433 
L 121.696611 92.463433 
L 121.696611 80.282943 
L 109.51612 80.282943 
z
" clip-path="url(#p51ac57b92b)" style="fill: #b2b2b2; stroke: #b2b2b2; stroke-linejoin: miter"/>
   </g>
   <g id="patch_148">
    <path d="M 109.51612 107.080022 
L 121.696611 107.080022 
L 121.696611 94.899532 
L 109.51612 94.899532 
z
" clip-path="url(#p51ac57b92b)" style="fill: #b2b2b2; stroke: #b2b2b2; stroke-linejoin: miter"/>
   </g>
   <g id="patch_149">
    <path d="M 109.51612 121.696611 
L 121.696611 121.696611 
L 121.696611 109.51612 
L 109.51612 109.51612 
z
" clip-path="url(#p51ac57b92b)" style="fill: #b2b2b2; stroke: #b2b2b2; stroke-linejoin: miter"/>
   </g>
   <g id="patch_150">
    <path d="M 109.51612 136.313199 
L 121.696611 136.313199 
L 121.696611 124.132709 
L 109.51612 124.132709 
z
" clip-path="url(#p51ac57b92b)" style="fill: #b2b2b2; stroke: #b2b2b2; stroke-linejoin: miter"/>
   </g>
   <g id="patch_151">
    <path d="M 109.51612 150.929788 
L 121.696611 150.929788 
L 121.696611 138.749297 
L 109.51612 138.749297 
z
" clip-path="url(#p51ac57b92b)" style="fill: #b2b2b2; stroke: #b2b2b2; stroke-linejoin: miter"/>
   </g>
   <g id="patch_152">
    <path d="M 109.51612 165.546376 
L 121.696611 165.546376 
L 121.696611 153.365886 
L 109.51612 153.365886 
z
" clip-path="url(#p51ac57b92b)" style="fill: #b2b2b2; stroke: #b2b2b2; stroke-linejoin: miter"/>
   </g>
   <g id="patch_153">
    <path d="M 109.51612 180.162965 
L 121.696611 180.162965 
L 121.696611 167.982474 
L 109.51612 167.982474 
z
" clip-path="url(#p51ac57b92b)" style="fill: #b2b2b2; stroke: #b2b2b2; stroke-linejoin: miter"/>
   </g>
   <g id="patch_154">
    <path d="M 109.51612 194.779554 
L 121.696611 194.779554 
L 121.696611 182.599063 
L 109.51612 182.599063 
z
" clip-path="url(#p51ac57b92b)" style="fill: #b2b2b2; stroke: #b2b2b2; stroke-linejoin: miter"/>
   </g>
   <g id="patch_155">
    <path d="M 109.51612 209.396142 
L 121.696611 209.396142 
L 121.696611 197.215652 
L 109.51612 197.215652 
z
" clip-path="url(#p51ac57b92b)" style="fill: #b2b2b2; stroke: #b2b2b2; stroke-linejoin: miter"/>
   </g>
   <g id="patch_156">
    <path d="M 109.51612 224.012731 
L 121.696611 224.012731 
L 121.696611 211.83224 
L 109.51612 211.83224 
z
" clip-path="url(#p51ac57b92b)" style="fill: #b2b2b2; stroke: #b2b2b2; stroke-linejoin: miter"/>
   </g>
   <g id="patch_157">
    <path d="M 109.51612 238.629319 
L 121.696611 238.629319 
L 121.696611 226.448829 
L 109.51612 226.448829 
z
" clip-path="url(#p51ac57b92b)" style="fill: #b2b2b2; stroke: #b2b2b2; stroke-linejoin: miter"/>
   </g>
   <g id="patch_158">
    <path d="M 109.51612 253.245908 
L 121.696611 253.245908 
L 121.696611 241.065417 
L 109.51612 241.065417 
z
" clip-path="url(#p51ac57b92b)" style="fill: #b2b2b2; stroke: #b2b2b2; stroke-linejoin: miter"/>
   </g>
   <g id="patch_159">
    <path d="M 109.51612 267.862496 
L 121.696611 267.862496 
L 121.696611 255.682006 
L 109.51612 255.682006 
z
" clip-path="url(#p51ac57b92b)" style="fill: #b2b2b2; stroke: #b2b2b2; stroke-linejoin: miter"/>
   </g>
   <g id="patch_160">
    <path d="M 109.51612 282.479085 
L 121.696611 282.479085 
L 121.696611 270.298595 
L 109.51612 270.298595 
z
" clip-path="url(#p51ac57b92b)" style="fill: #b2b2b2; stroke: #b2b2b2; stroke-linejoin: miter"/>
   </g>
   <g id="patch_161">
    <path d="M 109.51612 297.095674 
L 121.696611 297.095674 
L 121.696611 284.915183 
L 109.51612 284.915183 
z
" clip-path="url(#p51ac57b92b)" style="fill: #b2b2b2; stroke: #b2b2b2; stroke-linejoin: miter"/>
   </g>
   <g id="patch_162">
    <path d="M 124.132709 297.095674 
L 136.313199 297.095674 
L 136.313199 284.915183 
L 124.132709 284.915183 
z
" clip-path="url(#p51ac57b92b)" style="fill: #b2b2b2; stroke: #b2b2b2; stroke-linejoin: miter"/>
   </g>
   <g id="patch_163">
    <path d="M 124.132709 282.479085 
L 136.313199 282.479085 
L 136.313199 270.298595 
L 124.132709 270.298595 
z
" clip-path="url(#p51ac57b92b)" style="fill: #b2b2b2; stroke: #b2b2b2; stroke-linejoin: miter"/>
   </g>
   <g id="patch_164">
    <path d="M 124.132709 267.862496 
L 136.313199 267.862496 
L 136.313199 255.682006 
L 124.132709 255.682006 
z
" clip-path="url(#p51ac57b92b)" style="fill: #b2b2b2; stroke: #b2b2b2; stroke-linejoin: miter"/>
   </g>
   <g id="patch_165">
    <path d="M 124.132709 253.245908 
L 136.313199 253.245908 
L 136.313199 241.065417 
L 124.132709 241.065417 
z
" clip-path="url(#p51ac57b92b)" style="fill: #b2b2b2; stroke: #b2b2b2; stroke-linejoin: miter"/>
   </g>
   <g id="patch_166">
    <path d="M 124.132709 238.629319 
L 136.313199 238.629319 
L 136.313199 226.448829 
L 124.132709 226.448829 
z
" clip-path="url(#p51ac57b92b)" style="fill: #b2b2b2; stroke: #b2b2b2; stroke-linejoin: miter"/>
   </g>
   <g id="patch_167">
    <path d="M 124.132709 224.012731 
L 136.313199 224.012731 
L 136.313199 211.83224 
L 124.132709 211.83224 
z
" clip-path="url(#p51ac57b92b)" style="fill: #b2b2b2; stroke: #b2b2b2; stroke-linejoin: miter"/>
   </g>
   <g id="patch_168">
    <path d="M 124.132709 209.396142 
L 136.313199 209.396142 
L 136.313199 197.215652 
L 124.132709 197.215652 
z
" clip-path="url(#p51ac57b92b)" style="fill: #b2b2b2; stroke: #b2b2b2; stroke-linejoin: miter"/>
   </g>
   <g id="patch_169">
    <path d="M 124.132709 194.779554 
L 136.313199 194.779554 
L 136.313199 182.599063 
L 124.132709 182.599063 
z
" clip-path="url(#p51ac57b92b)" style="fill: #b2b2b2; stroke: #b2b2b2; stroke-linejoin: miter"/>
   </g>
   <g id="patch_170">
    <path d="M 124.132709 180.162965 
L 136.313199 180.162965 
L 136.313199 167.982474 
L 124.132709 167.982474 
z
" clip-path="url(#p51ac57b92b)" style="fill: #b2b2b2; stroke: #b2b2b2; stroke-linejoin: miter"/>
   </g>
   <g id="patch_171">
    <path d="M 124.132709 165.546376 
L 136.313199 165.546376 
L 136.313199 153.365886 
L 124.132709 153.365886 
z
" clip-path="url(#p51ac57b92b)" style="fill: #b2b2b2; stroke: #b2b2b2; stroke-linejoin: miter"/>
   </g>
   <g id="patch_172">
    <path d="M 124.132709 150.929788 
L 136.313199 150.929788 
L 136.313199 138.749297 
L 124.132709 138.749297 
z
" clip-path="url(#p51ac57b92b)" style="fill: #b2b2b2; stroke: #b2b2b2; stroke-linejoin: miter"/>
   </g>
   <g id="patch_173">
    <path d="M 124.132709 136.313199 
L 136.313199 136.313199 
L 136.313199 124.132709 
L 124.132709 124.132709 
z
" clip-path="url(#p51ac57b92b)" style="fill: #b2b2b2; stroke: #b2b2b2; stroke-linejoin: miter"/>
   </g>
   <g id="patch_174">
    <path d="M 124.132709 121.696611 
L 136.313199 121.696611 
L 136.313199 109.51612 
L 124.132709 109.51612 
z
" clip-path="url(#p51ac57b92b)" style="fill: #b2b2b2; stroke: #b2b2b2; stroke-linejoin: miter"/>
   </g>
   <g id="patch_175">
    <path d="M 124.132709 107.080022 
L 136.313199 107.080022 
L 136.313199 94.899532 
L 124.132709 94.899532 
z
" clip-path="url(#p51ac57b92b)" style="fill: #b2b2b2; stroke: #b2b2b2; stroke-linejoin: miter"/>
   </g>
   <g id="patch_176">
    <path d="M 124.132709 92.463433 
L 136.313199 92.463433 
L 136.313199 80.282943 
L 124.132709 80.282943 
z
" clip-path="url(#p51ac57b92b)" style="fill: #b2b2b2; stroke: #b2b2b2; stroke-linejoin: miter"/>
   </g>
   <g id="patch_177">
    <path d="M 124.132709 77.846845 
L 136.313199 77.846845 
L 136.313199 65.666354 
L 124.132709 65.666354 
z
" clip-path="url(#p51ac57b92b)" style="fill: #b2b2b2; stroke: #b2b2b2; stroke-linejoin: miter"/>
   </g>
   <g id="patch_178">
    <path d="M 124.132709 63.230256 
L 136.313199 63.230256 
L 136.313199 51.049766 
L 124.132709 51.049766 
z
" clip-path="url(#p51ac57b92b)" style="fill: #b2b2b2; stroke: #b2b2b2; stroke-linejoin: miter"/>
   </g>
   <g id="patch_179">
    <path d="M 124.132709 48.613668 
L 136.313199 48.613668 
L 136.313199 36.433177 
L 124.132709 36.433177 
z
" clip-path="url(#p51ac57b92b)" style="fill: #b2b2b2; stroke: #b2b2b2; stroke-linejoin: miter"/>
   </g>
   <g id="patch_180">
    <path d="M 124.132709 33.997079 
L 136.313199 33.997079 
L 136.313199 21.816589 
L 124.132709 21.816589 
z
" clip-path="url(#p51ac57b92b)" style="fill: #b2b2b2; stroke: #b2b2b2; stroke-linejoin: miter"/>
   </g>
   <g id="patch_181">
    <path d="M 124.132709 19.38049 
L 136.313199 19.38049 
L 136.313199 7.2 
L 124.132709 7.2 
z
" clip-path="url(#p51ac57b92b)" style="fill: #b2b2b2; stroke: #b2b2b2; stroke-linejoin: miter"/>
   </g>
   <g id="patch_182">
    <path d="M 138.749297 19.38049 
L 150.929788 19.38049 
L 150.929788 7.2 
L 138.749297 7.2 
z
" clip-path="url(#p51ac57b92b)" style="fill: #b2b2b2; stroke: #b2b2b2; stroke-linejoin: miter"/>
   </g>
   <g id="patch_183">
    <path d="M 138.749297 33.997079 
L 150.929788 33.997079 
L 150.929788 21.816589 
L 138.749297 21.816589 
z
" clip-path="url(#p51ac57b92b)" style="fill: #b2b2b2; stroke: #b2b2b2; stroke-linejoin: miter"/>
   </g>
   <g id="patch_184">
    <path d="M 138.749297 48.613668 
L 150.929788 48.613668 
L 150.929788 36.433177 
L 138.749297 36.433177 
z
" clip-path="url(#p51ac57b92b)" style="fill: #b2b2b2; stroke: #b2b2b2; stroke-linejoin: miter"/>
   </g>
   <g id="patch_185">
    <path d="M 138.749297 63.230256 
L 150.929788 63.230256 
L 150.929788 51.049766 
L 138.749297 51.049766 
z
" clip-path="url(#p51ac57b92b)" style="fill: #b2b2b2; stroke: #b2b2b2; stroke-linejoin: miter"/>
   </g>
   <g id="patch_186">
    <path d="M 138.749297 77.846845 
L 150.929788 77.846845 
L 150.929788 65.666354 
L 138.749297 65.666354 
z
" clip-path="url(#p51ac57b92b)" style="fill: #b2b2b2; stroke: #b2b2b2; stroke-linejoin: miter"/>
   </g>
   <g id="patch_187">
    <path d="M 138.749297 92.463433 
L 150.929788 92.463433 
L 150.929788 80.282943 
L 138.749297 80.282943 
z
" clip-path="url(#p51ac57b92b)" style="fill: #b2b2b2; stroke: #b2b2b2; stroke-linejoin: miter"/>
   </g>
   <g id="patch_188">
    <path d="M 138.749297 107.080022 
L 150.929788 107.080022 
L 150.929788 94.899532 
L 138.749297 94.899532 
z
" clip-path="url(#p51ac57b92b)" style="fill: #b2b2b2; stroke: #b2b2b2; stroke-linejoin: miter"/>
   </g>
   <g id="patch_189">
    <path d="M 138.749297 121.696611 
L 150.929788 121.696611 
L 150.929788 109.51612 
L 138.749297 109.51612 
z
" clip-path="url(#p51ac57b92b)" style="fill: #b2b2b2; stroke: #b2b2b2; stroke-linejoin: miter"/>
   </g>
   <g id="patch_190">
    <path d="M 138.749297 136.313199 
L 150.929788 136.313199 
L 150.929788 124.132709 
L 138.749297 124.132709 
z
" clip-path="url(#p51ac57b92b)" style="fill: #b2b2b2; stroke: #b2b2b2; stroke-linejoin: miter"/>
   </g>
   <g id="patch_191">
    <path d="M 138.749297 150.929788 
L 150.929788 150.929788 
L 150.929788 138.749297 
L 138.749297 138.749297 
z
" clip-path="url(#p51ac57b92b)" style="fill: #b2b2b2; stroke: #b2b2b2; stroke-linejoin: miter"/>
   </g>
   <g id="patch_192">
    <path d="M 138.749297 165.546376 
L 150.929788 165.546376 
L 150.929788 153.365886 
L 138.749297 153.365886 
z
" clip-path="url(#p51ac57b92b)" style="fill: #b2b2b2; stroke: #b2b2b2; stroke-linejoin: miter"/>
   </g>
   <g id="patch_193">
    <path d="M 138.749297 180.162965 
L 150.929788 180.162965 
L 150.929788 167.982474 
L 138.749297 167.982474 
z
" clip-path="url(#p51ac57b92b)" style="fill: #b2b2b2; stroke: #b2b2b2; stroke-linejoin: miter"/>
   </g>
   <g id="patch_194">
    <path d="M 138.749297 194.779554 
L 150.929788 194.779554 
L 150.929788 182.599063 
L 138.749297 182.599063 
z
" clip-path="url(#p51ac57b92b)" style="fill: #b2b2b2; stroke: #b2b2b2; stroke-linejoin: miter"/>
   </g>
   <g id="patch_195">
    <path d="M 138.749297 209.396142 
L 150.929788 209.396142 
L 150.929788 197.215652 
L 138.749297 197.215652 
z
" clip-path="url(#p51ac57b92b)" style="fill: #b2b2b2; stroke: #b2b2b2; stroke-linejoin: miter"/>
   </g>
   <g id="patch_196">
    <path d="M 138.749297 224.012731 
L 150.929788 224.012731 
L 150.929788 211.83224 
L 138.749297 211.83224 
z
" clip-path="url(#p51ac57b92b)" style="fill: #b2b2b2; stroke: #b2b2b2; stroke-linejoin: miter"/>
   </g>
   <g id="patch_197">
    <path d="M 138.749297 238.629319 
L 150.929788 238.629319 
L 150.929788 226.448829 
L 138.749297 226.448829 
z
" clip-path="url(#p51ac57b92b)" style="fill: #b2b2b2; stroke: #b2b2b2; stroke-linejoin: miter"/>
   </g>
   <g id="patch_198">
    <path d="M 138.749297 253.245908 
L 150.929788 253.245908 
L 150.929788 241.065417 
L 138.749297 241.065417 
z
" clip-path="url(#p51ac57b92b)" style="fill: #b2b2b2; stroke: #b2b2b2; stroke-linejoin: miter"/>
   </g>
   <g id="patch_199">
    <path d="M 138.749297 267.862496 
L 150.929788 267.862496 
L 150.929788 255.682006 
L 138.749297 255.682006 
z
" clip-path="url(#p51ac57b92b)" style="fill: #b2b2b2; stroke: #b2b2b2; stroke-linejoin: miter"/>
   </g>
   <g id="patch_200">
    <path d="M 138.749297 282.479085 
L 150.929788 282.479085 
L 150.929788 270.298595 
L 138.749297 270.298595 
z
" clip-path="url(#p51ac57b92b)" style="fill: #b2b2b2; stroke: #b2b2b2; stroke-linejoin: miter"/>
   </g>
   <g id="patch_201">
    <path d="M 138.749297 297.095674 
L 150.929788 297.095674 
L 150.929788 284.915183 
L 138.749297 284.915183 
z
" clip-path="url(#p51ac57b92b)" style="fill: #b2b2b2; stroke: #b2b2b2; stroke-linejoin: miter"/>
   </g>
   <g id="patch_202">
    <path d="M 153.365886 297.095674 
L 165.546376 297.095674 
L 165.546376 284.915183 
L 153.365886 284.915183 
z
" clip-path="url(#p51ac57b92b)" style="fill: #b2b2b2; stroke: #b2b2b2; stroke-linejoin: miter"/>
   </g>
   <g id="patch_203">
    <path d="M 153.365886 282.479085 
L 165.546376 282.479085 
L 165.546376 270.298595 
L 153.365886 270.298595 
z
" clip-path="url(#p51ac57b92b)" style="fill: #b2b2b2; stroke: #b2b2b2; stroke-linejoin: miter"/>
   </g>
   <g id="patch_204">
    <path d="M 153.365886 267.862496 
L 165.546376 267.862496 
L 165.546376 255.682006 
L 153.365886 255.682006 
z
" clip-path="url(#p51ac57b92b)" style="fill: #b2b2b2; stroke: #b2b2b2; stroke-linejoin: miter"/>
   </g>
   <g id="patch_205">
    <path d="M 153.365886 253.245908 
L 165.546376 253.245908 
L 165.546376 241.065417 
L 153.365886 241.065417 
z
" clip-path="url(#p51ac57b92b)" style="fill: #b2b2b2; stroke: #b2b2b2; stroke-linejoin: miter"/>
   </g>
   <g id="patch_206">
    <path d="M 153.365886 238.629319 
L 165.546376 238.629319 
L 165.546376 226.448829 
L 153.365886 226.448829 
z
" clip-path="url(#p51ac57b92b)" style="fill: #b2b2b2; stroke: #b2b2b2; stroke-linejoin: miter"/>
   </g>
   <g id="patch_207">
    <path d="M 153.365886 224.012731 
L 165.546376 224.012731 
L 165.546376 211.83224 
L 153.365886 211.83224 
z
" clip-path="url(#p51ac57b92b)" style="fill: #b2b2b2; stroke: #b2b2b2; stroke-linejoin: miter"/>
   </g>
   <g id="patch_208">
    <path d="M 153.365886 209.396142 
L 165.546376 209.396142 
L 165.546376 197.215652 
L 153.365886 197.215652 
z
" clip-path="url(#p51ac57b92b)" style="fill: #b2b2b2; stroke: #b2b2b2; stroke-linejoin: miter"/>
   </g>
   <g id="patch_209">
    <path d="M 153.365886 194.779554 
L 165.546376 194.779554 
L 165.546376 182.599063 
L 153.365886 182.599063 
z
" clip-path="url(#p51ac57b92b)" style="fill: #b2b2b2; stroke: #b2b2b2; stroke-linejoin: miter"/>
   </g>
   <g id="patch_210">
    <path d="M 153.365886 180.162965 
L 165.546376 180.162965 
L 165.546376 167.982474 
L 153.365886 167.982474 
z
" clip-path="url(#p51ac57b92b)" style="fill: #b2b2b2; stroke: #b2b2b2; stroke-linejoin: miter"/>
   </g>
   <g id="patch_211">
    <path d="M 153.365886 165.546376 
L 165.546376 165.546376 
L 165.546376 153.365886 
L 153.365886 153.365886 
z
" clip-path="url(#p51ac57b92b)" style="fill: #b2b2b2; stroke: #b2b2b2; stroke-linejoin: miter"/>
   </g>
   <g id="patch_212">
    <path d="M 153.365886 150.929788 
L 165.546376 150.929788 
L 165.546376 138.749297 
L 153.365886 138.749297 
z
" clip-path="url(#p51ac57b92b)" style="fill: #b2b2b2; stroke: #b2b2b2; stroke-linejoin: miter"/>
   </g>
   <g id="patch_213">
    <path d="M 153.365886 136.313199 
L 165.546376 136.313199 
L 165.546376 124.132709 
L 153.365886 124.132709 
z
" clip-path="url(#p51ac57b92b)" style="fill: #b2b2b2; stroke: #b2b2b2; stroke-linejoin: miter"/>
   </g>
   <g id="patch_214">
    <path d="M 153.365886 121.696611 
L 165.546376 121.696611 
L 165.546376 109.51612 
L 153.365886 109.51612 
z
" clip-path="url(#p51ac57b92b)" style="fill: #b2b2b2; stroke: #b2b2b2; stroke-linejoin: miter"/>
   </g>
   <g id="patch_215">
    <path d="M 153.365886 107.080022 
L 165.546376 107.080022 
L 165.546376 94.899532 
L 153.365886 94.899532 
z
" clip-path="url(#p51ac57b92b)" style="fill: #b2b2b2; stroke: #b2b2b2; stroke-linejoin: miter"/>
   </g>
   <g id="patch_216">
    <path d="M 153.365886 92.463433 
L 165.546376 92.463433 
L 165.546376 80.282943 
L 153.365886 80.282943 
z
" clip-path="url(#p51ac57b92b)" style="fill: #b2b2b2; stroke: #b2b2b2; stroke-linejoin: miter"/>
   </g>
   <g id="patch_217">
    <path d="M 153.365886 77.846845 
L 165.546376 77.846845 
L 165.546376 65.666354 
L 153.365886 65.666354 
z
" clip-path="url(#p51ac57b92b)" style="fill: #b2b2b2; stroke: #b2b2b2; stroke-linejoin: miter"/>
   </g>
   <g id="patch_218">
    <path d="M 153.365886 63.230256 
L 165.546376 63.230256 
L 165.546376 51.049766 
L 153.365886 51.049766 
z
" clip-path="url(#p51ac57b92b)" style="fill: #b2b2b2; stroke: #b2b2b2; stroke-linejoin: miter"/>
   </g>
   <g id="patch_219">
    <path d="M 153.365886 48.613668 
L 165.546376 48.613668 
L 165.546376 36.433177 
L 153.365886 36.433177 
z
" clip-path="url(#p51ac57b92b)" style="fill: #b2b2b2; stroke: #b2b2b2; stroke-linejoin: miter"/>
   </g>
   <g id="patch_220">
    <path d="M 153.365886 33.997079 
L 165.546376 33.997079 
L 165.546376 21.816589 
L 153.365886 21.816589 
z
" clip-path="url(#p51ac57b92b)" style="fill: #b2b2b2; stroke: #b2b2b2; stroke-linejoin: miter"/>
   </g>
   <g id="patch_221">
    <path d="M 153.365886 19.38049 
L 165.546376 19.38049 
L 165.546376 7.2 
L 153.365886 7.2 
z
" clip-path="url(#p51ac57b92b)" style="fill: #b2b2b2; stroke: #b2b2b2; stroke-linejoin: miter"/>
   </g>
   <g id="patch_222">
    <path d="M 167.982474 19.38049 
L 180.162965 19.38049 
L 180.162965 7.2 
L 167.982474 7.2 
z
" clip-path="url(#p51ac57b92b)" style="fill: #b2b2b2; stroke: #b2b2b2; stroke-linejoin: miter"/>
   </g>
   <g id="patch_223">
    <path d="M 167.982474 33.997079 
L 180.162965 33.997079 
L 180.162965 21.816589 
L 167.982474 21.816589 
z
" clip-path="url(#p51ac57b92b)" style="fill: #b2b2b2; stroke: #b2b2b2; stroke-linejoin: miter"/>
   </g>
   <g id="patch_224">
    <path d="M 167.982474 48.613668 
L 180.162965 48.613668 
L 180.162965 36.433177 
L 167.982474 36.433177 
z
" clip-path="url(#p51ac57b92b)" style="fill: #b2b2b2; stroke: #b2b2b2; stroke-linejoin: miter"/>
   </g>
   <g id="patch_225">
    <path d="M 167.982474 63.230256 
L 180.162965 63.230256 
L 180.162965 51.049766 
L 167.982474 51.049766 
z
" clip-path="url(#p51ac57b92b)" style="fill: #b2b2b2; stroke: #b2b2b2; stroke-linejoin: miter"/>
   </g>
   <g id="patch_226">
    <path d="M 167.982474 77.846845 
L 180.162965 77.846845 
L 180.162965 65.666354 
L 167.982474 65.666354 
z
" clip-path="url(#p51ac57b92b)" style="fill: #b2b2b2; stroke: #b2b2b2; stroke-linejoin: miter"/>
   </g>
   <g id="patch_227">
    <path d="M 167.982474 92.463433 
L 180.162965 92.463433 
L 180.162965 80.282943 
L 167.982474 80.282943 
z
" clip-path="url(#p51ac57b92b)" style="fill: #b2b2b2; stroke: #b2b2b2; stroke-linejoin: miter"/>
   </g>
   <g id="patch_228">
    <path d="M 167.982474 107.080022 
L 180.162965 107.080022 
L 180.162965 94.899532 
L 167.982474 94.899532 
z
" clip-path="url(#p51ac57b92b)" style="fill: #b2b2b2; stroke: #b2b2b2; stroke-linejoin: miter"/>
   </g>
   <g id="patch_229">
    <path d="M 167.982474 121.696611 
L 180.162965 121.696611 
L 180.162965 109.51612 
L 167.982474 109.51612 
z
" clip-path="url(#p51ac57b92b)" style="fill: #b2b2b2; stroke: #b2b2b2; stroke-linejoin: miter"/>
   </g>
   <g id="patch_230">
    <path d="M 167.982474 136.313199 
L 180.162965 136.313199 
L 180.162965 124.132709 
L 167.982474 124.132709 
z
" clip-path="url(#p51ac57b92b)" style="fill: #b2b2b2; stroke: #b2b2b2; stroke-linejoin: miter"/>
   </g>
   <g id="patch_231">
    <path d="M 167.982474 150.929788 
L 180.162965 150.929788 
L 180.162965 138.749297 
L 167.982474 138.749297 
z
" clip-path="url(#p51ac57b92b)" style="fill: #b2b2b2; stroke: #b2b2b2; stroke-linejoin: miter"/>
   </g>
   <g id="patch_232">
    <path d="M 167.982474 165.546376 
L 180.162965 165.546376 
L 180.162965 153.365886 
L 167.982474 153.365886 
z
" clip-path="url(#p51ac57b92b)" style="fill: #b2b2b2; stroke: #b2b2b2; stroke-linejoin: miter"/>
   </g>
   <g id="patch_233">
    <path d="M 167.982474 180.162965 
L 180.162965 180.162965 
L 180.162965 167.982474 
L 167.982474 167.982474 
z
" clip-path="url(#p51ac57b92b)" style="fill: #b2b2b2; stroke: #b2b2b2; stroke-linejoin: miter"/>
   </g>
   <g id="patch_234">
    <path d="M 167.982474 194.779554 
L 180.162965 194.779554 
L 180.162965 182.599063 
L 167.982474 182.599063 
z
" clip-path="url(#p51ac57b92b)" style="fill: #b2b2b2; stroke: #b2b2b2; stroke-linejoin: miter"/>
   </g>
   <g id="patch_235">
    <path d="M 167.982474 209.396142 
L 180.162965 209.396142 
L 180.162965 197.215652 
L 167.982474 197.215652 
z
" clip-path="url(#p51ac57b92b)" style="fill: #b2b2b2; stroke: #b2b2b2; stroke-linejoin: miter"/>
   </g>
   <g id="patch_236">
    <path d="M 167.982474 224.012731 
L 180.162965 224.012731 
L 180.162965 211.83224 
L 167.982474 211.83224 
z
" clip-path="url(#p51ac57b92b)" style="fill: #b2b2b2; stroke: #b2b2b2; stroke-linejoin: miter"/>
   </g>
   <g id="patch_237">
    <path d="M 167.982474 238.629319 
L 180.162965 238.629319 
L 180.162965 226.448829 
L 167.982474 226.448829 
z
" clip-path="url(#p51ac57b92b)" style="fill: #b2b2b2; stroke: #b2b2b2; stroke-linejoin: miter"/>
   </g>
   <g id="patch_238">
    <path d="M 167.982474 253.245908 
L 180.162965 253.245908 
L 180.162965 241.065417 
L 167.982474 241.065417 
z
" clip-path="url(#p51ac57b92b)" style="fill: #b2b2b2; stroke: #b2b2b2; stroke-linejoin: miter"/>
   </g>
   <g id="patch_239">
    <path d="M 167.982474 267.862496 
L 180.162965 267.862496 
L 180.162965 255.682006 
L 167.982474 255.682006 
z
" clip-path="url(#p51ac57b92b)" style="fill: #b2b2b2; stroke: #b2b2b2; stroke-linejoin: miter"/>
   </g>
   <g id="patch_240">
    <path d="M 167.982474 282.479085 
L 180.162965 282.479085 
L 180.162965 270.298595 
L 167.982474 270.298595 
z
" clip-path="url(#p51ac57b92b)" style="fill: #b2b2b2; stroke: #b2b2b2; stroke-linejoin: miter"/>
   </g>
   <g id="patch_241">
    <path d="M 167.982474 297.095674 
L 180.162965 297.095674 
L 180.162965 284.915183 
L 167.982474 284.915183 
z
" clip-path="url(#p51ac57b92b)" style="fill: #b2b2b2; stroke: #b2b2b2; stroke-linejoin: miter"/>
   </g>
   <g id="patch_242">
    <path d="M 182.599063 297.095674 
L 194.779554 297.095674 
L 194.779554 284.915183 
L 182.599063 284.915183 
z
" clip-path="url(#p51ac57b92b)" style="fill: #b2b2b2; stroke: #b2b2b2; stroke-linejoin: miter"/>
   </g>
   <g id="patch_243">
    <path d="M 182.599063 282.479085 
L 194.779554 282.479085 
L 194.779554 270.298595 
L 182.599063 270.298595 
z
" clip-path="url(#p51ac57b92b)" style="fill: #b2b2b2; stroke: #b2b2b2; stroke-linejoin: miter"/>
   </g>
   <g id="patch_244">
    <path d="M 182.599063 267.862496 
L 194.779554 267.862496 
L 194.779554 255.682006 
L 182.599063 255.682006 
z
" clip-path="url(#p51ac57b92b)" style="fill: #b2b2b2; stroke: #b2b2b2; stroke-linejoin: miter"/>
   </g>
   <g id="patch_245">
    <path d="M 182.599063 253.245908 
L 194.779554 253.245908 
L 194.779554 241.065417 
L 182.599063 241.065417 
z
" clip-path="url(#p51ac57b92b)" style="fill: #b2b2b2; stroke: #b2b2b2; stroke-linejoin: miter"/>
   </g>
   <g id="patch_246">
    <path d="M 182.599063 238.629319 
L 194.779554 238.629319 
L 194.779554 226.448829 
L 182.599063 226.448829 
z
" clip-path="url(#p51ac57b92b)" style="fill: #b2b2b2; stroke: #b2b2b2; stroke-linejoin: miter"/>
   </g>
   <g id="patch_247">
    <path d="M 182.599063 224.012731 
L 194.779554 224.012731 
L 194.779554 211.83224 
L 182.599063 211.83224 
z
" clip-path="url(#p51ac57b92b)" style="fill: #b2b2b2; stroke: #b2b2b2; stroke-linejoin: miter"/>
   </g>
   <g id="patch_248">
    <path d="M 182.599063 209.396142 
L 194.779554 209.396142 
L 194.779554 197.215652 
L 182.599063 197.215652 
z
" clip-path="url(#p51ac57b92b)" style="fill: #b2b2b2; stroke: #b2b2b2; stroke-linejoin: miter"/>
   </g>
   <g id="patch_249">
    <path d="M 182.599063 194.779554 
L 194.779554 194.779554 
L 194.779554 182.599063 
L 182.599063 182.599063 
z
" clip-path="url(#p51ac57b92b)" style="fill: #b2b2b2; stroke: #b2b2b2; stroke-linejoin: miter"/>
   </g>
   <g id="patch_250">
    <path d="M 182.599063 180.162965 
L 194.779554 180.162965 
L 194.779554 167.982474 
L 182.599063 167.982474 
z
" clip-path="url(#p51ac57b92b)" style="fill: #b2b2b2; stroke: #b2b2b2; stroke-linejoin: miter"/>
   </g>
   <g id="patch_251">
    <path d="M 182.599063 165.546376 
L 194.779554 165.546376 
L 194.779554 153.365886 
L 182.599063 153.365886 
z
" clip-path="url(#p51ac57b92b)" style="fill: #b2b2b2; stroke: #b2b2b2; stroke-linejoin: miter"/>
   </g>
   <g id="patch_252">
    <path d="M 182.599063 150.929788 
L 194.779554 150.929788 
L 194.779554 138.749297 
L 182.599063 138.749297 
z
" clip-path="url(#p51ac57b92b)" style="fill: #b2b2b2; stroke: #b2b2b2; stroke-linejoin: miter"/>
   </g>
   <g id="patch_253">
    <path d="M 182.599063 136.313199 
L 194.779554 136.313199 
L 194.779554 124.132709 
L 182.599063 124.132709 
z
" clip-path="url(#p51ac57b92b)" style="fill: #b2b2b2; stroke: #b2b2b2; stroke-linejoin: miter"/>
   </g>
   <g id="patch_254">
    <path d="M 182.599063 121.696611 
L 194.779554 121.696611 
L 194.779554 109.51612 
L 182.599063 109.51612 
z
" clip-path="url(#p51ac57b92b)" style="fill: #b2b2b2; stroke: #b2b2b2; stroke-linejoin: miter"/>
   </g>
   <g id="patch_255">
    <path d="M 182.599063 107.080022 
L 194.779554 107.080022 
L 194.779554 94.899532 
L 182.599063 94.899532 
z
" clip-path="url(#p51ac57b92b)" style="fill: #b2b2b2; stroke: #b2b2b2; stroke-linejoin: miter"/>
   </g>
   <g id="patch_256">
    <path d="M 182.599063 92.463433 
L 194.779554 92.463433 
L 194.779554 80.282943 
L 182.599063 80.282943 
z
" clip-path="url(#p51ac57b92b)" style="fill: #b2b2b2; stroke: #b2b2b2; stroke-linejoin: miter"/>
   </g>
   <g id="patch_257">
    <path d="M 182.599063 77.846845 
L 194.779554 77.846845 
L 194.779554 65.666354 
L 182.599063 65.666354 
z
" clip-path="url(#p51ac57b92b)" style="fill: #b2b2b2; stroke: #b2b2b2; stroke-linejoin: miter"/>
   </g>
   <g id="patch_258">
    <path d="M 182.599063 63.230256 
L 194.779554 63.230256 
L 194.779554 51.049766 
L 182.599063 51.049766 
z
" clip-path="url(#p51ac57b92b)" style="fill: #b2b2b2; stroke: #b2b2b2; stroke-linejoin: miter"/>
   </g>
   <g id="patch_259">
    <path d="M 182.599063 48.613668 
L 194.779554 48.613668 
L 194.779554 36.433177 
L 182.599063 36.433177 
z
" clip-path="url(#p51ac57b92b)" style="fill: #b2b2b2; stroke: #b2b2b2; stroke-linejoin: miter"/>
   </g>
   <g id="patch_260">
    <path d="M 182.599063 33.997079 
L 194.779554 33.997079 
L 194.779554 21.816589 
L 182.599063 21.816589 
z
" clip-path="url(#p51ac57b92b)" style="fill: #b2b2b2; stroke: #b2b2b2; stroke-linejoin: miter"/>
   </g>
   <g id="patch_261">
    <path d="M 182.599063 19.38049 
L 194.779554 19.38049 
L 194.779554 7.2 
L 182.599063 7.2 
z
" clip-path="url(#p51ac57b92b)" style="fill: #b2b2b2; stroke: #b2b2b2; stroke-linejoin: miter"/>
   </g>
   <g id="patch_262">
    <path d="M 197.215652 19.38049 
L 209.396142 19.38049 
L 209.396142 7.2 
L 197.215652 7.2 
z
" clip-path="url(#p51ac57b92b)" style="fill: #b2b2b2; stroke: #b2b2b2; stroke-linejoin: miter"/>
   </g>
   <g id="patch_263">
    <path d="M 197.215652 33.997079 
L 209.396142 33.997079 
L 209.396142 21.816589 
L 197.215652 21.816589 
z
" clip-path="url(#p51ac57b92b)" style="fill: #b2b2b2; stroke: #b2b2b2; stroke-linejoin: miter"/>
   </g>
   <g id="patch_264">
    <path d="M 197.215652 48.613668 
L 209.396142 48.613668 
L 209.396142 36.433177 
L 197.215652 36.433177 
z
" clip-path="url(#p51ac57b92b)" style="fill: #4f4f9d; stroke: #4f4f9d; stroke-linejoin: miter"/>
   </g>
   <g id="patch_265">
    <path d="M 197.215652 63.230256 
L 209.396142 63.230256 
L 209.396142 51.049766 
L 197.215652 51.049766 
z
" clip-path="url(#p51ac57b92b)" style="fill: #4f4f9d; stroke: #4f4f9d; stroke-linejoin: miter"/>
   </g>
   <g id="patch_266">
    <path d="M 197.215652 77.846845 
L 209.396142 77.846845 
L 209.396142 65.666354 
L 197.215652 65.666354 
z
" clip-path="url(#p51ac57b92b)" style="fill: #4f4f9d; stroke: #4f4f9d; stroke-linejoin: miter"/>
   </g>
   <g id="patch_267">
    <path d="M 197.215652 92.463433 
L 209.396142 92.463433 
L 209.396142 80.282943 
L 197.215652 80.282943 
z
" clip-path="url(#p51ac57b92b)" style="fill: #4f4f9d; stroke: #4f4f9d; stroke-linejoin: miter"/>
   </g>
   <g id="patch_268">
    <path d="M 197.215652 107.080022 
L 209.396142 107.080022 
L 209.396142 94.899532 
L 197.215652 94.899532 
z
" clip-path="url(#p51ac57b92b)" style="fill: #4f4f9d; stroke: #4f4f9d; stroke-linejoin: miter"/>
   </g>
   <g id="patch_269">
    <path d="M 197.215652 121.696611 
L 209.396142 121.696611 
L 209.396142 109.51612 
L 197.215652 109.51612 
z
" clip-path="url(#p51ac57b92b)" style="fill: #4f4f9d; stroke: #4f4f9d; stroke-linejoin: miter"/>
   </g>
   <g id="patch_270">
    <path d="M 197.215652 136.313199 
L 209.396142 136.313199 
L 209.396142 124.132709 
L 197.215652 124.132709 
z
" clip-path="url(#p51ac57b92b)" style="fill: #4f4f9d; stroke: #4f4f9d; stroke-linejoin: miter"/>
   </g>
   <g id="patch_271">
    <path d="M 197.215652 150.929788 
L 209.396142 150.929788 
L 209.396142 138.749297 
L 197.215652 138.749297 
z
" clip-path="url(#p51ac57b92b)" style="fill: #4f4f9d; stroke: #4f4f9d; stroke-linejoin: miter"/>
   </g>
   <g id="patch_272">
    <path d="M 197.215652 165.546376 
L 209.396142 165.546376 
L 209.396142 153.365886 
L 197.215652 153.365886 
z
" clip-path="url(#p51ac57b92b)" style="fill: #4f4f9d; stroke: #4f4f9d; stroke-linejoin: miter"/>
   </g>
   <g id="patch_273">
    <path d="M 197.215652 180.162965 
L 209.396142 180.162965 
L 209.396142 167.982474 
L 197.215652 167.982474 
z
" clip-path="url(#p51ac57b92b)" style="fill: #4f4f9d; stroke: #4f4f9d; stroke-linejoin: miter"/>
   </g>
   <g id="patch_274">
    <path d="M 197.215652 194.779554 
L 209.396142 194.779554 
L 209.396142 182.599063 
L 197.215652 182.599063 
z
" clip-path="url(#p51ac57b92b)" style="fill: #4f4f9d; stroke: #4f4f9d; stroke-linejoin: miter"/>
   </g>
   <g id="patch_275">
    <path d="M 197.215652 209.396142 
L 209.396142 209.396142 
L 209.396142 197.215652 
L 197.215652 197.215652 
z
" clip-path="url(#p51ac57b92b)" style="fill: #4f4f9d; stroke: #4f4f9d; stroke-linejoin: miter"/>
   </g>
   <g id="patch_276">
    <path d="M 197.215652 224.012731 
L 209.396142 224.012731 
L 209.396142 211.83224 
L 197.215652 211.83224 
z
" clip-path="url(#p51ac57b92b)" style="fill: #4f4f9d; stroke: #4f4f9d; stroke-linejoin: miter"/>
   </g>
   <g id="patch_277">
    <path d="M 197.215652 238.629319 
L 209.396142 238.629319 
L 209.396142 226.448829 
L 197.215652 226.448829 
z
" clip-path="url(#p51ac57b92b)" style="fill: #4f4f9d; stroke: #4f4f9d; stroke-linejoin: miter"/>
   </g>
   <g id="patch_278">
    <path d="M 197.215652 253.245908 
L 209.396142 253.245908 
L 209.396142 241.065417 
L 197.215652 241.065417 
z
" clip-path="url(#p51ac57b92b)" style="fill: #4f4f9d; stroke: #4f4f9d; stroke-linejoin: miter"/>
   </g>
   <g id="patch_279">
    <path d="M 197.215652 267.862496 
L 209.396142 267.862496 
L 209.396142 255.682006 
L 197.215652 255.682006 
z
" clip-path="url(#p51ac57b92b)" style="fill: #4f4f9d; stroke: #4f4f9d; stroke-linejoin: miter"/>
   </g>
   <g id="patch_280">
    <path d="M 197.215652 282.479085 
L 209.396142 282.479085 
L 209.396142 270.298595 
L 197.215652 270.298595 
z
" clip-path="url(#p51ac57b92b)" style="fill: #4f4f9d; stroke: #4f4f9d; stroke-linejoin: miter"/>
   </g>
   <g id="patch_281">
    <path d="M 197.215652 297.095674 
L 209.396142 297.095674 
L 209.396142 284.915183 
L 197.215652 284.915183 
z
" clip-path="url(#p51ac57b92b)" style="fill: #4f4f9d; stroke: #4f4f9d; stroke-linejoin: miter"/>
   </g>
   <g id="patch_282">
    <path d="M 211.83224 297.095674 
L 224.012731 297.095674 
L 224.012731 284.915183 
L 211.83224 284.915183 
z
" clip-path="url(#p51ac57b92b)" style="fill: #4f4f9d; stroke: #4f4f9d; stroke-linejoin: miter"/>
   </g>
   <g id="patch_283">
    <path d="M 211.83224 282.479085 
L 224.012731 282.479085 
L 224.012731 270.298595 
L 211.83224 270.298595 
z
" clip-path="url(#p51ac57b92b)" style="fill: #4f4f9d; stroke: #4f4f9d; stroke-linejoin: miter"/>
   </g>
   <g id="patch_284">
    <path d="M 211.83224 267.862496 
L 224.012731 267.862496 
L 224.012731 255.682006 
L 211.83224 255.682006 
z
" clip-path="url(#p51ac57b92b)" style="fill: #4f4f9d; stroke: #4f4f9d; stroke-linejoin: miter"/>
   </g>
   <g id="patch_285">
    <path d="M 211.83224 253.245908 
L 224.012731 253.245908 
L 224.012731 241.065417 
L 211.83224 241.065417 
z
" clip-path="url(#p51ac57b92b)" style="fill: #4f4f9d; stroke: #4f4f9d; stroke-linejoin: miter"/>
   </g>
   <g id="patch_286">
    <path d="M 211.83224 238.629319 
L 224.012731 238.629319 
L 224.012731 226.448829 
L 211.83224 226.448829 
z
" clip-path="url(#p51ac57b92b)" style="fill: #4f4f9d; stroke: #4f4f9d; stroke-linejoin: miter"/>
   </g>
   <g id="patch_287">
    <path d="M 211.83224 224.012731 
L 224.012731 224.012731 
L 224.012731 211.83224 
L 211.83224 211.83224 
z
" clip-path="url(#p51ac57b92b)" style="fill: #4f4f9d; stroke: #4f4f9d; stroke-linejoin: miter"/>
   </g>
   <g id="patch_288">
    <path d="M 211.83224 209.396142 
L 224.012731 209.396142 
L 224.012731 197.215652 
L 211.83224 197.215652 
z
" clip-path="url(#p51ac57b92b)" style="fill: #4f4f9d; stroke: #4f4f9d; stroke-linejoin: miter"/>
   </g>
   <g id="patch_289">
    <path d="M 211.83224 194.779554 
L 224.012731 194.779554 
L 224.012731 182.599063 
L 211.83224 182.599063 
z
" clip-path="url(#p51ac57b92b)" style="fill: #4f4f9d; stroke: #4f4f9d; stroke-linejoin: miter"/>
   </g>
   <g id="patch_290">
    <path d="M 211.83224 180.162965 
L 224.012731 180.162965 
L 224.012731 167.982474 
L 211.83224 167.982474 
z
" clip-path="url(#p51ac57b92b)" style="fill: #4f4f9d; stroke: #4f4f9d; stroke-linejoin: miter"/>
   </g>
   <g id="patch_291">
    <path d="M 211.83224 165.546376 
L 224.012731 165.546376 
L 224.012731 153.365886 
L 211.83224 153.365886 
z
" clip-path="url(#p51ac57b92b)" style="fill: #4f4f9d; stroke: #4f4f9d; stroke-linejoin: miter"/>
   </g>
   <g id="patch_292">
    <path d="M 211.83224 150.929788 
L 224.012731 150.929788 
L 224.012731 138.749297 
L 211.83224 138.749297 
z
" clip-path="url(#p51ac57b92b)" style="fill: #4f4f9d; stroke: #4f4f9d; stroke-linejoin: miter"/>
   </g>
   <g id="patch_293">
    <path d="M 211.83224 136.313199 
L 224.012731 136.313199 
L 224.012731 124.132709 
L 211.83224 124.132709 
z
" clip-path="url(#p51ac57b92b)" style="fill: #7373b7; stroke: #7373b7; stroke-linejoin: miter"/>
   </g>
   <g id="patch_294">
    <path d="M 211.83224 121.696611 
L 224.012731 121.696611 
L 224.012731 109.51612 
L 211.83224 109.51612 
z
" clip-path="url(#p51ac57b92b)" style="fill: #7373b7; stroke: #7373b7; stroke-linejoin: miter"/>
   </g>
   <g id="patch_295">
    <path d="M 211.83224 107.080022 
L 224.012731 107.080022 
L 224.012731 94.899532 
L 211.83224 94.899532 
z
" clip-path="url(#p51ac57b92b)" style="fill: #7373b7; stroke: #7373b7; stroke-linejoin: miter"/>
   </g>
   <g id="patch_296">
    <path d="M 211.83224 92.463433 
L 224.012731 92.463433 
L 224.012731 80.282943 
L 211.83224 80.282943 
z
" clip-path="url(#p51ac57b92b)" style="fill: #7373b7; stroke: #7373b7; stroke-linejoin: miter"/>
   </g>
   <g id="patch_297">
    <path d="M 211.83224 77.846845 
L 224.012731 77.846845 
L 224.012731 65.666354 
L 211.83224 65.666354 
z
" clip-path="url(#p51ac57b92b)" style="fill: #7373b7; stroke: #7373b7; stroke-linejoin: miter"/>
   </g>
   <g id="patch_298">
    <path d="M 211.83224 63.230256 
L 224.012731 63.230256 
L 224.012731 51.049766 
L 211.83224 51.049766 
z
" clip-path="url(#p51ac57b92b)" style="fill: #7373b7; stroke: #7373b7; stroke-linejoin: miter"/>
   </g>
   <g id="patch_299">
    <path d="M 211.83224 48.613668 
L 224.012731 48.613668 
L 224.012731 36.433177 
L 211.83224 36.433177 
z
" clip-path="url(#p51ac57b92b)" style="fill: #7373b7; stroke: #7373b7; stroke-linejoin: miter"/>
   </g>
   <g id="patch_300">
    <path d="M 211.83224 33.997079 
L 224.012731 33.997079 
L 224.012731 21.816589 
L 211.83224 21.816589 
z
" clip-path="url(#p51ac57b92b)" style="fill: #7373b7; stroke: #7373b7; stroke-linejoin: miter"/>
   </g>
   <g id="patch_301">
    <path d="M 211.83224 19.38049 
L 224.012731 19.38049 
L 224.012731 7.2 
L 211.83224 7.2 
z
" clip-path="url(#p51ac57b92b)" style="fill: #7373b7; stroke: #7373b7; stroke-linejoin: miter"/>
   </g>
   <g id="patch_302">
    <path d="M 226.448829 19.38049 
L 238.629319 19.38049 
L 238.629319 7.2 
L 226.448829 7.2 
z
" clip-path="url(#p51ac57b92b)" style="fill: #7373b7; stroke: #7373b7; stroke-linejoin: miter"/>
   </g>
   <g id="patch_303">
    <path d="M 226.448829 33.997079 
L 238.629319 33.997079 
L 238.629319 21.816589 
L 226.448829 21.816589 
z
" clip-path="url(#p51ac57b92b)" style="fill: #7373b7; stroke: #7373b7; stroke-linejoin: miter"/>
   </g>
   <g id="patch_304">
    <path d="M 226.448829 48.613668 
L 238.629319 48.613668 
L 238.629319 36.433177 
L 226.448829 36.433177 
z
" clip-path="url(#p51ac57b92b)" style="fill: #7373b7; stroke: #7373b7; stroke-linejoin: miter"/>
   </g>
   <g id="patch_305">
    <path d="M 226.448829 63.230256 
L 238.629319 63.230256 
L 238.629319 51.049766 
L 226.448829 51.049766 
z
" clip-path="url(#p51ac57b92b)" style="fill: #7373b7; stroke: #7373b7; stroke-linejoin: miter"/>
   </g>
   <g id="patch_306">
    <path d="M 226.448829 77.846845 
L 238.629319 77.846845 
L 238.629319 65.666354 
L 226.448829 65.666354 
z
" clip-path="url(#p51ac57b92b)" style="fill: #7373b7; stroke: #7373b7; stroke-linejoin: miter"/>
   </g>
   <g id="patch_307">
    <path d="M 226.448829 92.463433 
L 238.629319 92.463433 
L 238.629319 80.282943 
L 226.448829 80.282943 
z
" clip-path="url(#p51ac57b92b)" style="fill: #7373b7; stroke: #7373b7; stroke-linejoin: miter"/>
   </g>
   <g id="patch_308">
    <path d="M 226.448829 107.080022 
L 238.629319 107.080022 
L 238.629319 94.899532 
L 226.448829 94.899532 
z
" clip-path="url(#p51ac57b92b)" style="fill: #7373b7; stroke: #7373b7; stroke-linejoin: miter"/>
   </g>
   <g id="patch_309">
    <path d="M 226.448829 121.696611 
L 238.629319 121.696611 
L 238.629319 109.51612 
L 226.448829 109.51612 
z
" clip-path="url(#p51ac57b92b)" style="fill: #7373b7; stroke: #7373b7; stroke-linejoin: miter"/>
   </g>
   <g id="patch_310">
    <path d="M 226.448829 136.313199 
L 238.629319 136.313199 
L 238.629319 124.132709 
L 226.448829 124.132709 
z
" clip-path="url(#p51ac57b92b)" style="fill: #7373b7; stroke: #7373b7; stroke-linejoin: miter"/>
   </g>
   <g id="patch_311">
    <path d="M 226.448829 150.929788 
L 238.629319 150.929788 
L 238.629319 138.749297 
L 226.448829 138.749297 
z
" clip-path="url(#p51ac57b92b)" style="fill: #7373b7; stroke: #7373b7; stroke-linejoin: miter"/>
   </g>
   <g id="patch_312">
    <path d="M 226.448829 165.546376 
L 238.629319 165.546376 
L 238.629319 153.365886 
L 226.448829 153.365886 
z
" clip-path="url(#p51ac57b92b)" style="fill: #7373b7; stroke: #7373b7; stroke-linejoin: miter"/>
   </g>
   <g id="patch_313">
    <path d="M 226.448829 180.162965 
L 238.629319 180.162965 
L 238.629319 167.982474 
L 226.448829 167.982474 
z
" clip-path="url(#p51ac57b92b)" style="fill: #7373b7; stroke: #7373b7; stroke-linejoin: miter"/>
   </g>
   <g id="patch_314">
    <path d="M 226.448829 194.779554 
L 238.629319 194.779554 
L 238.629319 182.599063 
L 226.448829 182.599063 
z
" clip-path="url(#p51ac57b92b)" style="fill: #7373b7; stroke: #7373b7; stroke-linejoin: miter"/>
   </g>
   <g id="patch_315">
    <path d="M 226.448829 209.396142 
L 238.629319 209.396142 
L 238.629319 197.215652 
L 226.448829 197.215652 
z
" clip-path="url(#p51ac57b92b)" style="fill: #7373b7; stroke: #7373b7; stroke-linejoin: miter"/>
   </g>
   <g id="patch_316">
    <path d="M 226.448829 224.012731 
L 238.629319 224.012731 
L 238.629319 211.83224 
L 226.448829 211.83224 
z
" clip-path="url(#p51ac57b92b)" style="fill: #7373b7; stroke: #7373b7; stroke-linejoin: miter"/>
   </g>
   <g id="patch_317">
    <path d="M 226.448829 238.629319 
L 238.629319 238.629319 
L 238.629319 226.448829 
L 226.448829 226.448829 
z
" clip-path="url(#p51ac57b92b)" style="fill: #7373b7; stroke: #7373b7; stroke-linejoin: miter"/>
   </g>
   <g id="patch_318">
    <path d="M 226.448829 253.245908 
L 238.629319 253.245908 
L 238.629319 241.065417 
L 226.448829 241.065417 
z
" clip-path="url(#p51ac57b92b)" style="fill: #7373b7; stroke: #7373b7; stroke-linejoin: miter"/>
   </g>
   <g id="patch_319">
    <path d="M 226.448829 267.862496 
L 238.629319 267.862496 
L 238.629319 255.682006 
L 226.448829 255.682006 
z
" clip-path="url(#p51ac57b92b)" style="fill: #7373b7; stroke: #7373b7; stroke-linejoin: miter"/>
   </g>
   <g id="patch_320">
    <path d="M 226.448829 282.479085 
L 238.629319 282.479085 
L 238.629319 270.298595 
L 226.448829 270.298595 
z
" clip-path="url(#p51ac57b92b)" style="fill: #d9d9ee; stroke: #d9d9ee; stroke-linejoin: miter"/>
   </g>
   <g id="patch_321">
    <path d="M 226.448829 297.095674 
L 238.629319 297.095674 
L 238.629319 284.915183 
L 226.448829 284.915183 
z
" clip-path="url(#p51ac57b92b)" style="fill: #d9d9ee; stroke: #d9d9ee; stroke-linejoin: miter"/>
   </g>
   <g id="patch_322">
    <path d="M 241.065417 297.095674 
L 253.245908 297.095674 
L 253.245908 284.915183 
L 241.065417 284.915183 
z
" clip-path="url(#p51ac57b92b)" style="fill: #d9d9ee; stroke: #d9d9ee; stroke-linejoin: miter"/>
   </g>
   <g id="patch_323">
    <path d="M 241.065417 282.479085 
L 253.245908 282.479085 
L 253.245908 270.298595 
L 241.065417 270.298595 
z
" clip-path="url(#p51ac57b92b)" style="fill: #d9d9ee; stroke: #d9d9ee; stroke-linejoin: miter"/>
   </g>
   <g id="patch_324">
    <path d="M 241.065417 267.862496 
L 253.245908 267.862496 
L 253.245908 255.682006 
L 241.065417 255.682006 
z
" clip-path="url(#p51ac57b92b)" style="fill: #d9d9ee; stroke: #d9d9ee; stroke-linejoin: miter"/>
   </g>
   <g id="patch_325">
    <path d="M 241.065417 253.245908 
L 253.245908 253.245908 
L 253.245908 241.065417 
L 241.065417 241.065417 
z
" clip-path="url(#p51ac57b92b)" style="fill: #d9d9ee; stroke: #d9d9ee; stroke-linejoin: miter"/>
   </g>
   <g id="patch_326">
    <path d="M 241.065417 238.629319 
L 253.245908 238.629319 
L 253.245908 226.448829 
L 241.065417 226.448829 
z
" clip-path="url(#p51ac57b92b)" style="fill: #d9d9ee; stroke: #d9d9ee; stroke-linejoin: miter"/>
   </g>
   <g id="patch_327">
    <path d="M 241.065417 224.012731 
L 253.245908 224.012731 
L 253.245908 211.83224 
L 241.065417 211.83224 
z
" clip-path="url(#p51ac57b92b)" style="fill: #d9d9ee; stroke: #d9d9ee; stroke-linejoin: miter"/>
   </g>
   <g id="patch_328">
    <path d="M 241.065417 209.396142 
L 253.245908 209.396142 
L 253.245908 197.215652 
L 241.065417 197.215652 
z
" clip-path="url(#p51ac57b92b)" style="fill: #d9d9ee; stroke: #d9d9ee; stroke-linejoin: miter"/>
   </g>
   <g id="patch_329">
    <path d="M 241.065417 194.779554 
L 253.245908 194.779554 
L 253.245908 182.599063 
L 241.065417 182.599063 
z
" clip-path="url(#p51ac57b92b)" style="fill: #d9d9ee; stroke: #d9d9ee; stroke-linejoin: miter"/>
   </g>
   <g id="patch_330">
    <path d="M 241.065417 180.162965 
L 253.245908 180.162965 
L 253.245908 167.982474 
L 241.065417 167.982474 
z
" clip-path="url(#p51ac57b92b)" style="fill: #d9d9ee; stroke: #d9d9ee; stroke-linejoin: miter"/>
   </g>
   <g id="patch_331">
    <path d="M 241.065417 165.546376 
L 253.245908 165.546376 
L 253.245908 153.365886 
L 241.065417 153.365886 
z
" clip-path="url(#p51ac57b92b)" style="fill: #d9d9ee; stroke: #d9d9ee; stroke-linejoin: miter"/>
   </g>
   <g id="patch_332">
    <path d="M 241.065417 150.929788 
L 253.245908 150.929788 
L 253.245908 138.749297 
L 241.065417 138.749297 
z
" clip-path="url(#p51ac57b92b)" style="fill: #d9d9ee; stroke: #d9d9ee; stroke-linejoin: miter"/>
   </g>
   <g id="patch_333">
    <path d="M 241.065417 136.313199 
L 253.245908 136.313199 
L 253.245908 124.132709 
L 241.065417 124.132709 
z
" clip-path="url(#p51ac57b92b)" style="fill: #d9d9ee; stroke: #d9d9ee; stroke-linejoin: miter"/>
   </g>
   <g id="patch_334">
    <path d="M 241.065417 121.696611 
L 253.245908 121.696611 
L 253.245908 109.51612 
L 241.065417 109.51612 
z
" clip-path="url(#p51ac57b92b)" style="fill: #d9d9ee; stroke: #d9d9ee; stroke-linejoin: miter"/>
   </g>
   <g id="patch_335">
    <path d="M 241.065417 107.080022 
L 253.245908 107.080022 
L 253.245908 94.899532 
L 241.065417 94.899532 
z
" clip-path="url(#p51ac57b92b)" style="fill: #d9d9ee; stroke: #d9d9ee; stroke-linejoin: miter"/>
   </g>
   <g id="patch_336">
    <path d="M 241.065417 92.463433 
L 253.245908 92.463433 
L 253.245908 80.282943 
L 241.065417 80.282943 
z
" clip-path="url(#p51ac57b92b)" style="fill: #d9d9ee; stroke: #d9d9ee; stroke-linejoin: miter"/>
   </g>
   <g id="patch_337">
    <path d="M 241.065417 77.846845 
L 253.245908 77.846845 
L 253.245908 65.666354 
L 241.065417 65.666354 
z
" clip-path="url(#p51ac57b92b)" style="fill: #d9d9ee; stroke: #d9d9ee; stroke-linejoin: miter"/>
   </g>
   <g id="patch_338">
    <path d="M 241.065417 63.230256 
L 253.245908 63.230256 
L 253.245908 51.049766 
L 241.065417 51.049766 
z
" clip-path="url(#p51ac57b92b)" style="fill: #d9d9ee; stroke: #d9d9ee; stroke-linejoin: miter"/>
   </g>
   <g id="patch_339">
    <path d="M 241.065417 48.613668 
L 253.245908 48.613668 
L 253.245908 36.433177 
L 241.065417 36.433177 
z
" clip-path="url(#p51ac57b92b)" style="fill: #d9d9ee; stroke: #d9d9ee; stroke-linejoin: miter"/>
   </g>
   <g id="patch_340">
    <path d="M 241.065417 33.997079 
L 253.245908 33.997079 
L 253.245908 21.816589 
L 241.065417 21.816589 
z
" clip-path="url(#p51ac57b92b)" style="fill: #d9d9ee; stroke: #d9d9ee; stroke-linejoin: miter"/>
   </g>
   <g id="patch_341">
    <path d="M 241.065417 19.38049 
L 253.245908 19.38049 
L 253.245908 7.2 
L 241.065417 7.2 
z
" clip-path="url(#p51ac57b92b)" style="fill: #d9d9ee; stroke: #d9d9ee; stroke-linejoin: miter"/>
   </g>
   <g id="patch_342">
    <path d="M 255.682006 19.38049 
L 267.862496 19.38049 
L 267.862496 7.2 
L 255.682006 7.2 
z
" clip-path="url(#p51ac57b92b)" style="fill: #d9d9ee; stroke: #d9d9ee; stroke-linejoin: miter"/>
   </g>
   <g id="patch_343">
    <path d="M 255.682006 33.997079 
L 267.862496 33.997079 
L 267.862496 21.816589 
L 255.682006 21.816589 
z
" clip-path="url(#p51ac57b92b)" style="fill: #d9d9ee; stroke: #d9d9ee; stroke-linejoin: miter"/>
   </g>
   <g id="patch_344">
    <path d="M 255.682006 48.613668 
L 267.862496 48.613668 
L 267.862496 36.433177 
L 255.682006 36.433177 
z
" clip-path="url(#p51ac57b92b)" style="fill: #d9d9ee; stroke: #d9d9ee; stroke-linejoin: miter"/>
   </g>
   <g id="patch_345">
    <path d="M 255.682006 63.230256 
L 267.862496 63.230256 
L 267.862496 51.049766 
L 255.682006 51.049766 
z
" clip-path="url(#p51ac57b92b)" style="fill: #d9d9ee; stroke: #d9d9ee; stroke-linejoin: miter"/>
   </g>
   <g id="patch_346">
    <path d="M 255.682006 77.846845 
L 267.862496 77.846845 
L 267.862496 65.666354 
L 255.682006 65.666354 
z
" clip-path="url(#p51ac57b92b)" style="fill: #d9d9ee; stroke: #d9d9ee; stroke-linejoin: miter"/>
   </g>
   <g id="patch_347">
    <path d="M 255.682006 92.463433 
L 267.862496 92.463433 
L 267.862496 80.282943 
L 255.682006 80.282943 
z
" clip-path="url(#p51ac57b92b)" style="fill: #9e3f4f; stroke: #9e3f4f; stroke-linejoin: miter"/>
   </g>
   <g id="patch_348">
    <path d="M 255.682006 107.080022 
L 267.862496 107.080022 
L 267.862496 94.899532 
L 255.682006 94.899532 
z
" clip-path="url(#p51ac57b92b)" style="fill: #9e3f4f; stroke: #9e3f4f; stroke-linejoin: miter"/>
   </g>
   <g id="patch_349">
    <path d="M 255.682006 121.696611 
L 267.862496 121.696611 
L 267.862496 109.51612 
L 255.682006 109.51612 
z
" clip-path="url(#p51ac57b92b)" style="fill: #9e3f4f; stroke: #9e3f4f; stroke-linejoin: miter"/>
   </g>
   <g id="patch_350">
    <path d="M 255.682006 136.313199 
L 267.862496 136.313199 
L 267.862496 124.132709 
L 255.682006 124.132709 
z
" clip-path="url(#p51ac57b92b)" style="fill: #9e3f4f; stroke: #9e3f4f; stroke-linejoin: miter"/>
   </g>
   <g id="patch_351">
    <path d="M 255.682006 150.929788 
L 267.862496 150.929788 
L 267.862496 138.749297 
L 255.682006 138.749297 
z
" clip-path="url(#p51ac57b92b)" style="fill: #9e3f4f; stroke: #9e3f4f; stroke-linejoin: miter"/>
   </g>
   <g id="patch_352">
    <path d="M 255.682006 165.546376 
L 267.862496 165.546376 
L 267.862496 153.365886 
L 255.682006 153.365886 
z
" clip-path="url(#p51ac57b92b)" style="fill: #9e3f4f; stroke: #9e3f4f; stroke-linejoin: miter"/>
   </g>
   <g id="patch_353">
    <path d="M 255.682006 180.162965 
L 267.862496 180.162965 
L 267.862496 167.982474 
L 255.682006 167.982474 
z
" clip-path="url(#p51ac57b92b)" style="fill: #9e3f4f; stroke: #9e3f4f; stroke-linejoin: miter"/>
   </g>
   <g id="patch_354">
    <path d="M 255.682006 194.779554 
L 267.862496 194.779554 
L 267.862496 182.599063 
L 255.682006 182.599063 
z
" clip-path="url(#p51ac57b92b)" style="fill: #9e3f4f; stroke: #9e3f4f; stroke-linejoin: miter"/>
   </g>
   <g id="patch_355">
    <path d="M 255.682006 209.396142 
L 267.862496 209.396142 
L 267.862496 197.215652 
L 255.682006 197.215652 
z
" clip-path="url(#p51ac57b92b)" style="fill: #9e3f4f; stroke: #9e3f4f; stroke-linejoin: miter"/>
   </g>
   <g id="patch_356">
    <path d="M 255.682006 224.012731 
L 267.862496 224.012731 
L 267.862496 211.83224 
L 255.682006 211.83224 
z
" clip-path="url(#p51ac57b92b)" style="fill: #9e3f4f; stroke: #9e3f4f; stroke-linejoin: miter"/>
   </g>
   <g id="patch_357">
    <path d="M 255.682006 238.629319 
L 267.862496 238.629319 
L 267.862496 226.448829 
L 255.682006 226.448829 
z
" clip-path="url(#p51ac57b92b)" style="fill: #9e3f4f; stroke: #9e3f4f; stroke-linejoin: miter"/>
   </g>
   <g id="patch_358">
    <path d="M 255.682006 253.245908 
L 267.862496 253.245908 
L 267.862496 241.065417 
L 255.682006 241.065417 
z
" clip-path="url(#p51ac57b92b)" style="fill: #9e3f4f; stroke: #9e3f4f; stroke-linejoin: miter"/>
   </g>
   <g id="patch_359">
    <path d="M 255.682006 267.862496 
L 267.862496 267.862496 
L 267.862496 255.682006 
L 255.682006 255.682006 
z
" clip-path="url(#p51ac57b92b)" style="fill: #9e3f4f; stroke: #9e3f4f; stroke-linejoin: miter"/>
   </g>
   <g id="patch_360">
    <path d="M 255.682006 282.479085 
L 267.862496 282.479085 
L 267.862496 270.298595 
L 255.682006 270.298595 
z
" clip-path="url(#p51ac57b92b)" style="fill: #9e3f4f; stroke: #9e3f4f; stroke-linejoin: miter"/>
   </g>
   <g id="patch_361">
    <path d="M 255.682006 297.095674 
L 267.862496 297.095674 
L 267.862496 284.915183 
L 255.682006 284.915183 
z
" clip-path="url(#p51ac57b92b)" style="fill: #9e3f4f; stroke: #9e3f4f; stroke-linejoin: miter"/>
   </g>
   <g id="patch_362">
    <path d="M 270.298595 297.095674 
L 282.479085 297.095674 
L 282.479085 284.915183 
L 270.298595 284.915183 
z
" clip-path="url(#p51ac57b92b)" style="fill: #9e3f4f; stroke: #9e3f4f; stroke-linejoin: miter"/>
   </g>
   <g id="patch_363">
    <path d="M 270.298595 282.479085 
L 282.479085 282.479085 
L 282.479085 270.298595 
L 270.298595 270.298595 
z
" clip-path="url(#p51ac57b92b)" style="fill: #9e3f4f; stroke: #9e3f4f; stroke-linejoin: miter"/>
   </g>
   <g id="patch_364">
    <path d="M 270.298595 267.862496 
L 282.479085 267.862496 
L 282.479085 255.682006 
L 270.298595 255.682006 
z
" clip-path="url(#p51ac57b92b)" style="fill: #9b9bce; stroke: #9b9bce; stroke-linejoin: miter"/>
   </g>
   <g id="patch_365">
    <path d="M 270.298595 253.245908 
L 282.479085 253.245908 
L 282.479085 241.065417 
L 270.298595 241.065417 
z
" clip-path="url(#p51ac57b92b)" style="fill: #9b9bce; stroke: #9b9bce; stroke-linejoin: miter"/>
   </g>
   <g id="patch_366">
    <path d="M 270.298595 238.629319 
L 282.479085 238.629319 
L 282.479085 226.448829 
L 270.298595 226.448829 
z
" clip-path="url(#p51ac57b92b)" style="fill: #9b9bce; stroke: #9b9bce; stroke-linejoin: miter"/>
   </g>
   <g id="patch_367">
    <path d="M 270.298595 224.012731 
L 282.479085 224.012731 
L 282.479085 211.83224 
L 270.298595 211.83224 
z
" clip-path="url(#p51ac57b92b)" style="fill: #9b9bce; stroke: #9b9bce; stroke-linejoin: miter"/>
   </g>
   <g id="patch_368">
    <path d="M 270.298595 209.396142 
L 282.479085 209.396142 
L 282.479085 197.215652 
L 270.298595 197.215652 
z
" clip-path="url(#p51ac57b92b)" style="fill: #9b9bce; stroke: #9b9bce; stroke-linejoin: miter"/>
   </g>
   <g id="patch_369">
    <path d="M 270.298595 194.779554 
L 282.479085 194.779554 
L 282.479085 182.599063 
L 270.298595 182.599063 
z
" clip-path="url(#p51ac57b92b)" style="fill: #9b9bce; stroke: #9b9bce; stroke-linejoin: miter"/>
   </g>
   <g id="patch_370">
    <path d="M 270.298595 180.162965 
L 282.479085 180.162965 
L 282.479085 167.982474 
L 270.298595 167.982474 
z
" clip-path="url(#p51ac57b92b)" style="fill: #9b9bce; stroke: #9b9bce; stroke-linejoin: miter"/>
   </g>
   <g id="patch_371">
    <path d="M 270.298595 165.546376 
L 282.479085 165.546376 
L 282.479085 153.365886 
L 270.298595 153.365886 
z
" clip-path="url(#p51ac57b92b)" style="fill: #9b9bce; stroke: #9b9bce; stroke-linejoin: miter"/>
   </g>
   <g id="patch_372">
    <path d="M 270.298595 150.929788 
L 282.479085 150.929788 
L 282.479085 138.749297 
L 270.298595 138.749297 
z
" clip-path="url(#p51ac57b92b)" style="fill: #9b9bce; stroke: #9b9bce; stroke-linejoin: miter"/>
   </g>
   <g id="patch_373">
    <path d="M 270.298595 136.313199 
L 282.479085 136.313199 
L 282.479085 124.132709 
L 270.298595 124.132709 
z
" clip-path="url(#p51ac57b92b)" style="fill: #9b9bce; stroke: #9b9bce; stroke-linejoin: miter"/>
   </g>
   <g id="patch_374">
    <path d="M 270.298595 121.696611 
L 282.479085 121.696611 
L 282.479085 109.51612 
L 270.298595 109.51612 
z
" clip-path="url(#p51ac57b92b)" style="fill: #9b9bce; stroke: #9b9bce; stroke-linejoin: miter"/>
   </g>
   <g id="patch_375">
    <path d="M 270.298595 107.080022 
L 282.479085 107.080022 
L 282.479085 94.899532 
L 270.298595 94.899532 
z
" clip-path="url(#p51ac57b92b)" style="fill: #9b9bce; stroke: #9b9bce; stroke-linejoin: miter"/>
   </g>
   <g id="patch_376">
    <path d="M 270.298595 92.463433 
L 282.479085 92.463433 
L 282.479085 80.282943 
L 270.298595 80.282943 
z
" clip-path="url(#p51ac57b92b)" style="fill: #9b9bce; stroke: #9b9bce; stroke-linejoin: miter"/>
   </g>
   <g id="patch_377">
    <path d="M 270.298595 77.846845 
L 282.479085 77.846845 
L 282.479085 65.666354 
L 270.298595 65.666354 
z
" clip-path="url(#p51ac57b92b)" style="fill: #9b9bce; stroke: #9b9bce; stroke-linejoin: miter"/>
   </g>
   <g id="patch_378">
    <path d="M 270.298595 63.230256 
L 282.479085 63.230256 
L 282.479085 51.049766 
L 270.298595 51.049766 
z
" clip-path="url(#p51ac57b92b)" style="fill: #9b9bce; stroke: #9b9bce; stroke-linejoin: miter"/>
   </g>
   <g id="patch_379">
    <path d="M 270.298595 48.613668 
L 282.479085 48.613668 
L 282.479085 36.433177 
L 270.298595 36.433177 
z
" clip-path="url(#p51ac57b92b)" style="fill: #9b9bce; stroke: #9b9bce; stroke-linejoin: miter"/>
   </g>
   <g id="patch_380">
    <path d="M 270.298595 33.997079 
L 282.479085 33.997079 
L 282.479085 21.816589 
L 270.298595 21.816589 
z
" clip-path="url(#p51ac57b92b)" style="fill: #9b9bce; stroke: #9b9bce; stroke-linejoin: miter"/>
   </g>
   <g id="patch_381">
    <path d="M 270.298595 19.38049 
L 282.479085 19.38049 
L 282.479085 7.2 
L 270.298595 7.2 
z
" clip-path="url(#p51ac57b92b)" style="fill: #f67f4c; stroke: #f67f4c; stroke-linejoin: miter"/>
   </g>
   <g id="patch_382">
    <path d="M 284.915183 19.38049 
L 297.095674 19.38049 
L 297.095674 7.2 
L 284.915183 7.2 
z
" clip-path="url(#p51ac57b92b)" style="fill: #f67f4c; stroke: #f67f4c; stroke-linejoin: miter"/>
   </g>
   <g id="patch_383">
    <path d="M 284.915183 33.997079 
L 297.095674 33.997079 
L 297.095674 21.816589 
L 284.915183 21.816589 
z
" clip-path="url(#p51ac57b92b)" style="fill: #f67f4c; stroke: #f67f4c; stroke-linejoin: miter"/>
   </g>
   <g id="patch_384">
    <path d="M 284.915183 48.613668 
L 297.095674 48.613668 
L 297.095674 36.433177 
L 284.915183 36.433177 
z
" clip-path="url(#p51ac57b92b)" style="fill: #f67f4c; stroke: #f67f4c; stroke-linejoin: miter"/>
   </g>
   <g id="patch_385">
    <path d="M 284.915183 63.230256 
L 297.095674 63.230256 
L 297.095674 51.049766 
L 284.915183 51.049766 
z
" clip-path="url(#p51ac57b92b)" style="fill: #f67f4c; stroke: #f67f4c; stroke-linejoin: miter"/>
   </g>
   <g id="patch_386">
    <path d="M 284.915183 77.846845 
L 297.095674 77.846845 
L 297.095674 65.666354 
L 284.915183 65.666354 
z
" clip-path="url(#p51ac57b92b)" style="fill: #f67f4c; stroke: #f67f4c; stroke-linejoin: miter"/>
   </g>
   <g id="patch_387">
    <path d="M 284.915183 92.463433 
L 297.095674 92.463433 
L 297.095674 80.282943 
L 284.915183 80.282943 
z
" clip-path="url(#p51ac57b92b)" style="fill: #f67f4c; stroke: #f67f4c; stroke-linejoin: miter"/>
   </g>
   <g id="patch_388">
    <path d="M 284.915183 107.080022 
L 297.095674 107.080022 
L 297.095674 94.899532 
L 284.915183 94.899532 
z
" clip-path="url(#p51ac57b92b)" style="fill: #f67f4c; stroke: #f67f4c; stroke-linejoin: miter"/>
   </g>
   <g id="patch_389">
    <path d="M 284.915183 121.696611 
L 297.095674 121.696611 
L 297.095674 109.51612 
L 284.915183 109.51612 
z
" clip-path="url(#p51ac57b92b)" style="fill: #f67f4c; stroke: #f67f4c; stroke-linejoin: miter"/>
   </g>
   <g id="patch_390">
    <path d="M 284.915183 136.313199 
L 297.095674 136.313199 
L 297.095674 124.132709 
L 284.915183 124.132709 
z
" clip-path="url(#p51ac57b92b)" style="fill: #6699cc; stroke: #6699cc; stroke-linejoin: miter"/>
   </g>
   <g id="patch_391">
    <path d="M 284.915183 150.929788 
L 297.095674 150.929788 
L 297.095674 138.749297 
L 284.915183 138.749297 
z
" clip-path="url(#p51ac57b92b)" style="fill: #6699cc; stroke: #6699cc; stroke-linejoin: miter"/>
   </g>
   <g id="patch_392">
    <path d="M 284.915183 165.546376 
L 297.095674 165.546376 
L 297.095674 153.365886 
L 284.915183 153.365886 
z
" clip-path="url(#p51ac57b92b)" style="fill: #6699cc; stroke: #6699cc; stroke-linejoin: miter"/>
   </g>
   <g id="patch_393">
    <path d="M 284.915183 180.162965 
L 297.095674 180.162965 
L 297.095674 167.982474 
L 284.915183 167.982474 
z
" clip-path="url(#p51ac57b92b)" style="fill: #6699cc; stroke: #6699cc; stroke-linejoin: miter"/>
   </g>
   <g id="patch_394">
    <path d="M 284.915183 194.779554 
L 297.095674 194.779554 
L 297.095674 182.599063 
L 284.915183 182.599063 
z
" clip-path="url(#p51ac57b92b)" style="fill: #6699cc; stroke: #6699cc; stroke-linejoin: miter"/>
   </g>
   <g id="patch_395">
    <path d="M 284.915183 209.396142 
L 297.095674 209.396142 
L 297.095674 197.215652 
L 284.915183 197.215652 
z
" clip-path="url(#p51ac57b92b)" style="fill: #6699cc; stroke: #6699cc; stroke-linejoin: miter"/>
   </g>
   <g id="patch_396">
    <path d="M 284.915183 224.012731 
L 297.095674 224.012731 
L 297.095674 211.83224 
L 284.915183 211.83224 
z
" clip-path="url(#p51ac57b92b)" style="fill: #c49c94; stroke: #c49c94; stroke-linejoin: miter"/>
   </g>
   <g id="patch_397">
    <path d="M 284.915183 238.629319 
L 297.095674 238.629319 
L 297.095674 226.448829 
L 284.915183 226.448829 
z
" clip-path="url(#p51ac57b92b)" style="fill: #c49c94; stroke: #c49c94; stroke-linejoin: miter"/>
   </g>
   <g id="patch_398">
    <path d="M 284.915183 253.245908 
L 297.095674 253.245908 
L 297.095674 241.065417 
L 284.915183 241.065417 
z
" clip-path="url(#p51ac57b92b)" style="fill: #c49c94; stroke: #c49c94; stroke-linejoin: miter"/>
   </g>
   <g id="patch_399">
    <path d="M 284.915183 267.862496 
L 297.095674 267.862496 
L 297.095674 255.682006 
L 284.915183 255.682006 
z
" clip-path="url(#p51ac57b92b)" style="fill: #bdbde1; stroke: #bdbde1; stroke-linejoin: miter"/>
   </g>
   <g id="patch_400">
    <path d="M 284.915183 282.479085 
L 297.095674 282.479085 
L 297.095674 270.298595 
L 284.915183 270.298595 
z
" clip-path="url(#p51ac57b92b)" style="fill: #bdbde1; stroke: #bdbde1; stroke-linejoin: miter"/>
   </g>
   <g id="patch_401">
    <path d="M 284.915183 297.095674 
L 297.095674 297.095674 
L 297.095674 284.915183 
L 284.915183 284.915183 
z
" clip-path="url(#p51ac57b92b)" style="fill: #d5d56a; stroke: #d5d56a; stroke-linejoin: miter"/>
   </g>
  </g>
 </g>
 <defs>
  <clipPath id="p51ac57b92b">
   <rect x="7.2" y="7.2" width="289.895674" height="289.895674"/>
  </clipPath>
 </defs>
</svg>
