<?xml version="1.0" encoding="utf-8" standalone="no"?>
<!DOCTYPE svg PUBLIC "-//W3C//DTD SVG 1.1//EN"
  "http://www.w3.org/Graphics/SVG/1.1/DTD/svg11.dtd">
<svg xmlns:xlink="http://www.w3.org/1999/xlink" width="353.904844pt" height="170.44875pt" viewBox="0 0 353.904844 170.44875" xmlns="http://www.w3.org/2000/svg" version="1.1">
 <metadata>
  <rdf:RDF xmlns:dc="http://purl.org/dc/elements/1.1/" xmlns:cc="http://creativecommons.org/ns#" xmlns:rdf="http://www.w3.org/1999/02/22-rdf-syntax-ns#">
   <cc:Work>
    <dc:type rdf:resource="http://purl.org/dc/dcmitype/StillImage"/>
    <dc:date>2023-06-14T22:09:02.872935</dc:date>
    <dc:format>image/svg+xml</dc:format>
    <dc:creator>
     <cc:Agent>
      <dc:title>Matplotlib v3.7.1, https://matplotlib.org/</dc:title>
     </cc:Agent>
    </dc:creator>
   </cc:Work>
  </rdf:RDF>
 </metadata>
 <defs>
  <style type="text/css">*{stroke-linejoin: round; stroke-linecap: butt}</style>
 </defs>
 <g id="figure_1">
  <g id="patch_1">
   <path d="M 0 170.44875 
L 353.904844 170.44875 
L 353.904844 0 
L 0 0 
L 0 170.44875 
z
" style="fill: none"/>
  </g>
  <g id="axes_1">
   <g id="patch_2">
    <path d="M 32.782891 145.187292 
L 228.082891 145.187292 
L 228.082891 25.261458 
L 32.782891 25.261458 
L 32.782891 145.187292 
z
" style="fill: none"/>
   </g>
   <g id="matplotlib.axis_1">
    <g id="xtick_1">
     <g id="line2d_1">
      <defs>
       <path id="mc65b209f06" d="M 0 0 
L 0 3.5 
" style="stroke: #000000; stroke-width: 0.8"/>
      </defs>
      <g>
       <use xlink:href="#mc65b209f06" x="63.853345" y="145.187292" style="stroke: #000000; stroke-width: 0.8"/>
      </g>
     </g>
     <g id="text_1">
      <!-- uGI -->
      <g transform="translate(58.316665 157.126277) scale(0.065 -0.065)">
       <defs>
        <path id="DejaVuSans-75" d="M 544 1381 
L 544 3500 
L 1119 3500 
L 1119 1403 
Q 1119 906 1312 657 
Q 1506 409 1894 409 
Q 2359 409 2629 706 
Q 2900 1003 2900 1516 
L 2900 3500 
L 3475 3500 
L 3475 0 
L 2900 0 
L 2900 538 
Q 2691 219 2414 64 
Q 2138 -91 1772 -91 
Q 1169 -91 856 284 
Q 544 659 544 1381 
z
M 1991 3584 
L 1991 3584 
z
" transform="scale(0.015625)"/>
        <path id="DejaVuSans-47" d="M 3809 666 
L 3809 1919 
L 2778 1919 
L 2778 2438 
L 4434 2438 
L 4434 434 
Q 4069 175 3628 42 
Q 3188 -91 2688 -91 
Q 1594 -91 976 548 
Q 359 1188 359 2328 
Q 359 3472 976 4111 
Q 1594 4750 2688 4750 
Q 3144 4750 3555 4637 
Q 3966 4525 4313 4306 
L 4313 3634 
Q 3963 3931 3569 4081 
Q 3175 4231 2741 4231 
Q 1884 4231 1454 3753 
Q 1025 3275 1025 2328 
Q 1025 1384 1454 906 
Q 1884 428 2741 428 
Q 3075 428 3337 486 
Q 3600 544 3809 666 
z
" transform="scale(0.015625)"/>
        <path id="DejaVuSans-49" d="M 628 4666 
L 1259 4666 
L 1259 0 
L 628 0 
L 628 4666 
z
" transform="scale(0.015625)"/>
       </defs>
       <use xlink:href="#DejaVuSans-75"/>
       <use xlink:href="#DejaVuSans-47" x="63.378906"/>
       <use xlink:href="#DejaVuSans-49" x="140.869141"/>
      </g>
     </g>
    </g>
    <g id="xtick_2">
     <g id="line2d_2">
      <g>
       <use xlink:href="#mc65b209f06" x="108.239709" y="145.187292" style="stroke: #000000; stroke-width: 0.8"/>
      </g>
     </g>
     <g id="text_2">
      <!-- IE -->
      <g transform="translate(105.227365 157.126277) scale(0.065 -0.065)">
       <defs>
        <path id="DejaVuSans-45" d="M 628 4666 
L 3578 4666 
L 3578 4134 
L 1259 4134 
L 1259 2753 
L 3481 2753 
L 3481 2222 
L 1259 2222 
L 1259 531 
L 3634 531 
L 3634 0 
L 628 0 
L 628 4666 
z
" transform="scale(0.015625)"/>
       </defs>
       <use xlink:href="#DejaVuSans-49"/>
       <use xlink:href="#DejaVuSans-45" x="29.492188"/>
      </g>
     </g>
    </g>
    <g id="xtick_3">
     <g id="line2d_3">
      <g>
       <use xlink:href="#mc65b209f06" x="152.626072" y="145.187292" style="stroke: #000000; stroke-width: 0.8"/>
      </g>
     </g>
     <g id="text_3">
      <!-- IME -->
      <g transform="translate(146.809588 157.126277) scale(0.065 -0.065)">
       <defs>
        <path id="DejaVuSans-4d" d="M 628 4666 
L 1569 4666 
L 2759 1491 
L 3956 4666 
L 4897 4666 
L 4897 0 
L 4281 0 
L 4281 4097 
L 3078 897 
L 2444 897 
L 1241 4097 
L 1241 0 
L 628 0 
L 628 4666 
z
" transform="scale(0.015625)"/>
       </defs>
       <use xlink:href="#DejaVuSans-49"/>
       <use xlink:href="#DejaVuSans-4d" x="29.492188"/>
       <use xlink:href="#DejaVuSans-45" x="115.771484"/>
      </g>
     </g>
    </g>
    <g id="xtick_4">
     <g id="line2d_4">
      <g>
       <use xlink:href="#mc65b209f06" x="197.012436" y="145.187292" style="stroke: #000000; stroke-width: 0.8"/>
      </g>
     </g>
     <g id="text_4">
      <!-- ICE -->
      <g transform="translate(191.730678 157.126277) scale(0.065 -0.065)">
       <defs>
        <path id="DejaVuSans-43" d="M 4122 4306 
L 4122 3641 
Q 3803 3938 3442 4084 
Q 3081 4231 2675 4231 
Q 1875 4231 1450 3742 
Q 1025 3253 1025 2328 
Q 1025 1406 1450 917 
Q 1875 428 2675 428 
Q 3081 428 3442 575 
Q 3803 722 4122 1019 
L 4122 359 
Q 3791 134 3420 21 
Q 3050 -91 2638 -91 
Q 1578 -91 968 557 
Q 359 1206 359 2328 
Q 359 3453 968 4101 
Q 1578 4750 2638 4750 
Q 3056 4750 3426 4639 
Q 3797 4528 4122 4306 
z
" transform="scale(0.015625)"/>
       </defs>
       <use xlink:href="#DejaVuSans-49"/>
       <use xlink:href="#DejaVuSans-43" x="29.492188"/>
       <use xlink:href="#DejaVuSans-45" x="99.316406"/>
      </g>
     </g>
    </g>
   </g>
   <g id="matplotlib.axis_2">
    <g id="ytick_1">
     <g id="line2d_5">
      <defs>
       <path id="m96d6d5dbc7" d="M 0 0 
L -3.5 0 
" style="stroke: #000000; stroke-width: 0.8"/>
      </defs>
      <g>
       <use xlink:href="#m96d6d5dbc7" x="32.782891" y="145.187292" style="stroke: #000000; stroke-width: 0.8"/>
      </g>
     </g>
     <g id="text_5">
      <!-- 0% -->
      <g transform="translate(15.47125 147.656784) scale(0.065 -0.065)">
       <defs>
        <path id="DejaVuSans-30" d="M 2034 4250 
Q 1547 4250 1301 3770 
Q 1056 3291 1056 2328 
Q 1056 1369 1301 889 
Q 1547 409 2034 409 
Q 2525 409 2770 889 
Q 3016 1369 3016 2328 
Q 3016 3291 2770 3770 
Q 2525 4250 2034 4250 
z
M 2034 4750 
Q 2819 4750 3233 4129 
Q 3647 3509 3647 2328 
Q 3647 1150 3233 529 
Q 2819 -91 2034 -91 
Q 1250 -91 836 529 
Q 422 1150 422 2328 
Q 422 3509 836 4129 
Q 1250 4750 2034 4750 
z
" transform="scale(0.015625)"/>
        <path id="DejaVuSans-25" d="M 4653 2053 
Q 4381 2053 4226 1822 
Q 4072 1591 4072 1178 
Q 4072 772 4226 539 
Q 4381 306 4653 306 
Q 4919 306 5073 539 
Q 5228 772 5228 1178 
Q 5228 1588 5073 1820 
Q 4919 2053 4653 2053 
z
M 4653 2450 
Q 5147 2450 5437 2106 
Q 5728 1763 5728 1178 
Q 5728 594 5436 251 
Q 5144 -91 4653 -91 
Q 4153 -91 3862 251 
Q 3572 594 3572 1178 
Q 3572 1766 3864 2108 
Q 4156 2450 4653 2450 
z
M 1428 4353 
Q 1159 4353 1004 4120 
Q 850 3888 850 3481 
Q 850 3069 1003 2837 
Q 1156 2606 1428 2606 
Q 1700 2606 1854 2837 
Q 2009 3069 2009 3481 
Q 2009 3884 1853 4118 
Q 1697 4353 1428 4353 
z
M 4250 4750 
L 4750 4750 
L 1831 -91 
L 1331 -91 
L 4250 4750 
z
M 1428 4750 
Q 1922 4750 2215 4408 
Q 2509 4066 2509 3481 
Q 2509 2891 2217 2550 
Q 1925 2209 1428 2209 
Q 931 2209 642 2551 
Q 353 2894 353 3481 
Q 353 4063 643 4406 
Q 934 4750 1428 4750 
z
" transform="scale(0.015625)"/>
       </defs>
       <use xlink:href="#DejaVuSans-30"/>
       <use xlink:href="#DejaVuSans-25" x="63.623047"/>
      </g>
     </g>
    </g>
    <g id="ytick_2">
     <g id="line2d_6">
      <g>
       <use xlink:href="#m96d6d5dbc7" x="32.782891" y="122.344276" style="stroke: #000000; stroke-width: 0.8"/>
      </g>
     </g>
     <g id="text_6">
      <!-- 20% -->
      <g transform="translate(11.335625 124.813768) scale(0.065 -0.065)">
       <defs>
        <path id="DejaVuSans-32" d="M 1228 531 
L 3431 531 
L 3431 0 
L 469 0 
L 469 531 
Q 828 903 1448 1529 
Q 2069 2156 2228 2338 
Q 2531 2678 2651 2914 
Q 2772 3150 2772 3378 
Q 2772 3750 2511 3984 
Q 2250 4219 1831 4219 
Q 1534 4219 1204 4116 
Q 875 4013 500 3803 
L 500 4441 
Q 881 4594 1212 4672 
Q 1544 4750 1819 4750 
Q 2544 4750 2975 4387 
Q 3406 4025 3406 3419 
Q 3406 3131 3298 2873 
Q 3191 2616 2906 2266 
Q 2828 2175 2409 1742 
Q 1991 1309 1228 531 
z
" transform="scale(0.015625)"/>
       </defs>
       <use xlink:href="#DejaVuSans-32"/>
       <use xlink:href="#DejaVuSans-30" x="63.623047"/>
       <use xlink:href="#DejaVuSans-25" x="127.246094"/>
      </g>
     </g>
    </g>
    <g id="ytick_3">
     <g id="line2d_7">
      <g>
       <use xlink:href="#m96d6d5dbc7" x="32.782891" y="99.50126" style="stroke: #000000; stroke-width: 0.8"/>
      </g>
     </g>
     <g id="text_7">
      <!-- 40% -->
      <g transform="translate(11.335625 101.970752) scale(0.065 -0.065)">
       <defs>
        <path id="DejaVuSans-34" d="M 2419 4116 
L 825 1625 
L 2419 1625 
L 2419 4116 
z
M 2253 4666 
L 3047 4666 
L 3047 1625 
L 3713 1625 
L 3713 1100 
L 3047 1100 
L 3047 0 
L 2419 0 
L 2419 1100 
L 313 1100 
L 313 1709 
L 2253 4666 
z
" transform="scale(0.015625)"/>
       </defs>
       <use xlink:href="#DejaVuSans-34"/>
       <use xlink:href="#DejaVuSans-30" x="63.623047"/>
       <use xlink:href="#DejaVuSans-25" x="127.246094"/>
      </g>
     </g>
    </g>
    <g id="ytick_4">
     <g id="line2d_8">
      <g>
       <use xlink:href="#m96d6d5dbc7" x="32.782891" y="76.658244" style="stroke: #000000; stroke-width: 0.8"/>
      </g>
     </g>
     <g id="text_8">
      <!-- 60% -->
      <g transform="translate(11.335625 79.127736) scale(0.065 -0.065)">
       <defs>
        <path id="DejaVuSans-36" d="M 2113 2584 
Q 1688 2584 1439 2293 
Q 1191 2003 1191 1497 
Q 1191 994 1439 701 
Q 1688 409 2113 409 
Q 2538 409 2786 701 
Q 3034 994 3034 1497 
Q 3034 2003 2786 2293 
Q 2538 2584 2113 2584 
z
M 3366 4563 
L 3366 3988 
Q 3128 4100 2886 4159 
Q 2644 4219 2406 4219 
Q 1781 4219 1451 3797 
Q 1122 3375 1075 2522 
Q 1259 2794 1537 2939 
Q 1816 3084 2150 3084 
Q 2853 3084 3261 2657 
Q 3669 2231 3669 1497 
Q 3669 778 3244 343 
Q 2819 -91 2113 -91 
Q 1303 -91 875 529 
Q 447 1150 447 2328 
Q 447 3434 972 4092 
Q 1497 4750 2381 4750 
Q 2619 4750 2861 4703 
Q 3103 4656 3366 4563 
z
" transform="scale(0.015625)"/>
       </defs>
       <use xlink:href="#DejaVuSans-36"/>
       <use xlink:href="#DejaVuSans-30" x="63.623047"/>
       <use xlink:href="#DejaVuSans-25" x="127.246094"/>
      </g>
     </g>
    </g>
    <g id="ytick_5">
     <g id="line2d_9">
      <g>
       <use xlink:href="#m96d6d5dbc7" x="32.782891" y="53.815228" style="stroke: #000000; stroke-width: 0.8"/>
      </g>
     </g>
     <g id="text_9">
      <!-- 80% -->
      <g transform="translate(11.335625 56.28472) scale(0.065 -0.065)">
       <defs>
        <path id="DejaVuSans-38" d="M 2034 2216 
Q 1584 2216 1326 1975 
Q 1069 1734 1069 1313 
Q 1069 891 1326 650 
Q 1584 409 2034 409 
Q 2484 409 2743 651 
Q 3003 894 3003 1313 
Q 3003 1734 2745 1975 
Q 2488 2216 2034 2216 
z
M 1403 2484 
Q 997 2584 770 2862 
Q 544 3141 544 3541 
Q 544 4100 942 4425 
Q 1341 4750 2034 4750 
Q 2731 4750 3128 4425 
Q 3525 4100 3525 3541 
Q 3525 3141 3298 2862 
Q 3072 2584 2669 2484 
Q 3125 2378 3379 2068 
Q 3634 1759 3634 1313 
Q 3634 634 3220 271 
Q 2806 -91 2034 -91 
Q 1263 -91 848 271 
Q 434 634 434 1313 
Q 434 1759 690 2068 
Q 947 2378 1403 2484 
z
M 1172 3481 
Q 1172 3119 1398 2916 
Q 1625 2713 2034 2713 
Q 2441 2713 2670 2916 
Q 2900 3119 2900 3481 
Q 2900 3844 2670 4047 
Q 2441 4250 2034 4250 
Q 1625 4250 1398 4047 
Q 1172 3844 1172 3481 
z
" transform="scale(0.015625)"/>
       </defs>
       <use xlink:href="#DejaVuSans-38"/>
       <use xlink:href="#DejaVuSans-30" x="63.623047"/>
       <use xlink:href="#DejaVuSans-25" x="127.246094"/>
      </g>
     </g>
    </g>
    <g id="ytick_6">
     <g id="line2d_10">
      <g>
       <use xlink:href="#m96d6d5dbc7" x="32.782891" y="30.972212" style="stroke: #000000; stroke-width: 0.8"/>
      </g>
     </g>
     <g id="text_10">
      <!-- 100% -->
      <g transform="translate(7.2 33.441704) scale(0.065 -0.065)">
       <defs>
        <path id="DejaVuSans-31" d="M 794 531 
L 1825 531 
L 1825 4091 
L 703 3866 
L 703 4441 
L 1819 4666 
L 2450 4666 
L 2450 531 
L 3481 531 
L 3481 0 
L 794 0 
L 794 531 
z
" transform="scale(0.015625)"/>
       </defs>
       <use xlink:href="#DejaVuSans-31"/>
       <use xlink:href="#DejaVuSans-30" x="63.623047"/>
       <use xlink:href="#DejaVuSans-30" x="127.246094"/>
       <use xlink:href="#DejaVuSans-25" x="190.869141"/>
      </g>
     </g>
    </g>
   </g>
   <g id="patch_3">
    <path d="M 43.879482 145.187292 
L 83.827209 145.187292 
L 83.827209 116.521547 
L 43.879482 116.521547 
z
" clip-path="url(#p9f6a690452)" style="fill: #1f77b4"/>
   </g>
   <g id="patch_4">
    <path d="M 88.265845 145.187292 
L 128.213572 145.187292 
L 128.213572 78.362947 
L 88.265845 78.362947 
z
" clip-path="url(#p9f6a690452)" style="fill: #1f77b4"/>
   </g>
   <g id="patch_5">
    <path d="M 132.652209 145.187292 
L 172.599936 145.187292 
L 172.599936 145.187292 
L 132.652209 145.187292 
z
" clip-path="url(#p9f6a690452)" style="fill: #1f77b4"/>
   </g>
   <g id="patch_6">
    <path d="M 177.038572 145.187292 
L 216.9863 145.187292 
L 216.9863 145.187292 
L 177.038572 145.187292 
z
" clip-path="url(#p9f6a690452)" style="fill: #1f77b4"/>
   </g>
   <g id="patch_7">
    <path d="M 43.879482 116.521547 
L 83.827209 116.521547 
L 83.827209 93.67853 
L 43.879482 93.67853 
z
" clip-path="url(#p9f6a690452)" style="fill: #aec7e8"/>
   </g>
   <g id="patch_8">
    <path d="M 88.265845 78.362947 
L 128.213572 78.362947 
L 128.213572 59.952158 
L 88.265845 59.952158 
z
" clip-path="url(#p9f6a690452)" style="fill: #aec7e8"/>
   </g>
   <g id="patch_9">
    <path d="M 132.652209 145.187292 
L 172.599936 145.187292 
L 172.599936 125.3238 
L 132.652209 125.3238 
z
" clip-path="url(#p9f6a690452)" style="fill: #aec7e8"/>
   </g>
   <g id="patch_10">
    <path d="M 177.038572 145.187292 
L 216.9863 145.187292 
L 216.9863 145.187292 
L 177.038572 145.187292 
z
" clip-path="url(#p9f6a690452)" style="fill: #aec7e8"/>
   </g>
   <g id="patch_11">
    <path d="M 43.879482 93.67853 
L 83.827209 93.67853 
L 83.827209 72.627123 
L 43.879482 72.627123 
z
" clip-path="url(#p9f6a690452)" style="fill: #ff7f0e"/>
   </g>
   <g id="patch_12">
    <path d="M 88.265845 59.952158 
L 128.213572 59.952158 
L 128.213572 47.337358 
L 88.265845 47.337358 
z
" clip-path="url(#p9f6a690452)" style="fill: #ff7f0e"/>
   </g>
   <g id="patch_13">
    <path d="M 132.652209 145.187292 
L 172.599936 145.187292 
L 172.599936 145.187292 
L 132.652209 145.187292 
z
" clip-path="url(#p9f6a690452)" style="fill: #ff7f0e"/>
   </g>
   <g id="patch_14">
    <path d="M 177.038572 145.187292 
L 216.9863 145.187292 
L 216.9863 145.187292 
L 177.038572 145.187292 
z
" clip-path="url(#p9f6a690452)" style="fill: #ff7f0e"/>
   </g>
   <g id="patch_15">
    <path d="M 43.879482 72.627123 
L 83.827209 72.627123 
L 83.827209 47.992498 
L 43.879482 47.992498 
z
" clip-path="url(#p9f6a690452)" style="fill: #ffbb78"/>
   </g>
   <g id="patch_16">
    <path d="M 88.265845 145.187292 
L 128.213572 145.187292 
L 128.213572 145.187292 
L 88.265845 145.187292 
z
" clip-path="url(#p9f6a690452)" style="fill: #ffbb78"/>
   </g>
   <g id="patch_17">
    <path d="M 132.652209 145.187292 
L 172.599936 145.187292 
L 172.599936 145.187292 
L 132.652209 145.187292 
z
" clip-path="url(#p9f6a690452)" style="fill: #ffbb78"/>
   </g>
   <g id="patch_18">
    <path d="M 177.038572 145.187292 
L 216.9863 145.187292 
L 216.9863 145.187292 
L 177.038572 145.187292 
z
" clip-path="url(#p9f6a690452)" style="fill: #ffbb78"/>
   </g>
   <g id="patch_19">
    <path d="M 43.879482 47.992498 
L 83.827209 47.992498 
L 83.827209 30.972212 
L 43.879482 30.972212 
z
" clip-path="url(#p9f6a690452)" style="fill: #2ca02c"/>
   </g>
   <g id="patch_20">
    <path d="M 88.265845 145.187292 
L 128.213572 145.187292 
L 128.213572 145.187292 
L 88.265845 145.187292 
z
" clip-path="url(#p9f6a690452)" style="fill: #2ca02c"/>
   </g>
   <g id="patch_21">
    <path d="M 132.652209 145.187292 
L 172.599936 145.187292 
L 172.599936 145.187292 
L 132.652209 145.187292 
z
" clip-path="url(#p9f6a690452)" style="fill: #2ca02c"/>
   </g>
   <g id="patch_22">
    <path d="M 177.038572 145.187292 
L 216.9863 145.187292 
L 216.9863 145.187292 
L 177.038572 145.187292 
z
" clip-path="url(#p9f6a690452)" style="fill: #2ca02c"/>
   </g>
   <g id="patch_23">
    <path d="M 43.879482 145.187292 
L 83.827209 145.187292 
L 83.827209 145.187292 
L 43.879482 145.187292 
z
" clip-path="url(#p9f6a690452)" style="fill: #98df8a"/>
   </g>
   <g id="patch_24">
    <path d="M 88.265845 47.337358 
L 128.213572 47.337358 
L 128.213572 35.745379 
L 88.265845 35.745379 
z
" clip-path="url(#p9f6a690452)" style="fill: #98df8a"/>
   </g>
   <g id="patch_25">
    <path d="M 132.652209 145.187292 
L 172.599936 145.187292 
L 172.599936 145.187292 
L 132.652209 145.187292 
z
" clip-path="url(#p9f6a690452)" style="fill: #98df8a"/>
   </g>
   <g id="patch_26">
    <path d="M 177.038572 145.187292 
L 216.9863 145.187292 
L 216.9863 145.187292 
L 177.038572 145.187292 
z
" clip-path="url(#p9f6a690452)" style="fill: #98df8a"/>
   </g>
   <g id="patch_27">
    <path d="M 43.879482 145.187292 
L 83.827209 145.187292 
L 83.827209 145.187292 
L 43.879482 145.187292 
z
" clip-path="url(#p9f6a690452)" style="fill: #d62728"/>
   </g>
   <g id="patch_28">
    <path d="M 88.265845 35.745379 
L 128.213572 35.745379 
L 128.213572 30.972212 
L 88.265845 30.972212 
z
" clip-path="url(#p9f6a690452)" style="fill: #d62728"/>
   </g>
   <g id="patch_29">
    <path d="M 132.652209 145.187292 
L 172.599936 145.187292 
L 172.599936 145.187292 
L 132.652209 145.187292 
z
" clip-path="url(#p9f6a690452)" style="fill: #d62728"/>
   </g>
   <g id="patch_30">
    <path d="M 177.038572 145.187292 
L 216.9863 145.187292 
L 216.9863 145.187292 
L 177.038572 145.187292 
z
" clip-path="url(#p9f6a690452)" style="fill: #d62728"/>
   </g>
   <g id="patch_31">
    <path d="M 43.879482 145.187292 
L 83.827209 145.187292 
L 83.827209 145.187292 
L 43.879482 145.187292 
z
" clip-path="url(#p9f6a690452)" style="fill: #ff9896"/>
   </g>
   <g id="patch_32">
    <path d="M 88.265845 145.187292 
L 128.213572 145.187292 
L 128.213572 145.187292 
L 88.265845 145.187292 
z
" clip-path="url(#p9f6a690452)" style="fill: #ff9896"/>
   </g>
   <g id="patch_33">
    <path d="M 132.652209 145.187292 
L 172.599936 145.187292 
L 172.599936 145.187292 
L 132.652209 145.187292 
z
" clip-path="url(#p9f6a690452)" style="fill: #ff9896"/>
   </g>
   <g id="patch_34">
    <path d="M 177.038572 145.187292 
L 216.9863 145.187292 
L 216.9863 100.770316 
L 177.038572 100.770316 
z
" clip-path="url(#p9f6a690452)" style="fill: #ff9896"/>
   </g>
   <g id="patch_35">
    <path d="M 43.879482 145.187292 
L 83.827209 145.187292 
L 83.827209 145.187292 
L 43.879482 145.187292 
z
" clip-path="url(#p9f6a690452)" style="fill: #9467bd"/>
   </g>
   <g id="patch_36">
    <path d="M 88.265845 145.187292 
L 128.213572 145.187292 
L 128.213572 145.187292 
L 88.265845 145.187292 
z
" clip-path="url(#p9f6a690452)" style="fill: #9467bd"/>
   </g>
   <g id="patch_37">
    <path d="M 132.652209 125.3238 
L 172.599936 125.3238 
L 172.599936 95.528562 
L 132.652209 95.528562 
z
" clip-path="url(#p9f6a690452)" style="fill: #9467bd"/>
   </g>
   <g id="patch_38">
    <path d="M 177.038572 145.187292 
L 216.9863 145.187292 
L 216.9863 145.187292 
L 177.038572 145.187292 
z
" clip-path="url(#p9f6a690452)" style="fill: #9467bd"/>
   </g>
   <g id="patch_39">
    <path d="M 43.879482 145.187292 
L 83.827209 145.187292 
L 83.827209 145.187292 
L 43.879482 145.187292 
z
" clip-path="url(#p9f6a690452)" style="fill: #c5b0d5"/>
   </g>
   <g id="patch_40">
    <path d="M 88.265845 145.187292 
L 128.213572 145.187292 
L 128.213572 145.187292 
L 88.265845 145.187292 
z
" clip-path="url(#p9f6a690452)" style="fill: #c5b0d5"/>
   </g>
   <g id="patch_41">
    <path d="M 132.652209 95.528562 
L 172.599936 95.528562 
L 172.599936 70.699196 
L 132.652209 70.699196 
z
" clip-path="url(#p9f6a690452)" style="fill: #c5b0d5"/>
   </g>
   <g id="patch_42">
    <path d="M 177.038572 145.187292 
L 216.9863 145.187292 
L 216.9863 145.187292 
L 177.038572 145.187292 
z
" clip-path="url(#p9f6a690452)" style="fill: #c5b0d5"/>
   </g>
   <g id="patch_43">
    <path d="M 43.879482 145.187292 
L 83.827209 145.187292 
L 83.827209 145.187292 
L 43.879482 145.187292 
z
" clip-path="url(#p9f6a690452)" style="fill: #8c564b"/>
   </g>
   <g id="patch_44">
    <path d="M 88.265845 145.187292 
L 128.213572 145.187292 
L 128.213572 145.187292 
L 88.265845 145.187292 
z
" clip-path="url(#p9f6a690452)" style="fill: #8c564b"/>
   </g>
   <g id="patch_45">
    <path d="M 132.652209 145.187292 
L 172.599936 145.187292 
L 172.599936 145.187292 
L 132.652209 145.187292 
z
" clip-path="url(#p9f6a690452)" style="fill: #8c564b"/>
   </g>
   <g id="patch_46">
    <path d="M 177.038572 100.770316 
L 216.9863 100.770316 
L 216.9863 75.389188 
L 177.038572 75.389188 
z
" clip-path="url(#p9f6a690452)" style="fill: #8c564b"/>
   </g>
   <g id="patch_47">
    <path d="M 43.879482 145.187292 
L 83.827209 145.187292 
L 83.827209 145.187292 
L 43.879482 145.187292 
z
" clip-path="url(#p9f6a690452)" style="fill: #c49c94"/>
   </g>
   <g id="patch_48">
    <path d="M 88.265845 145.187292 
L 128.213572 145.187292 
L 128.213572 145.187292 
L 88.265845 145.187292 
z
" clip-path="url(#p9f6a690452)" style="fill: #c49c94"/>
   </g>
   <g id="patch_49">
    <path d="M 132.652209 70.699196 
L 172.599936 70.699196 
L 172.599936 50.835704 
L 132.652209 50.835704 
z
" clip-path="url(#p9f6a690452)" style="fill: #c49c94"/>
   </g>
   <g id="patch_50">
    <path d="M 177.038572 145.187292 
L 216.9863 145.187292 
L 216.9863 145.187292 
L 177.038572 145.187292 
z
" clip-path="url(#p9f6a690452)" style="fill: #c49c94"/>
   </g>
   <g id="patch_51">
    <path d="M 43.879482 145.187292 
L 83.827209 145.187292 
L 83.827209 145.187292 
L 43.879482 145.187292 
z
" clip-path="url(#p9f6a690452)" style="fill: #e377c2"/>
   </g>
   <g id="patch_52">
    <path d="M 88.265845 145.187292 
L 128.213572 145.187292 
L 128.213572 145.187292 
L 88.265845 145.187292 
z
" clip-path="url(#p9f6a690452)" style="fill: #e377c2"/>
   </g>
   <g id="patch_53">
    <path d="M 132.652209 50.835704 
L 172.599936 50.835704 
L 172.599936 30.972212 
L 132.652209 30.972212 
z
" clip-path="url(#p9f6a690452)" style="fill: #e377c2"/>
   </g>
   <g id="patch_54">
    <path d="M 177.038572 145.187292 
L 216.9863 145.187292 
L 216.9863 145.187292 
L 177.038572 145.187292 
z
" clip-path="url(#p9f6a690452)" style="fill: #e377c2"/>
   </g>
   <g id="patch_55">
    <path d="M 43.879482 145.187292 
L 83.827209 145.187292 
L 83.827209 145.187292 
L 43.879482 145.187292 
z
" clip-path="url(#p9f6a690452)" style="fill: #f7b6d2"/>
   </g>
   <g id="patch_56">
    <path d="M 88.265845 145.187292 
L 128.213572 145.187292 
L 128.213572 145.187292 
L 88.265845 145.187292 
z
" clip-path="url(#p9f6a690452)" style="fill: #f7b6d2"/>
   </g>
   <g id="patch_57">
    <path d="M 132.652209 145.187292 
L 172.599936 145.187292 
L 172.599936 145.187292 
L 132.652209 145.187292 
z
" clip-path="url(#p9f6a690452)" style="fill: #f7b6d2"/>
   </g>
   <g id="patch_58">
    <path d="M 177.038572 75.389188 
L 216.9863 75.389188 
L 216.9863 56.353341 
L 177.038572 56.353341 
z
" clip-path="url(#p9f6a690452)" style="fill: #f7b6d2"/>
   </g>
   <g id="patch_59">
    <path d="M 43.879482 145.187292 
L 83.827209 145.187292 
L 83.827209 145.187292 
L 43.879482 145.187292 
z
" clip-path="url(#p9f6a690452)" style="fill: #7f7f7f"/>
   </g>
   <g id="patch_60">
    <path d="M 88.265845 145.187292 
L 128.213572 145.187292 
L 128.213572 145.187292 
L 88.265845 145.187292 
z
" clip-path="url(#p9f6a690452)" style="fill: #7f7f7f"/>
   </g>
   <g id="patch_61">
    <path d="M 132.652209 145.187292 
L 172.599936 145.187292 
L 172.599936 145.187292 
L 132.652209 145.187292 
z
" clip-path="url(#p9f6a690452)" style="fill: #7f7f7f"/>
   </g>
   <g id="patch_62">
    <path d="M 177.038572 56.353341 
L 216.9863 56.353341 
L 216.9863 43.662776 
L 177.038572 43.662776 
z
" clip-path="url(#p9f6a690452)" style="fill: #7f7f7f"/>
   </g>
   <g id="patch_63">
    <path d="M 43.879482 145.187292 
L 83.827209 145.187292 
L 83.827209 145.187292 
L 43.879482 145.187292 
z
" clip-path="url(#p9f6a690452)" style="fill: #c7c7c7"/>
   </g>
   <g id="patch_64">
    <path d="M 88.265845 145.187292 
L 128.213572 145.187292 
L 128.213572 145.187292 
L 88.265845 145.187292 
z
" clip-path="url(#p9f6a690452)" style="fill: #c7c7c7"/>
   </g>
   <g id="patch_65">
    <path d="M 132.652209 145.187292 
L 172.599936 145.187292 
L 172.599936 145.187292 
L 132.652209 145.187292 
z
" clip-path="url(#p9f6a690452)" style="fill: #c7c7c7"/>
   </g>
   <g id="patch_66">
    <path d="M 177.038572 43.662776 
L 216.9863 43.662776 
L 216.9863 30.972212 
L 177.038572 30.972212 
z
" clip-path="url(#p9f6a690452)" style="fill: #c7c7c7"/>
   </g>
   <g id="patch_67">
    <path d="M 32.782891 145.187292 
L 32.782891 25.261458 
" style="fill: none; stroke: #000000; stroke-width: 0.8; stroke-linejoin: miter; stroke-linecap: square"/>
   </g>
   <g id="patch_68">
    <path d="M 32.782891 145.187292 
L 228.082891 145.187292 
" style="fill: none; stroke: #000000; stroke-width: 0.8; stroke-linejoin: miter; stroke-linecap: square"/>
   </g>
   <g id="text_11">
    <!-- 64 -->
    <g style="fill: #ffffff" transform="translate(60.035845 132.510044) scale(0.06 -0.06)">
     <use xlink:href="#DejaVuSans-36"/>
     <use xlink:href="#DejaVuSans-34" x="63.623047"/>
    </g>
   </g>
   <g id="text_12">
    <!-- 196 -->
    <g style="fill: #ffffff" transform="translate(102.513459 113.430744) scale(0.06 -0.06)">
     <defs>
      <path id="DejaVuSans-39" d="M 703 97 
L 703 672 
Q 941 559 1184 500 
Q 1428 441 1663 441 
Q 2288 441 2617 861 
Q 2947 1281 2994 2138 
Q 2813 1869 2534 1725 
Q 2256 1581 1919 1581 
Q 1219 1581 811 2004 
Q 403 2428 403 3163 
Q 403 3881 828 4315 
Q 1253 4750 1959 4750 
Q 2769 4750 3195 4129 
Q 3622 3509 3622 2328 
Q 3622 1225 3098 567 
Q 2575 -91 1691 -91 
Q 1453 -91 1209 -44 
Q 966 3 703 97 
z
M 1959 2075 
Q 2384 2075 2632 2365 
Q 2881 2656 2881 3163 
Q 2881 3666 2632 3958 
Q 2384 4250 1959 4250 
Q 1534 4250 1286 3958 
Q 1038 3666 1038 3163 
Q 1038 2656 1286 2365 
Q 1534 2075 1959 2075 
z
" transform="scale(0.015625)"/>
     </defs>
     <use xlink:href="#DejaVuSans-31"/>
     <use xlink:href="#DejaVuSans-39" x="63.623047"/>
     <use xlink:href="#DejaVuSans-36" x="127.246094"/>
    </g>
   </g>
   <g id="text_13">
    <!-- 51 -->
    <g transform="translate(60.035845 106.755663) scale(0.06 -0.06)">
     <defs>
      <path id="DejaVuSans-35" d="M 691 4666 
L 3169 4666 
L 3169 4134 
L 1269 4134 
L 1269 2991 
Q 1406 3038 1543 3061 
Q 1681 3084 1819 3084 
Q 2600 3084 3056 2656 
Q 3513 2228 3513 1497 
Q 3513 744 3044 326 
Q 2575 -91 1722 -91 
Q 1428 -91 1123 -41 
Q 819 9 494 109 
L 494 744 
Q 775 591 1075 516 
Q 1375 441 1709 441 
Q 2250 441 2565 725 
Q 2881 1009 2881 1497 
Q 2881 1984 2565 2268 
Q 2250 2553 1709 2553 
Q 1456 2553 1204 2497 
Q 953 2441 691 2322 
L 691 4666 
z
" transform="scale(0.015625)"/>
     </defs>
     <use xlink:href="#DejaVuSans-35"/>
     <use xlink:href="#DejaVuSans-31" x="63.623047"/>
    </g>
   </g>
   <g id="text_14">
    <!-- 54 -->
    <g transform="translate(104.422209 70.813177) scale(0.06 -0.06)">
     <use xlink:href="#DejaVuSans-35"/>
     <use xlink:href="#DejaVuSans-34" x="63.623047"/>
    </g>
   </g>
   <g id="text_15">
    <!-- 4 -->
    <g transform="translate(150.717322 136.911171) scale(0.06 -0.06)">
     <use xlink:href="#DejaVuSans-34"/>
    </g>
   </g>
   <g id="text_16">
    <!-- 47 -->
    <g transform="translate(60.035845 84.808452) scale(0.06 -0.06)">
     <defs>
      <path id="DejaVuSans-37" d="M 525 4666 
L 3525 4666 
L 3525 4397 
L 1831 0 
L 1172 0 
L 2766 4134 
L 525 4134 
L 525 4666 
z
" transform="scale(0.015625)"/>
     </defs>
     <use xlink:href="#DejaVuSans-34"/>
     <use xlink:href="#DejaVuSans-37" x="63.623047"/>
    </g>
   </g>
   <g id="text_17">
    <!-- 37 -->
    <g transform="translate(104.422209 55.300383) scale(0.06 -0.06)">
     <defs>
      <path id="DejaVuSans-33" d="M 2597 2516 
Q 3050 2419 3304 2112 
Q 3559 1806 3559 1356 
Q 3559 666 3084 287 
Q 2609 -91 1734 -91 
Q 1441 -91 1130 -33 
Q 819 25 488 141 
L 488 750 
Q 750 597 1062 519 
Q 1375 441 1716 441 
Q 2309 441 2620 675 
Q 2931 909 2931 1356 
Q 2931 1769 2642 2001 
Q 2353 2234 1838 2234 
L 1294 2234 
L 1294 2753 
L 1863 2753 
Q 2328 2753 2575 2939 
Q 2822 3125 2822 3475 
Q 2822 3834 2567 4026 
Q 2313 4219 1838 4219 
Q 1578 4219 1281 4162 
Q 984 4106 628 3988 
L 628 4550 
Q 988 4650 1302 4700 
Q 1616 4750 1894 4750 
Q 2613 4750 3031 4423 
Q 3450 4097 3450 3541 
Q 3450 3153 3228 2886 
Q 3006 2619 2597 2516 
z
" transform="scale(0.015625)"/>
     </defs>
     <use xlink:href="#DejaVuSans-33"/>
     <use xlink:href="#DejaVuSans-37" x="63.623047"/>
    </g>
   </g>
   <g id="text_18">
    <!-- 55 -->
    <g transform="translate(60.035845 61.965436) scale(0.06 -0.06)">
     <use xlink:href="#DejaVuSans-35"/>
     <use xlink:href="#DejaVuSans-35" x="63.623047"/>
    </g>
   </g>
   <g id="text_19">
    <!-- 38 -->
    <g style="fill: #ffffff" transform="translate(60.035845 41.13798) scale(0.06 -0.06)">
     <use xlink:href="#DejaVuSans-33"/>
     <use xlink:href="#DejaVuSans-38" x="63.623047"/>
    </g>
   </g>
   <g id="text_20">
    <!-- 34 -->
    <g transform="translate(104.422209 43.196994) scale(0.06 -0.06)">
     <use xlink:href="#DejaVuSans-33"/>
     <use xlink:href="#DejaVuSans-34" x="63.623047"/>
    </g>
   </g>
   <g id="text_21">
    <!-- 7 -->
    <g transform="translate(195.103686 124.634429) scale(0.06 -0.06)">
     <use xlink:href="#DejaVuSans-37"/>
    </g>
   </g>
   <g id="text_22">
    <!-- 6 -->
    <g style="fill: #ffffff" transform="translate(150.717322 112.081806) scale(0.06 -0.06)">
     <use xlink:href="#DejaVuSans-36"/>
    </g>
   </g>
   <g id="text_23">
    <!-- 5 -->
    <g transform="translate(150.717322 84.769504) scale(0.06 -0.06)">
     <use xlink:href="#DejaVuSans-35"/>
    </g>
   </g>
   <g id="text_24">
    <!-- 4 -->
    <g style="fill: #ffffff" transform="translate(195.103686 89.735377) scale(0.06 -0.06)">
     <use xlink:href="#DejaVuSans-34"/>
    </g>
   </g>
   <g id="text_25">
    <!-- 4 -->
    <g transform="translate(150.717322 62.423075) scale(0.06 -0.06)">
     <use xlink:href="#DejaVuSans-34"/>
    </g>
   </g>
   <g id="text_26">
    <!-- 4 -->
    <g transform="translate(150.717322 42.559583) scale(0.06 -0.06)">
     <use xlink:href="#DejaVuSans-34"/>
    </g>
   </g>
   <g id="text_27">
    <!-- 3 -->
    <g transform="translate(195.103686 67.526889) scale(0.06 -0.06)">
     <use xlink:href="#DejaVuSans-33"/>
    </g>
   </g>
   <g id="text_28">
    <!-- 2 -->
    <g style="fill: #ffffff" transform="translate(195.103686 51.663684) scale(0.06 -0.06)">
     <use xlink:href="#DejaVuSans-32"/>
    </g>
   </g>
   <g id="text_29">
    <!-- 2 -->
    <g transform="translate(195.103686 38.973119) scale(0.06 -0.06)">
     <use xlink:href="#DejaVuSans-32"/>
    </g>
   </g>
   <g id="text_30">
    <!-- 255 -->
    <g transform="translate(58.127095 28.68791) scale(0.06 -0.06)">
     <defs>
      <path id="DejaVuSans-Oblique-32" d="M 2950 2253 
L 934 525 
L 3163 525 
L 3053 0 
L 25 0 
L 128 531 
L 2234 2338 
Q 2656 2703 2832 2979 
Q 3009 3256 3009 3547 
Q 3009 3850 2796 4040 
Q 2584 4231 2241 4231 
Q 1944 4231 1581 4125 
Q 1219 4019 806 3816 
L 922 4441 
Q 1309 4594 1662 4672 
Q 2016 4750 2316 4750 
Q 2928 4750 3301 4425 
Q 3675 4100 3675 3572 
Q 3675 3216 3497 2892 
Q 3319 2569 2950 2253 
z
" transform="scale(0.015625)"/>
      <path id="DejaVuSans-Oblique-35" d="M 3719 4666 
L 3622 4141 
L 1691 4141 
L 1466 2988 
Q 1609 3034 1757 3056 
Q 1906 3078 2059 3078 
Q 2706 3078 3081 2731 
Q 3456 2384 3456 1791 
Q 3456 1375 3264 994 
Q 3072 613 2719 325 
Q 2469 125 2108 17 
Q 1747 -91 1319 -91 
Q 1038 -91 744 -41 
Q 450 9 128 109 
L 244 697 
Q 531 556 820 486 
Q 1109 416 1403 416 
Q 2013 416 2411 781 
Q 2809 1147 2809 1697 
Q 2809 2103 2548 2328 
Q 2288 2553 1819 2553 
Q 1572 2553 1305 2495 
Q 1038 2438 756 2322 
L 1209 4666 
L 3719 4666 
z
" transform="scale(0.015625)"/>
     </defs>
     <use xlink:href="#DejaVuSans-Oblique-32"/>
     <use xlink:href="#DejaVuSans-Oblique-35" x="63.623047"/>
     <use xlink:href="#DejaVuSans-Oblique-35" x="127.246094"/>
    </g>
   </g>
   <g id="text_31">
    <!-- 335 -->
    <g transform="translate(102.513459 28.68791) scale(0.06 -0.06)">
     <defs>
      <path id="DejaVuSans-Oblique-33" d="M 1013 4550 
Q 1356 4650 1679 4700 
Q 2003 4750 2316 4750 
Q 2934 4750 3296 4475 
Q 3659 4200 3659 3738 
Q 3659 3284 3373 2959 
Q 3088 2634 2584 2516 
Q 2978 2403 3162 2165 
Q 3347 1928 3347 1538 
Q 3347 1163 3167 834 
Q 2988 506 2650 269 
Q 2394 88 2037 -1 
Q 1681 -91 1216 -91 
Q 922 -91 622 -33 
Q 322 25 13 141 
L 128 738 
Q 422 575 720 495 
Q 1019 416 1331 416 
Q 1947 416 2330 733 
Q 2713 1050 2713 1556 
Q 2713 1881 2469 2057 
Q 2225 2234 1772 2234 
L 1228 2234 
L 1325 2747 
L 1900 2747 
Q 2419 2747 2717 2984 
Q 3016 3222 3016 3628 
Q 3016 3922 2797 4083 
Q 2578 4244 2181 4244 
Q 1881 4244 1567 4180 
Q 1253 4116 916 3988 
L 1013 4550 
z
" transform="scale(0.015625)"/>
     </defs>
     <use xlink:href="#DejaVuSans-Oblique-33"/>
     <use xlink:href="#DejaVuSans-Oblique-33" x="63.623047"/>
     <use xlink:href="#DejaVuSans-Oblique-35" x="127.246094"/>
    </g>
   </g>
   <g id="text_32">
    <!-- 23 -->
    <g transform="translate(148.808572 28.68791) scale(0.06 -0.06)">
     <use xlink:href="#DejaVuSans-Oblique-32"/>
     <use xlink:href="#DejaVuSans-Oblique-33" x="63.623047"/>
    </g>
   </g>
   <g id="text_33">
    <!-- 18 -->
    <g transform="translate(193.194936 28.68791) scale(0.06 -0.06)">
     <defs>
      <path id="DejaVuSans-Oblique-31" d="M 416 531 
L 1447 531 
L 2144 4122 
L 978 3897 
L 1088 4441 
L 2247 4666 
L 2881 4666 
L 2075 531 
L 3103 531 
L 3003 0 
L 313 0 
L 416 531 
z
" transform="scale(0.015625)"/>
      <path id="DejaVuSans-Oblique-38" d="M 2847 1416 
Q 2847 1769 2600 1992 
Q 2353 2216 1953 2216 
Q 1466 2216 1148 1923 
Q 831 1631 831 1184 
Q 831 828 1073 618 
Q 1316 409 1728 409 
Q 2219 409 2533 693 
Q 2847 978 2847 1416 
z
M 3169 3591 
Q 3169 3888 2950 4069 
Q 2731 4250 2369 4250 
Q 1941 4250 1664 4009 
Q 1388 3769 1388 3406 
Q 1388 3094 1605 2903 
Q 1822 2713 2181 2713 
Q 2613 2713 2891 2961 
Q 3169 3209 3169 3591 
z
M 2741 2456 
Q 3094 2322 3281 2050 
Q 3469 1778 3469 1394 
Q 3469 747 2969 328 
Q 2469 -91 1678 -91 
Q 1006 -91 609 239 
Q 213 569 213 1119 
Q 213 1619 553 2008 
Q 894 2397 1441 2503 
Q 1113 2616 941 2852 
Q 769 3088 769 3425 
Q 769 3991 1239 4370 
Q 1709 4750 2431 4750 
Q 3034 4750 3414 4442 
Q 3794 4134 3794 3659 
Q 3794 3247 3511 2923 
Q 3228 2600 2741 2456 
z
" transform="scale(0.015625)"/>
     </defs>
     <use xlink:href="#DejaVuSans-Oblique-31"/>
     <use xlink:href="#DejaVuSans-Oblique-38" x="63.623047"/>
    </g>
   </g>
   <g id="legend_1">
    <g id="patch_69">
     <path d="M 232.632891 163.24875 
L 345.404844 163.24875 
Q 346.704844 163.24875 346.704844 161.94875 
L 346.704844 8.5 
Q 346.704844 7.2 345.404844 7.2 
L 232.632891 7.2 
Q 231.332891 7.2 231.332891 8.5 
L 231.332891 161.94875 
Q 231.332891 163.24875 232.632891 163.24875 
z
" style="fill: #ffffff; opacity: 0.8; stroke: #cccccc; stroke-linejoin: miter"/>
    </g>
    <g id="patch_70">
     <path d="M 233.932891 14.738984 
L 246.932891 14.738984 
L 246.932891 10.188984 
L 233.932891 10.188984 
z
" style="fill: #1f77b4"/>
    </g>
    <g id="text_34">
     <!-- AbiE;Cas -->
     <g transform="translate(252.132891 14.738984) scale(0.065 -0.065)">
      <defs>
       <path id="DejaVuSans-41" d="M 2188 4044 
L 1331 1722 
L 3047 1722 
L 2188 4044 
z
M 1831 4666 
L 2547 4666 
L 4325 0 
L 3669 0 
L 3244 1197 
L 1141 1197 
L 716 0 
L 50 0 
L 1831 4666 
z
" transform="scale(0.015625)"/>
       <path id="DejaVuSans-62" d="M 3116 1747 
Q 3116 2381 2855 2742 
Q 2594 3103 2138 3103 
Q 1681 3103 1420 2742 
Q 1159 2381 1159 1747 
Q 1159 1113 1420 752 
Q 1681 391 2138 391 
Q 2594 391 2855 752 
Q 3116 1113 3116 1747 
z
M 1159 2969 
Q 1341 3281 1617 3432 
Q 1894 3584 2278 3584 
Q 2916 3584 3314 3078 
Q 3713 2572 3713 1747 
Q 3713 922 3314 415 
Q 2916 -91 2278 -91 
Q 1894 -91 1617 61 
Q 1341 213 1159 525 
L 1159 0 
L 581 0 
L 581 4863 
L 1159 4863 
L 1159 2969 
z
" transform="scale(0.015625)"/>
       <path id="DejaVuSans-69" d="M 603 3500 
L 1178 3500 
L 1178 0 
L 603 0 
L 603 3500 
z
M 603 4863 
L 1178 4863 
L 1178 4134 
L 603 4134 
L 603 4863 
z
" transform="scale(0.015625)"/>
       <path id="DejaVuSans-3b" d="M 750 3309 
L 1409 3309 
L 1409 2516 
L 750 2516 
L 750 3309 
z
M 750 794 
L 1409 794 
L 1409 256 
L 897 -744 
L 494 -744 
L 750 256 
L 750 794 
z
" transform="scale(0.015625)"/>
       <path id="DejaVuSans-61" d="M 2194 1759 
Q 1497 1759 1228 1600 
Q 959 1441 959 1056 
Q 959 750 1161 570 
Q 1363 391 1709 391 
Q 2188 391 2477 730 
Q 2766 1069 2766 1631 
L 2766 1759 
L 2194 1759 
z
M 3341 1997 
L 3341 0 
L 2766 0 
L 2766 531 
Q 2569 213 2275 61 
Q 1981 -91 1556 -91 
Q 1019 -91 701 211 
Q 384 513 384 1019 
Q 384 1609 779 1909 
Q 1175 2209 1959 2209 
L 2766 2209 
L 2766 2266 
Q 2766 2663 2505 2880 
Q 2244 3097 1772 3097 
Q 1472 3097 1187 3025 
Q 903 2953 641 2809 
L 641 3341 
Q 956 3463 1253 3523 
Q 1550 3584 1831 3584 
Q 2591 3584 2966 3190 
Q 3341 2797 3341 1997 
z
" transform="scale(0.015625)"/>
       <path id="DejaVuSans-73" d="M 2834 3397 
L 2834 2853 
Q 2591 2978 2328 3040 
Q 2066 3103 1784 3103 
Q 1356 3103 1142 2972 
Q 928 2841 928 2578 
Q 928 2378 1081 2264 
Q 1234 2150 1697 2047 
L 1894 2003 
Q 2506 1872 2764 1633 
Q 3022 1394 3022 966 
Q 3022 478 2636 193 
Q 2250 -91 1575 -91 
Q 1294 -91 989 -36 
Q 684 19 347 128 
L 347 722 
Q 666 556 975 473 
Q 1284 391 1588 391 
Q 1994 391 2212 530 
Q 2431 669 2431 922 
Q 2431 1156 2273 1281 
Q 2116 1406 1581 1522 
L 1381 1569 
Q 847 1681 609 1914 
Q 372 2147 372 2553 
Q 372 3047 722 3315 
Q 1072 3584 1716 3584 
Q 2034 3584 2315 3537 
Q 2597 3491 2834 3397 
z
" transform="scale(0.015625)"/>
      </defs>
      <use xlink:href="#DejaVuSans-41"/>
      <use xlink:href="#DejaVuSans-62" x="68.408203"/>
      <use xlink:href="#DejaVuSans-69" x="131.884766"/>
      <use xlink:href="#DejaVuSans-45" x="159.667969"/>
      <use xlink:href="#DejaVuSans-3b" x="222.851562"/>
      <use xlink:href="#DejaVuSans-43" x="256.542969"/>
      <use xlink:href="#DejaVuSans-61" x="326.367188"/>
      <use xlink:href="#DejaVuSans-73" x="387.646484"/>
     </g>
    </g>
    <g id="patch_71">
     <path d="M 233.932891 24.279766 
L 246.932891 24.279766 
L 246.932891 19.729766 
L 233.932891 19.729766 
z
" style="fill: #aec7e8"/>
    </g>
    <g id="text_35">
     <!-- RM_Type_IV;RM_Type_I -->
     <g transform="translate(252.132891 24.279766) scale(0.065 -0.065)">
      <defs>
       <path id="DejaVuSans-52" d="M 2841 2188 
Q 3044 2119 3236 1894 
Q 3428 1669 3622 1275 
L 4263 0 
L 3584 0 
L 2988 1197 
Q 2756 1666 2539 1819 
Q 2322 1972 1947 1972 
L 1259 1972 
L 1259 0 
L 628 0 
L 628 4666 
L 2053 4666 
Q 2853 4666 3247 4331 
Q 3641 3997 3641 3322 
Q 3641 2881 3436 2590 
Q 3231 2300 2841 2188 
z
M 1259 4147 
L 1259 2491 
L 2053 2491 
Q 2509 2491 2742 2702 
Q 2975 2913 2975 3322 
Q 2975 3731 2742 3939 
Q 2509 4147 2053 4147 
L 1259 4147 
z
" transform="scale(0.015625)"/>
       <path id="DejaVuSans-5f" d="M 3263 -1063 
L 3263 -1509 
L -63 -1509 
L -63 -1063 
L 3263 -1063 
z
" transform="scale(0.015625)"/>
       <path id="DejaVuSans-54" d="M -19 4666 
L 3928 4666 
L 3928 4134 
L 2272 4134 
L 2272 0 
L 1638 0 
L 1638 4134 
L -19 4134 
L -19 4666 
z
" transform="scale(0.015625)"/>
       <path id="DejaVuSans-79" d="M 2059 -325 
Q 1816 -950 1584 -1140 
Q 1353 -1331 966 -1331 
L 506 -1331 
L 506 -850 
L 844 -850 
Q 1081 -850 1212 -737 
Q 1344 -625 1503 -206 
L 1606 56 
L 191 3500 
L 800 3500 
L 1894 763 
L 2988 3500 
L 3597 3500 
L 2059 -325 
z
" transform="scale(0.015625)"/>
       <path id="DejaVuSans-70" d="M 1159 525 
L 1159 -1331 
L 581 -1331 
L 581 3500 
L 1159 3500 
L 1159 2969 
Q 1341 3281 1617 3432 
Q 1894 3584 2278 3584 
Q 2916 3584 3314 3078 
Q 3713 2572 3713 1747 
Q 3713 922 3314 415 
Q 2916 -91 2278 -91 
Q 1894 -91 1617 61 
Q 1341 213 1159 525 
z
M 3116 1747 
Q 3116 2381 2855 2742 
Q 2594 3103 2138 3103 
Q 1681 3103 1420 2742 
Q 1159 2381 1159 1747 
Q 1159 1113 1420 752 
Q 1681 391 2138 391 
Q 2594 391 2855 752 
Q 3116 1113 3116 1747 
z
" transform="scale(0.015625)"/>
       <path id="DejaVuSans-65" d="M 3597 1894 
L 3597 1613 
L 953 1613 
Q 991 1019 1311 708 
Q 1631 397 2203 397 
Q 2534 397 2845 478 
Q 3156 559 3463 722 
L 3463 178 
Q 3153 47 2828 -22 
Q 2503 -91 2169 -91 
Q 1331 -91 842 396 
Q 353 884 353 1716 
Q 353 2575 817 3079 
Q 1281 3584 2069 3584 
Q 2775 3584 3186 3129 
Q 3597 2675 3597 1894 
z
M 3022 2063 
Q 3016 2534 2758 2815 
Q 2500 3097 2075 3097 
Q 1594 3097 1305 2825 
Q 1016 2553 972 2059 
L 3022 2063 
z
" transform="scale(0.015625)"/>
       <path id="DejaVuSans-56" d="M 1831 0 
L 50 4666 
L 709 4666 
L 2188 738 
L 3669 4666 
L 4325 4666 
L 2547 0 
L 1831 0 
z
" transform="scale(0.015625)"/>
      </defs>
      <use xlink:href="#DejaVuSans-52"/>
      <use xlink:href="#DejaVuSans-4d" x="69.482422"/>
      <use xlink:href="#DejaVuSans-5f" x="155.761719"/>
      <use xlink:href="#DejaVuSans-54" x="205.761719"/>
      <use xlink:href="#DejaVuSans-79" x="251.220703"/>
      <use xlink:href="#DejaVuSans-70" x="310.400391"/>
      <use xlink:href="#DejaVuSans-65" x="373.876953"/>
      <use xlink:href="#DejaVuSans-5f" x="435.400391"/>
      <use xlink:href="#DejaVuSans-49" x="485.400391"/>
      <use xlink:href="#DejaVuSans-56" x="514.892578"/>
      <use xlink:href="#DejaVuSans-3b" x="583.300781"/>
      <use xlink:href="#DejaVuSans-52" x="616.992188"/>
      <use xlink:href="#DejaVuSans-4d" x="686.474609"/>
      <use xlink:href="#DejaVuSans-5f" x="772.753906"/>
      <use xlink:href="#DejaVuSans-54" x="822.753906"/>
      <use xlink:href="#DejaVuSans-79" x="868.212891"/>
      <use xlink:href="#DejaVuSans-70" x="927.392578"/>
      <use xlink:href="#DejaVuSans-65" x="990.869141"/>
      <use xlink:href="#DejaVuSans-5f" x="1052.392578"/>
      <use xlink:href="#DejaVuSans-49" x="1102.392578"/>
     </g>
    </g>
    <g id="patch_72">
     <path d="M 233.932891 34.001328 
L 246.932891 34.001328 
L 246.932891 29.451328 
L 233.932891 29.451328 
z
" style="fill: #ff7f0e"/>
    </g>
    <g id="text_36">
     <!-- RM_Type_IV;RM_Type_II -->
     <g transform="translate(252.132891 34.001328) scale(0.065 -0.065)">
      <use xlink:href="#DejaVuSans-52"/>
      <use xlink:href="#DejaVuSans-4d" x="69.482422"/>
      <use xlink:href="#DejaVuSans-5f" x="155.761719"/>
      <use xlink:href="#DejaVuSans-54" x="205.761719"/>
      <use xlink:href="#DejaVuSans-79" x="251.220703"/>
      <use xlink:href="#DejaVuSans-70" x="310.400391"/>
      <use xlink:href="#DejaVuSans-65" x="373.876953"/>
      <use xlink:href="#DejaVuSans-5f" x="435.400391"/>
      <use xlink:href="#DejaVuSans-49" x="485.400391"/>
      <use xlink:href="#DejaVuSans-56" x="514.892578"/>
      <use xlink:href="#DejaVuSans-3b" x="583.300781"/>
      <use xlink:href="#DejaVuSans-52" x="616.992188"/>
      <use xlink:href="#DejaVuSans-4d" x="686.474609"/>
      <use xlink:href="#DejaVuSans-5f" x="772.753906"/>
      <use xlink:href="#DejaVuSans-54" x="822.753906"/>
      <use xlink:href="#DejaVuSans-79" x="868.212891"/>
      <use xlink:href="#DejaVuSans-70" x="927.392578"/>
      <use xlink:href="#DejaVuSans-65" x="990.869141"/>
      <use xlink:href="#DejaVuSans-5f" x="1052.392578"/>
      <use xlink:href="#DejaVuSans-49" x="1102.392578"/>
      <use xlink:href="#DejaVuSans-49" x="1131.884766"/>
     </g>
    </g>
    <g id="patch_73">
     <path d="M 233.932891 43.722891 
L 246.932891 43.722891 
L 246.932891 39.172891 
L 233.932891 39.172891 
z
" style="fill: #ffbb78"/>
    </g>
    <g id="text_37">
     <!-- Retron;Lamassu-Fam -->
     <g transform="translate(252.132891 43.722891) scale(0.065 -0.065)">
      <defs>
       <path id="DejaVuSans-74" d="M 1172 4494 
L 1172 3500 
L 2356 3500 
L 2356 3053 
L 1172 3053 
L 1172 1153 
Q 1172 725 1289 603 
Q 1406 481 1766 481 
L 2356 481 
L 2356 0 
L 1766 0 
Q 1100 0 847 248 
Q 594 497 594 1153 
L 594 3053 
L 172 3053 
L 172 3500 
L 594 3500 
L 594 4494 
L 1172 4494 
z
" transform="scale(0.015625)"/>
       <path id="DejaVuSans-72" d="M 2631 2963 
Q 2534 3019 2420 3045 
Q 2306 3072 2169 3072 
Q 1681 3072 1420 2755 
Q 1159 2438 1159 1844 
L 1159 0 
L 581 0 
L 581 3500 
L 1159 3500 
L 1159 2956 
Q 1341 3275 1631 3429 
Q 1922 3584 2338 3584 
Q 2397 3584 2469 3576 
Q 2541 3569 2628 3553 
L 2631 2963 
z
" transform="scale(0.015625)"/>
       <path id="DejaVuSans-6f" d="M 1959 3097 
Q 1497 3097 1228 2736 
Q 959 2375 959 1747 
Q 959 1119 1226 758 
Q 1494 397 1959 397 
Q 2419 397 2687 759 
Q 2956 1122 2956 1747 
Q 2956 2369 2687 2733 
Q 2419 3097 1959 3097 
z
M 1959 3584 
Q 2709 3584 3137 3096 
Q 3566 2609 3566 1747 
Q 3566 888 3137 398 
Q 2709 -91 1959 -91 
Q 1206 -91 779 398 
Q 353 888 353 1747 
Q 353 2609 779 3096 
Q 1206 3584 1959 3584 
z
" transform="scale(0.015625)"/>
       <path id="DejaVuSans-6e" d="M 3513 2113 
L 3513 0 
L 2938 0 
L 2938 2094 
Q 2938 2591 2744 2837 
Q 2550 3084 2163 3084 
Q 1697 3084 1428 2787 
Q 1159 2491 1159 1978 
L 1159 0 
L 581 0 
L 581 3500 
L 1159 3500 
L 1159 2956 
Q 1366 3272 1645 3428 
Q 1925 3584 2291 3584 
Q 2894 3584 3203 3211 
Q 3513 2838 3513 2113 
z
" transform="scale(0.015625)"/>
       <path id="DejaVuSans-4c" d="M 628 4666 
L 1259 4666 
L 1259 531 
L 3531 531 
L 3531 0 
L 628 0 
L 628 4666 
z
" transform="scale(0.015625)"/>
       <path id="DejaVuSans-6d" d="M 3328 2828 
Q 3544 3216 3844 3400 
Q 4144 3584 4550 3584 
Q 5097 3584 5394 3201 
Q 5691 2819 5691 2113 
L 5691 0 
L 5113 0 
L 5113 2094 
Q 5113 2597 4934 2840 
Q 4756 3084 4391 3084 
Q 3944 3084 3684 2787 
Q 3425 2491 3425 1978 
L 3425 0 
L 2847 0 
L 2847 2094 
Q 2847 2600 2669 2842 
Q 2491 3084 2119 3084 
Q 1678 3084 1418 2786 
Q 1159 2488 1159 1978 
L 1159 0 
L 581 0 
L 581 3500 
L 1159 3500 
L 1159 2956 
Q 1356 3278 1631 3431 
Q 1906 3584 2284 3584 
Q 2666 3584 2933 3390 
Q 3200 3197 3328 2828 
z
" transform="scale(0.015625)"/>
       <path id="DejaVuSans-2d" d="M 313 2009 
L 1997 2009 
L 1997 1497 
L 313 1497 
L 313 2009 
z
" transform="scale(0.015625)"/>
       <path id="DejaVuSans-46" d="M 628 4666 
L 3309 4666 
L 3309 4134 
L 1259 4134 
L 1259 2759 
L 3109 2759 
L 3109 2228 
L 1259 2228 
L 1259 0 
L 628 0 
L 628 4666 
z
" transform="scale(0.015625)"/>
      </defs>
      <use xlink:href="#DejaVuSans-52"/>
      <use xlink:href="#DejaVuSans-65" x="64.982422"/>
      <use xlink:href="#DejaVuSans-74" x="126.505859"/>
      <use xlink:href="#DejaVuSans-72" x="165.714844"/>
      <use xlink:href="#DejaVuSans-6f" x="204.578125"/>
      <use xlink:href="#DejaVuSans-6e" x="265.759766"/>
      <use xlink:href="#DejaVuSans-3b" x="329.138672"/>
      <use xlink:href="#DejaVuSans-4c" x="362.830078"/>
      <use xlink:href="#DejaVuSans-61" x="418.542969"/>
      <use xlink:href="#DejaVuSans-6d" x="479.822266"/>
      <use xlink:href="#DejaVuSans-61" x="577.234375"/>
      <use xlink:href="#DejaVuSans-73" x="638.513672"/>
      <use xlink:href="#DejaVuSans-73" x="690.613281"/>
      <use xlink:href="#DejaVuSans-75" x="742.712891"/>
      <use xlink:href="#DejaVuSans-2d" x="806.091797"/>
      <use xlink:href="#DejaVuSans-46" x="842.175781"/>
      <use xlink:href="#DejaVuSans-61" x="890.570312"/>
      <use xlink:href="#DejaVuSans-6d" x="951.849609"/>
     </g>
    </g>
    <g id="patch_74">
     <path d="M 233.932891 53.263672 
L 246.932891 53.263672 
L 246.932891 48.713672 
L 233.932891 48.713672 
z
" style="fill: #2ca02c"/>
    </g>
    <g id="text_38">
     <!-- Druantia;RM_Type_IIG;Zorya -->
     <g transform="translate(252.132891 53.263672) scale(0.065 -0.065)">
      <defs>
       <path id="DejaVuSans-44" d="M 1259 4147 
L 1259 519 
L 2022 519 
Q 2988 519 3436 956 
Q 3884 1394 3884 2338 
Q 3884 3275 3436 3711 
Q 2988 4147 2022 4147 
L 1259 4147 
z
M 628 4666 
L 1925 4666 
Q 3281 4666 3915 4102 
Q 4550 3538 4550 2338 
Q 4550 1131 3912 565 
Q 3275 0 1925 0 
L 628 0 
L 628 4666 
z
" transform="scale(0.015625)"/>
       <path id="DejaVuSans-5a" d="M 359 4666 
L 4025 4666 
L 4025 4184 
L 1075 531 
L 4097 531 
L 4097 0 
L 288 0 
L 288 481 
L 3238 4134 
L 359 4134 
L 359 4666 
z
" transform="scale(0.015625)"/>
      </defs>
      <use xlink:href="#DejaVuSans-44"/>
      <use xlink:href="#DejaVuSans-72" x="77.001953"/>
      <use xlink:href="#DejaVuSans-75" x="118.115234"/>
      <use xlink:href="#DejaVuSans-61" x="181.494141"/>
      <use xlink:href="#DejaVuSans-6e" x="242.773438"/>
      <use xlink:href="#DejaVuSans-74" x="306.152344"/>
      <use xlink:href="#DejaVuSans-69" x="345.361328"/>
      <use xlink:href="#DejaVuSans-61" x="373.144531"/>
      <use xlink:href="#DejaVuSans-3b" x="434.423828"/>
      <use xlink:href="#DejaVuSans-52" x="468.115234"/>
      <use xlink:href="#DejaVuSans-4d" x="537.597656"/>
      <use xlink:href="#DejaVuSans-5f" x="623.876953"/>
      <use xlink:href="#DejaVuSans-54" x="673.876953"/>
      <use xlink:href="#DejaVuSans-79" x="719.335938"/>
      <use xlink:href="#DejaVuSans-70" x="778.515625"/>
      <use xlink:href="#DejaVuSans-65" x="841.992188"/>
      <use xlink:href="#DejaVuSans-5f" x="903.515625"/>
      <use xlink:href="#DejaVuSans-49" x="953.515625"/>
      <use xlink:href="#DejaVuSans-49" x="983.007812"/>
      <use xlink:href="#DejaVuSans-47" x="1012.5"/>
      <use xlink:href="#DejaVuSans-3b" x="1089.990234"/>
      <use xlink:href="#DejaVuSans-5a" x="1123.681641"/>
      <use xlink:href="#DejaVuSans-6f" x="1192.1875"/>
      <use xlink:href="#DejaVuSans-72" x="1253.369141"/>
      <use xlink:href="#DejaVuSans-79" x="1294.482422"/>
      <use xlink:href="#DejaVuSans-61" x="1353.662109"/>
     </g>
    </g>
    <g id="patch_75">
     <path d="M 233.932891 62.985234 
L 246.932891 62.985234 
L 246.932891 58.435234 
L 233.932891 58.435234 
z
" style="fill: #98df8a"/>
    </g>
    <g id="text_39">
     <!-- Shedu;AbiD;dGTPase -->
     <g transform="translate(252.132891 62.985234) scale(0.065 -0.065)">
      <defs>
       <path id="DejaVuSans-53" d="M 3425 4513 
L 3425 3897 
Q 3066 4069 2747 4153 
Q 2428 4238 2131 4238 
Q 1616 4238 1336 4038 
Q 1056 3838 1056 3469 
Q 1056 3159 1242 3001 
Q 1428 2844 1947 2747 
L 2328 2669 
Q 3034 2534 3370 2195 
Q 3706 1856 3706 1288 
Q 3706 609 3251 259 
Q 2797 -91 1919 -91 
Q 1588 -91 1214 -16 
Q 841 59 441 206 
L 441 856 
Q 825 641 1194 531 
Q 1563 422 1919 422 
Q 2459 422 2753 634 
Q 3047 847 3047 1241 
Q 3047 1584 2836 1778 
Q 2625 1972 2144 2069 
L 1759 2144 
Q 1053 2284 737 2584 
Q 422 2884 422 3419 
Q 422 4038 858 4394 
Q 1294 4750 2059 4750 
Q 2388 4750 2728 4690 
Q 3069 4631 3425 4513 
z
" transform="scale(0.015625)"/>
       <path id="DejaVuSans-68" d="M 3513 2113 
L 3513 0 
L 2938 0 
L 2938 2094 
Q 2938 2591 2744 2837 
Q 2550 3084 2163 3084 
Q 1697 3084 1428 2787 
Q 1159 2491 1159 1978 
L 1159 0 
L 581 0 
L 581 4863 
L 1159 4863 
L 1159 2956 
Q 1366 3272 1645 3428 
Q 1925 3584 2291 3584 
Q 2894 3584 3203 3211 
Q 3513 2838 3513 2113 
z
" transform="scale(0.015625)"/>
       <path id="DejaVuSans-64" d="M 2906 2969 
L 2906 4863 
L 3481 4863 
L 3481 0 
L 2906 0 
L 2906 525 
Q 2725 213 2448 61 
Q 2172 -91 1784 -91 
Q 1150 -91 751 415 
Q 353 922 353 1747 
Q 353 2572 751 3078 
Q 1150 3584 1784 3584 
Q 2172 3584 2448 3432 
Q 2725 3281 2906 2969 
z
M 947 1747 
Q 947 1113 1208 752 
Q 1469 391 1925 391 
Q 2381 391 2643 752 
Q 2906 1113 2906 1747 
Q 2906 2381 2643 2742 
Q 2381 3103 1925 3103 
Q 1469 3103 1208 2742 
Q 947 2381 947 1747 
z
" transform="scale(0.015625)"/>
       <path id="DejaVuSans-50" d="M 1259 4147 
L 1259 2394 
L 2053 2394 
Q 2494 2394 2734 2622 
Q 2975 2850 2975 3272 
Q 2975 3691 2734 3919 
Q 2494 4147 2053 4147 
L 1259 4147 
z
M 628 4666 
L 2053 4666 
Q 2838 4666 3239 4311 
Q 3641 3956 3641 3272 
Q 3641 2581 3239 2228 
Q 2838 1875 2053 1875 
L 1259 1875 
L 1259 0 
L 628 0 
L 628 4666 
z
" transform="scale(0.015625)"/>
      </defs>
      <use xlink:href="#DejaVuSans-53"/>
      <use xlink:href="#DejaVuSans-68" x="63.476562"/>
      <use xlink:href="#DejaVuSans-65" x="126.855469"/>
      <use xlink:href="#DejaVuSans-64" x="188.378906"/>
      <use xlink:href="#DejaVuSans-75" x="251.855469"/>
      <use xlink:href="#DejaVuSans-3b" x="315.234375"/>
      <use xlink:href="#DejaVuSans-41" x="348.925781"/>
      <use xlink:href="#DejaVuSans-62" x="417.333984"/>
      <use xlink:href="#DejaVuSans-69" x="480.810547"/>
      <use xlink:href="#DejaVuSans-44" x="508.59375"/>
      <use xlink:href="#DejaVuSans-3b" x="585.595703"/>
      <use xlink:href="#DejaVuSans-64" x="619.287109"/>
      <use xlink:href="#DejaVuSans-47" x="682.763672"/>
      <use xlink:href="#DejaVuSans-54" x="756.628906"/>
      <use xlink:href="#DejaVuSans-50" x="817.712891"/>
      <use xlink:href="#DejaVuSans-61" x="873.515625"/>
      <use xlink:href="#DejaVuSans-73" x="934.794922"/>
      <use xlink:href="#DejaVuSans-65" x="986.894531"/>
     </g>
    </g>
    <g id="patch_76">
     <path d="M 233.932891 72.526016 
L 246.932891 72.526016 
L 246.932891 67.976016 
L 233.932891 67.976016 
z
" style="fill: #d62728"/>
    </g>
    <g id="text_40">
     <!-- BREX;Mokosh -->
     <g transform="translate(252.132891 72.526016) scale(0.065 -0.065)">
      <defs>
       <path id="DejaVuSans-42" d="M 1259 2228 
L 1259 519 
L 2272 519 
Q 2781 519 3026 730 
Q 3272 941 3272 1375 
Q 3272 1813 3026 2020 
Q 2781 2228 2272 2228 
L 1259 2228 
z
M 1259 4147 
L 1259 2741 
L 2194 2741 
Q 2656 2741 2882 2914 
Q 3109 3088 3109 3444 
Q 3109 3797 2882 3972 
Q 2656 4147 2194 4147 
L 1259 4147 
z
M 628 4666 
L 2241 4666 
Q 2963 4666 3353 4366 
Q 3744 4066 3744 3513 
Q 3744 3084 3544 2831 
Q 3344 2578 2956 2516 
Q 3422 2416 3680 2098 
Q 3938 1781 3938 1306 
Q 3938 681 3513 340 
Q 3088 0 2303 0 
L 628 0 
L 628 4666 
z
" transform="scale(0.015625)"/>
       <path id="DejaVuSans-58" d="M 403 4666 
L 1081 4666 
L 2241 2931 
L 3406 4666 
L 4084 4666 
L 2584 2425 
L 4184 0 
L 3506 0 
L 2194 1984 
L 872 0 
L 191 0 
L 1856 2491 
L 403 4666 
z
" transform="scale(0.015625)"/>
       <path id="DejaVuSans-6b" d="M 581 4863 
L 1159 4863 
L 1159 1991 
L 2875 3500 
L 3609 3500 
L 1753 1863 
L 3688 0 
L 2938 0 
L 1159 1709 
L 1159 0 
L 581 0 
L 581 4863 
z
" transform="scale(0.015625)"/>
      </defs>
      <use xlink:href="#DejaVuSans-42"/>
      <use xlink:href="#DejaVuSans-52" x="68.603516"/>
      <use xlink:href="#DejaVuSans-45" x="138.085938"/>
      <use xlink:href="#DejaVuSans-58" x="201.269531"/>
      <use xlink:href="#DejaVuSans-3b" x="269.775391"/>
      <use xlink:href="#DejaVuSans-4d" x="303.466797"/>
      <use xlink:href="#DejaVuSans-6f" x="389.746094"/>
      <use xlink:href="#DejaVuSans-6b" x="450.927734"/>
      <use xlink:href="#DejaVuSans-6f" x="505.212891"/>
      <use xlink:href="#DejaVuSans-73" x="566.394531"/>
      <use xlink:href="#DejaVuSans-68" x="618.494141"/>
     </g>
    </g>
    <g id="patch_77">
     <path d="M 233.932891 82.066797 
L 246.932891 82.066797 
L 246.932891 77.516797 
L 233.932891 77.516797 
z
" style="fill: #ff9896"/>
    </g>
    <g id="text_41">
     <!-- Gabija;AbiJ -->
     <g transform="translate(252.132891 82.066797) scale(0.065 -0.065)">
      <defs>
       <path id="DejaVuSans-6a" d="M 603 3500 
L 1178 3500 
L 1178 -63 
Q 1178 -731 923 -1031 
Q 669 -1331 103 -1331 
L -116 -1331 
L -116 -844 
L 38 -844 
Q 366 -844 484 -692 
Q 603 -541 603 -63 
L 603 3500 
z
M 603 4863 
L 1178 4863 
L 1178 4134 
L 603 4134 
L 603 4863 
z
" transform="scale(0.015625)"/>
       <path id="DejaVuSans-4a" d="M 628 4666 
L 1259 4666 
L 1259 325 
Q 1259 -519 939 -900 
Q 619 -1281 -91 -1281 
L -331 -1281 
L -331 -750 
L -134 -750 
Q 284 -750 456 -515 
Q 628 -281 628 325 
L 628 4666 
z
" transform="scale(0.015625)"/>
      </defs>
      <use xlink:href="#DejaVuSans-47"/>
      <use xlink:href="#DejaVuSans-61" x="77.490234"/>
      <use xlink:href="#DejaVuSans-62" x="138.769531"/>
      <use xlink:href="#DejaVuSans-69" x="202.246094"/>
      <use xlink:href="#DejaVuSans-6a" x="230.029297"/>
      <use xlink:href="#DejaVuSans-61" x="257.8125"/>
      <use xlink:href="#DejaVuSans-3b" x="319.091797"/>
      <use xlink:href="#DejaVuSans-41" x="352.783203"/>
      <use xlink:href="#DejaVuSans-62" x="421.191406"/>
      <use xlink:href="#DejaVuSans-69" x="484.667969"/>
      <use xlink:href="#DejaVuSans-4a" x="512.451172"/>
     </g>
    </g>
    <g id="patch_78">
     <path d="M 233.932891 91.607578 
L 246.932891 91.607578 
L 246.932891 87.057578 
L 233.932891 87.057578 
z
" style="fill: #9467bd"/>
    </g>
    <g id="text_42">
     <!-- RM_Type_II;RM_Type_IIG -->
     <g transform="translate(252.132891 91.607578) scale(0.065 -0.065)">
      <use xlink:href="#DejaVuSans-52"/>
      <use xlink:href="#DejaVuSans-4d" x="69.482422"/>
      <use xlink:href="#DejaVuSans-5f" x="155.761719"/>
      <use xlink:href="#DejaVuSans-54" x="205.761719"/>
      <use xlink:href="#DejaVuSans-79" x="251.220703"/>
      <use xlink:href="#DejaVuSans-70" x="310.400391"/>
      <use xlink:href="#DejaVuSans-65" x="373.876953"/>
      <use xlink:href="#DejaVuSans-5f" x="435.400391"/>
      <use xlink:href="#DejaVuSans-49" x="485.400391"/>
      <use xlink:href="#DejaVuSans-49" x="514.892578"/>
      <use xlink:href="#DejaVuSans-3b" x="544.384766"/>
      <use xlink:href="#DejaVuSans-52" x="578.076172"/>
      <use xlink:href="#DejaVuSans-4d" x="647.558594"/>
      <use xlink:href="#DejaVuSans-5f" x="733.837891"/>
      <use xlink:href="#DejaVuSans-54" x="783.837891"/>
      <use xlink:href="#DejaVuSans-79" x="829.296875"/>
      <use xlink:href="#DejaVuSans-70" x="888.476562"/>
      <use xlink:href="#DejaVuSans-65" x="951.953125"/>
      <use xlink:href="#DejaVuSans-5f" x="1013.476562"/>
      <use xlink:href="#DejaVuSans-49" x="1063.476562"/>
      <use xlink:href="#DejaVuSans-49" x="1092.96875"/>
      <use xlink:href="#DejaVuSans-47" x="1122.460938"/>
     </g>
    </g>
    <g id="patch_79">
     <path d="M 233.932891 101.329141 
L 246.932891 101.329141 
L 246.932891 96.779141 
L 233.932891 96.779141 
z
" style="fill: #c5b0d5"/>
    </g>
    <g id="text_43">
     <!-- Shedu;RM_Type_III -->
     <g transform="translate(252.132891 101.329141) scale(0.065 -0.065)">
      <use xlink:href="#DejaVuSans-53"/>
      <use xlink:href="#DejaVuSans-68" x="63.476562"/>
      <use xlink:href="#DejaVuSans-65" x="126.855469"/>
      <use xlink:href="#DejaVuSans-64" x="188.378906"/>
      <use xlink:href="#DejaVuSans-75" x="251.855469"/>
      <use xlink:href="#DejaVuSans-3b" x="315.234375"/>
      <use xlink:href="#DejaVuSans-52" x="348.925781"/>
      <use xlink:href="#DejaVuSans-4d" x="418.408203"/>
      <use xlink:href="#DejaVuSans-5f" x="504.6875"/>
      <use xlink:href="#DejaVuSans-54" x="554.6875"/>
      <use xlink:href="#DejaVuSans-79" x="600.146484"/>
      <use xlink:href="#DejaVuSans-70" x="659.326172"/>
      <use xlink:href="#DejaVuSans-65" x="722.802734"/>
      <use xlink:href="#DejaVuSans-5f" x="784.326172"/>
      <use xlink:href="#DejaVuSans-49" x="834.326172"/>
      <use xlink:href="#DejaVuSans-49" x="863.818359"/>
      <use xlink:href="#DejaVuSans-49" x="893.310547"/>
     </g>
    </g>
    <g id="patch_80">
     <path d="M 233.932891 111.050703 
L 246.932891 111.050703 
L 246.932891 106.500703 
L 233.932891 106.500703 
z
" style="fill: #8c564b"/>
    </g>
    <g id="text_44">
     <!-- Gabija;AbiE -->
     <g transform="translate(252.132891 111.050703) scale(0.065 -0.065)">
      <use xlink:href="#DejaVuSans-47"/>
      <use xlink:href="#DejaVuSans-61" x="77.490234"/>
      <use xlink:href="#DejaVuSans-62" x="138.769531"/>
      <use xlink:href="#DejaVuSans-69" x="202.246094"/>
      <use xlink:href="#DejaVuSans-6a" x="230.029297"/>
      <use xlink:href="#DejaVuSans-61" x="257.8125"/>
      <use xlink:href="#DejaVuSans-3b" x="319.091797"/>
      <use xlink:href="#DejaVuSans-41" x="352.783203"/>
      <use xlink:href="#DejaVuSans-62" x="421.191406"/>
      <use xlink:href="#DejaVuSans-69" x="484.667969"/>
      <use xlink:href="#DejaVuSans-45" x="512.451172"/>
     </g>
    </g>
    <g id="patch_81">
     <path d="M 233.932891 120.591484 
L 246.932891 120.591484 
L 246.932891 116.041484 
L 233.932891 116.041484 
z
" style="fill: #c49c94"/>
    </g>
    <g id="text_45">
     <!-- RM_Type_IV;Mokosh -->
     <g transform="translate(252.132891 120.591484) scale(0.065 -0.065)">
      <use xlink:href="#DejaVuSans-52"/>
      <use xlink:href="#DejaVuSans-4d" x="69.482422"/>
      <use xlink:href="#DejaVuSans-5f" x="155.761719"/>
      <use xlink:href="#DejaVuSans-54" x="205.761719"/>
      <use xlink:href="#DejaVuSans-79" x="251.220703"/>
      <use xlink:href="#DejaVuSans-70" x="310.400391"/>
      <use xlink:href="#DejaVuSans-65" x="373.876953"/>
      <use xlink:href="#DejaVuSans-5f" x="435.400391"/>
      <use xlink:href="#DejaVuSans-49" x="485.400391"/>
      <use xlink:href="#DejaVuSans-56" x="514.892578"/>
      <use xlink:href="#DejaVuSans-3b" x="583.300781"/>
      <use xlink:href="#DejaVuSans-4d" x="616.992188"/>
      <use xlink:href="#DejaVuSans-6f" x="703.271484"/>
      <use xlink:href="#DejaVuSans-6b" x="764.453125"/>
      <use xlink:href="#DejaVuSans-6f" x="818.738281"/>
      <use xlink:href="#DejaVuSans-73" x="879.919922"/>
      <use xlink:href="#DejaVuSans-68" x="932.019531"/>
     </g>
    </g>
    <g id="patch_82">
     <path d="M 233.932891 130.313047 
L 246.932891 130.313047 
L 246.932891 125.763047 
L 233.932891 125.763047 
z
" style="fill: #e377c2"/>
    </g>
    <g id="text_46">
     <!-- CBASS;RM_Type_I -->
     <g transform="translate(252.132891 130.313047) scale(0.065 -0.065)">
      <use xlink:href="#DejaVuSans-43"/>
      <use xlink:href="#DejaVuSans-42" x="69.824219"/>
      <use xlink:href="#DejaVuSans-41" x="138.427734"/>
      <use xlink:href="#DejaVuSans-53" x="206.835938"/>
      <use xlink:href="#DejaVuSans-53" x="270.3125"/>
      <use xlink:href="#DejaVuSans-3b" x="333.789062"/>
      <use xlink:href="#DejaVuSans-52" x="367.480469"/>
      <use xlink:href="#DejaVuSans-4d" x="436.962891"/>
      <use xlink:href="#DejaVuSans-5f" x="523.242188"/>
      <use xlink:href="#DejaVuSans-54" x="573.242188"/>
      <use xlink:href="#DejaVuSans-79" x="618.701172"/>
      <use xlink:href="#DejaVuSans-70" x="677.880859"/>
      <use xlink:href="#DejaVuSans-65" x="741.357422"/>
      <use xlink:href="#DejaVuSans-5f" x="802.880859"/>
      <use xlink:href="#DejaVuSans-49" x="852.880859"/>
     </g>
    </g>
    <g id="patch_83">
     <path d="M 233.932891 140.034609 
L 246.932891 140.034609 
L 246.932891 135.484609 
L 233.932891 135.484609 
z
" style="fill: #f7b6d2"/>
    </g>
    <g id="text_47">
     <!-- BREX;AbiEii;RM_Type_IIG -->
     <g transform="translate(252.132891 140.034609) scale(0.065 -0.065)">
      <use xlink:href="#DejaVuSans-42"/>
      <use xlink:href="#DejaVuSans-52" x="68.603516"/>
      <use xlink:href="#DejaVuSans-45" x="138.085938"/>
      <use xlink:href="#DejaVuSans-58" x="201.269531"/>
      <use xlink:href="#DejaVuSans-3b" x="269.775391"/>
      <use xlink:href="#DejaVuSans-41" x="303.466797"/>
      <use xlink:href="#DejaVuSans-62" x="371.875"/>
      <use xlink:href="#DejaVuSans-69" x="435.351562"/>
      <use xlink:href="#DejaVuSans-45" x="463.134766"/>
      <use xlink:href="#DejaVuSans-69" x="526.318359"/>
      <use xlink:href="#DejaVuSans-69" x="554.101562"/>
      <use xlink:href="#DejaVuSans-3b" x="581.884766"/>
      <use xlink:href="#DejaVuSans-52" x="615.576172"/>
      <use xlink:href="#DejaVuSans-4d" x="685.058594"/>
      <use xlink:href="#DejaVuSans-5f" x="771.337891"/>
      <use xlink:href="#DejaVuSans-54" x="821.337891"/>
      <use xlink:href="#DejaVuSans-79" x="866.796875"/>
      <use xlink:href="#DejaVuSans-70" x="925.976562"/>
      <use xlink:href="#DejaVuSans-65" x="989.453125"/>
      <use xlink:href="#DejaVuSans-5f" x="1050.976562"/>
      <use xlink:href="#DejaVuSans-49" x="1100.976562"/>
      <use xlink:href="#DejaVuSans-49" x="1130.46875"/>
      <use xlink:href="#DejaVuSans-47" x="1159.960938"/>
     </g>
    </g>
    <g id="patch_84">
     <path d="M 233.932891 149.756172 
L 246.932891 149.756172 
L 246.932891 145.206172 
L 233.932891 145.206172 
z
" style="fill: #7f7f7f"/>
    </g>
    <g id="text_48">
     <!-- CBASS;BREX -->
     <g transform="translate(252.132891 149.756172) scale(0.065 -0.065)">
      <use xlink:href="#DejaVuSans-43"/>
      <use xlink:href="#DejaVuSans-42" x="69.824219"/>
      <use xlink:href="#DejaVuSans-41" x="138.427734"/>
      <use xlink:href="#DejaVuSans-53" x="206.835938"/>
      <use xlink:href="#DejaVuSans-53" x="270.3125"/>
      <use xlink:href="#DejaVuSans-3b" x="333.789062"/>
      <use xlink:href="#DejaVuSans-42" x="367.480469"/>
      <use xlink:href="#DejaVuSans-52" x="436.083984"/>
      <use xlink:href="#DejaVuSans-45" x="505.566406"/>
      <use xlink:href="#DejaVuSans-58" x="568.75"/>
     </g>
    </g>
    <g id="patch_85">
     <path d="M 233.932891 159.296953 
L 246.932891 159.296953 
L 246.932891 154.746953 
L 233.932891 154.746953 
z
" style="fill: #c7c7c7"/>
    </g>
    <g id="text_49">
     <!-- BREX;AbiE;AbiJ -->
     <g transform="translate(252.132891 159.296953) scale(0.065 -0.065)">
      <use xlink:href="#DejaVuSans-42"/>
      <use xlink:href="#DejaVuSans-52" x="68.603516"/>
      <use xlink:href="#DejaVuSans-45" x="138.085938"/>
      <use xlink:href="#DejaVuSans-58" x="201.269531"/>
      <use xlink:href="#DejaVuSans-3b" x="269.775391"/>
      <use xlink:href="#DejaVuSans-41" x="303.466797"/>
      <use xlink:href="#DejaVuSans-62" x="371.875"/>
      <use xlink:href="#DejaVuSans-69" x="435.351562"/>
      <use xlink:href="#DejaVuSans-45" x="463.134766"/>
      <use xlink:href="#DejaVuSans-3b" x="526.318359"/>
      <use xlink:href="#DejaVuSans-41" x="560.009766"/>
      <use xlink:href="#DejaVuSans-62" x="628.417969"/>
      <use xlink:href="#DejaVuSans-69" x="691.894531"/>
      <use xlink:href="#DejaVuSans-4a" x="719.677734"/>
     </g>
    </g>
   </g>
  </g>
 </g>
 <defs>
  <clipPath id="p9f6a690452">
   <rect x="32.782891" y="25.261458" width="195.3" height="119.925834"/>
  </clipPath>
 </defs>
</svg>
