<?xml version="1.0" encoding="utf-8" standalone="no"?>
<!DOCTYPE svg PUBLIC "-//W3C//DTD SVG 1.1//EN"
  "http://www.w3.org/Graphics/SVG/1.1/DTD/svg11.dtd">
<svg xmlns:xlink="http://www.w3.org/1999/xlink" width="235.435121pt" height="150.151999pt" viewBox="0 0 235.435121 150.151999" xmlns="http://www.w3.org/2000/svg" version="1.1">
 <metadata>
  <rdf:RDF xmlns:dc="http://purl.org/dc/elements/1.1/" xmlns:cc="http://creativecommons.org/ns#" xmlns:rdf="http://www.w3.org/1999/02/22-rdf-syntax-ns#">
   <cc:Work>
    <dc:type rdf:resource="http://purl.org/dc/dcmitype/StillImage"/>
    <dc:date>2023-06-14T20:26:09.138033</dc:date>
    <dc:format>image/svg+xml</dc:format>
    <dc:creator>
     <cc:Agent>
      <dc:title>Matplotlib v3.7.1, https://matplotlib.org/</dc:title>
     </cc:Agent>
    </dc:creator>
   </cc:Work>
  </rdf:RDF>
 </metadata>
 <defs>
  <style type="text/css">*{stroke-linejoin: round; stroke-linecap: butt}</style>
 </defs>
 <g id="figure_1">
  <g id="patch_1">
   <path d="M 0 150.151999 
L 235.435121 150.151999 
L 235.435121 0 
L 0 0 
L 0 150.151999 
z
" style="fill: none"/>
  </g>
  <g id="axes_1">
   <g id="patch_2">
    <path d="M 44.095121 89.023879 
L 228.235121 89.023879 
L 228.235121 9.479531 
L 44.095121 9.479531 
L 44.095121 89.023879 
z
" style="fill: none"/>
   </g>
   <g id="matplotlib.axis_1">
    <g id="xtick_1">
     <g id="line2d_1">
      <defs>
       <path id="m3d8a5a1aee" d="M 0 0 
L 0 3.5 
" style="stroke: #000000; stroke-width: 0.8"/>
      </defs>
      <g>
       <use xlink:href="#m3d8a5a1aee" x="55.603871" y="89.023879" style="stroke: #000000; stroke-width: 0.8"/>
      </g>
     </g>
     <g id="text_1">
      <!-- Bacteroidota (33) -->
      <g transform="translate(9.479531 126.241831) rotate(-30) scale(0.06 -0.06)">
       <defs>
        <path id="DejaVuSans-42" d="M 1259 2228 
L 1259 519 
L 2272 519 
Q 2781 519 3026 730 
Q 3272 941 3272 1375 
Q 3272 1813 3026 2020 
Q 2781 2228 2272 2228 
L 1259 2228 
z
M 1259 4147 
L 1259 2741 
L 2194 2741 
Q 2656 2741 2882 2914 
Q 3109 3088 3109 3444 
Q 3109 3797 2882 3972 
Q 2656 4147 2194 4147 
L 1259 4147 
z
M 628 4666 
L 2241 4666 
Q 2963 4666 3353 4366 
Q 3744 4066 3744 3513 
Q 3744 3084 3544 2831 
Q 3344 2578 2956 2516 
Q 3422 2416 3680 2098 
Q 3938 1781 3938 1306 
Q 3938 681 3513 340 
Q 3088 0 2303 0 
L 628 0 
L 628 4666 
z
" transform="scale(0.015625)"/>
        <path id="DejaVuSans-61" d="M 2194 1759 
Q 1497 1759 1228 1600 
Q 959 1441 959 1056 
Q 959 750 1161 570 
Q 1363 391 1709 391 
Q 2188 391 2477 730 
Q 2766 1069 2766 1631 
L 2766 1759 
L 2194 1759 
z
M 3341 1997 
L 3341 0 
L 2766 0 
L 2766 531 
Q 2569 213 2275 61 
Q 1981 -91 1556 -91 
Q 1019 -91 701 211 
Q 384 513 384 1019 
Q 384 1609 779 1909 
Q 1175 2209 1959 2209 
L 2766 2209 
L 2766 2266 
Q 2766 2663 2505 2880 
Q 2244 3097 1772 3097 
Q 1472 3097 1187 3025 
Q 903 2953 641 2809 
L 641 3341 
Q 956 3463 1253 3523 
Q 1550 3584 1831 3584 
Q 2591 3584 2966 3190 
Q 3341 2797 3341 1997 
z
" transform="scale(0.015625)"/>
        <path id="DejaVuSans-63" d="M 3122 3366 
L 3122 2828 
Q 2878 2963 2633 3030 
Q 2388 3097 2138 3097 
Q 1578 3097 1268 2742 
Q 959 2388 959 1747 
Q 959 1106 1268 751 
Q 1578 397 2138 397 
Q 2388 397 2633 464 
Q 2878 531 3122 666 
L 3122 134 
Q 2881 22 2623 -34 
Q 2366 -91 2075 -91 
Q 1284 -91 818 406 
Q 353 903 353 1747 
Q 353 2603 823 3093 
Q 1294 3584 2113 3584 
Q 2378 3584 2631 3529 
Q 2884 3475 3122 3366 
z
" transform="scale(0.015625)"/>
        <path id="DejaVuSans-74" d="M 1172 4494 
L 1172 3500 
L 2356 3500 
L 2356 3053 
L 1172 3053 
L 1172 1153 
Q 1172 725 1289 603 
Q 1406 481 1766 481 
L 2356 481 
L 2356 0 
L 1766 0 
Q 1100 0 847 248 
Q 594 497 594 1153 
L 594 3053 
L 172 3053 
L 172 3500 
L 594 3500 
L 594 4494 
L 1172 4494 
z
" transform="scale(0.015625)"/>
        <path id="DejaVuSans-65" d="M 3597 1894 
L 3597 1613 
L 953 1613 
Q 991 1019 1311 708 
Q 1631 397 2203 397 
Q 2534 397 2845 478 
Q 3156 559 3463 722 
L 3463 178 
Q 3153 47 2828 -22 
Q 2503 -91 2169 -91 
Q 1331 -91 842 396 
Q 353 884 353 1716 
Q 353 2575 817 3079 
Q 1281 3584 2069 3584 
Q 2775 3584 3186 3129 
Q 3597 2675 3597 1894 
z
M 3022 2063 
Q 3016 2534 2758 2815 
Q 2500 3097 2075 3097 
Q 1594 3097 1305 2825 
Q 1016 2553 972 2059 
L 3022 2063 
z
" transform="scale(0.015625)"/>
        <path id="DejaVuSans-72" d="M 2631 2963 
Q 2534 3019 2420 3045 
Q 2306 3072 2169 3072 
Q 1681 3072 1420 2755 
Q 1159 2438 1159 1844 
L 1159 0 
L 581 0 
L 581 3500 
L 1159 3500 
L 1159 2956 
Q 1341 3275 1631 3429 
Q 1922 3584 2338 3584 
Q 2397 3584 2469 3576 
Q 2541 3569 2628 3553 
L 2631 2963 
z
" transform="scale(0.015625)"/>
        <path id="DejaVuSans-6f" d="M 1959 3097 
Q 1497 3097 1228 2736 
Q 959 2375 959 1747 
Q 959 1119 1226 758 
Q 1494 397 1959 397 
Q 2419 397 2687 759 
Q 2956 1122 2956 1747 
Q 2956 2369 2687 2733 
Q 2419 3097 1959 3097 
z
M 1959 3584 
Q 2709 3584 3137 3096 
Q 3566 2609 3566 1747 
Q 3566 888 3137 398 
Q 2709 -91 1959 -91 
Q 1206 -91 779 398 
Q 353 888 353 1747 
Q 353 2609 779 3096 
Q 1206 3584 1959 3584 
z
" transform="scale(0.015625)"/>
        <path id="DejaVuSans-69" d="M 603 3500 
L 1178 3500 
L 1178 0 
L 603 0 
L 603 3500 
z
M 603 4863 
L 1178 4863 
L 1178 4134 
L 603 4134 
L 603 4863 
z
" transform="scale(0.015625)"/>
        <path id="DejaVuSans-64" d="M 2906 2969 
L 2906 4863 
L 3481 4863 
L 3481 0 
L 2906 0 
L 2906 525 
Q 2725 213 2448 61 
Q 2172 -91 1784 -91 
Q 1150 -91 751 415 
Q 353 922 353 1747 
Q 353 2572 751 3078 
Q 1150 3584 1784 3584 
Q 2172 3584 2448 3432 
Q 2725 3281 2906 2969 
z
M 947 1747 
Q 947 1113 1208 752 
Q 1469 391 1925 391 
Q 2381 391 2643 752 
Q 2906 1113 2906 1747 
Q 2906 2381 2643 2742 
Q 2381 3103 1925 3103 
Q 1469 3103 1208 2742 
Q 947 2381 947 1747 
z
" transform="scale(0.015625)"/>
        <path id="DejaVuSans-20" transform="scale(0.015625)"/>
        <path id="DejaVuSans-28" d="M 1984 4856 
Q 1566 4138 1362 3434 
Q 1159 2731 1159 2009 
Q 1159 1288 1364 580 
Q 1569 -128 1984 -844 
L 1484 -844 
Q 1016 -109 783 600 
Q 550 1309 550 2009 
Q 550 2706 781 3412 
Q 1013 4119 1484 4856 
L 1984 4856 
z
" transform="scale(0.015625)"/>
        <path id="DejaVuSans-33" d="M 2597 2516 
Q 3050 2419 3304 2112 
Q 3559 1806 3559 1356 
Q 3559 666 3084 287 
Q 2609 -91 1734 -91 
Q 1441 -91 1130 -33 
Q 819 25 488 141 
L 488 750 
Q 750 597 1062 519 
Q 1375 441 1716 441 
Q 2309 441 2620 675 
Q 2931 909 2931 1356 
Q 2931 1769 2642 2001 
Q 2353 2234 1838 2234 
L 1294 2234 
L 1294 2753 
L 1863 2753 
Q 2328 2753 2575 2939 
Q 2822 3125 2822 3475 
Q 2822 3834 2567 4026 
Q 2313 4219 1838 4219 
Q 1578 4219 1281 4162 
Q 984 4106 628 3988 
L 628 4550 
Q 988 4650 1302 4700 
Q 1616 4750 1894 4750 
Q 2613 4750 3031 4423 
Q 3450 4097 3450 3541 
Q 3450 3153 3228 2886 
Q 3006 2619 2597 2516 
z
" transform="scale(0.015625)"/>
        <path id="DejaVuSans-29" d="M 513 4856 
L 1013 4856 
Q 1481 4119 1714 3412 
Q 1947 2706 1947 2009 
Q 1947 1309 1714 600 
Q 1481 -109 1013 -844 
L 513 -844 
Q 928 -128 1133 580 
Q 1338 1288 1338 2009 
Q 1338 2731 1133 3434 
Q 928 4138 513 4856 
z
" transform="scale(0.015625)"/>
       </defs>
       <use xlink:href="#DejaVuSans-42"/>
       <use xlink:href="#DejaVuSans-61" x="68.603516"/>
       <use xlink:href="#DejaVuSans-63" x="129.882812"/>
       <use xlink:href="#DejaVuSans-74" x="184.863281"/>
       <use xlink:href="#DejaVuSans-65" x="224.072266"/>
       <use xlink:href="#DejaVuSans-72" x="285.595703"/>
       <use xlink:href="#DejaVuSans-6f" x="324.458984"/>
       <use xlink:href="#DejaVuSans-69" x="385.640625"/>
       <use xlink:href="#DejaVuSans-64" x="413.423828"/>
       <use xlink:href="#DejaVuSans-6f" x="476.900391"/>
       <use xlink:href="#DejaVuSans-74" x="538.082031"/>
       <use xlink:href="#DejaVuSans-61" x="577.291016"/>
       <use xlink:href="#DejaVuSans-20" x="638.570312"/>
       <use xlink:href="#DejaVuSans-28" x="670.357422"/>
       <use xlink:href="#DejaVuSans-33" x="709.371094"/>
       <use xlink:href="#DejaVuSans-33" x="772.994141"/>
       <use xlink:href="#DejaVuSans-29" x="836.617188"/>
      </g>
     </g>
    </g>
    <g id="xtick_2">
     <g id="line2d_2">
      <g>
       <use xlink:href="#m3d8a5a1aee" x="78.621371" y="89.023879" style="stroke: #000000; stroke-width: 0.8"/>
      </g>
     </g>
     <g id="text_2">
      <!-- Actinomycetota (4) -->
      <g transform="translate(28.082737 128.790424) rotate(-30) scale(0.06 -0.06)">
       <defs>
        <path id="DejaVuSans-41" d="M 2188 4044 
L 1331 1722 
L 3047 1722 
L 2188 4044 
z
M 1831 4666 
L 2547 4666 
L 4325 0 
L 3669 0 
L 3244 1197 
L 1141 1197 
L 716 0 
L 50 0 
L 1831 4666 
z
" transform="scale(0.015625)"/>
        <path id="DejaVuSans-6e" d="M 3513 2113 
L 3513 0 
L 2938 0 
L 2938 2094 
Q 2938 2591 2744 2837 
Q 2550 3084 2163 3084 
Q 1697 3084 1428 2787 
Q 1159 2491 1159 1978 
L 1159 0 
L 581 0 
L 581 3500 
L 1159 3500 
L 1159 2956 
Q 1366 3272 1645 3428 
Q 1925 3584 2291 3584 
Q 2894 3584 3203 3211 
Q 3513 2838 3513 2113 
z
" transform="scale(0.015625)"/>
        <path id="DejaVuSans-6d" d="M 3328 2828 
Q 3544 3216 3844 3400 
Q 4144 3584 4550 3584 
Q 5097 3584 5394 3201 
Q 5691 2819 5691 2113 
L 5691 0 
L 5113 0 
L 5113 2094 
Q 5113 2597 4934 2840 
Q 4756 3084 4391 3084 
Q 3944 3084 3684 2787 
Q 3425 2491 3425 1978 
L 3425 0 
L 2847 0 
L 2847 2094 
Q 2847 2600 2669 2842 
Q 2491 3084 2119 3084 
Q 1678 3084 1418 2786 
Q 1159 2488 1159 1978 
L 1159 0 
L 581 0 
L 581 3500 
L 1159 3500 
L 1159 2956 
Q 1356 3278 1631 3431 
Q 1906 3584 2284 3584 
Q 2666 3584 2933 3390 
Q 3200 3197 3328 2828 
z
" transform="scale(0.015625)"/>
        <path id="DejaVuSans-79" d="M 2059 -325 
Q 1816 -950 1584 -1140 
Q 1353 -1331 966 -1331 
L 506 -1331 
L 506 -850 
L 844 -850 
Q 1081 -850 1212 -737 
Q 1344 -625 1503 -206 
L 1606 56 
L 191 3500 
L 800 3500 
L 1894 763 
L 2988 3500 
L 3597 3500 
L 2059 -325 
z
" transform="scale(0.015625)"/>
        <path id="DejaVuSans-34" d="M 2419 4116 
L 825 1625 
L 2419 1625 
L 2419 4116 
z
M 2253 4666 
L 3047 4666 
L 3047 1625 
L 3713 1625 
L 3713 1100 
L 3047 1100 
L 3047 0 
L 2419 0 
L 2419 1100 
L 313 1100 
L 313 1709 
L 2253 4666 
z
" transform="scale(0.015625)"/>
       </defs>
       <use xlink:href="#DejaVuSans-41"/>
       <use xlink:href="#DejaVuSans-63" x="66.658203"/>
       <use xlink:href="#DejaVuSans-74" x="121.638672"/>
       <use xlink:href="#DejaVuSans-69" x="160.847656"/>
       <use xlink:href="#DejaVuSans-6e" x="188.630859"/>
       <use xlink:href="#DejaVuSans-6f" x="252.009766"/>
       <use xlink:href="#DejaVuSans-6d" x="313.191406"/>
       <use xlink:href="#DejaVuSans-79" x="410.603516"/>
       <use xlink:href="#DejaVuSans-63" x="469.783203"/>
       <use xlink:href="#DejaVuSans-65" x="524.763672"/>
       <use xlink:href="#DejaVuSans-74" x="586.287109"/>
       <use xlink:href="#DejaVuSans-6f" x="625.496094"/>
       <use xlink:href="#DejaVuSans-74" x="686.677734"/>
       <use xlink:href="#DejaVuSans-61" x="725.886719"/>
       <use xlink:href="#DejaVuSans-20" x="787.166016"/>
       <use xlink:href="#DejaVuSans-28" x="818.953125"/>
       <use xlink:href="#DejaVuSans-34" x="857.966797"/>
       <use xlink:href="#DejaVuSans-29" x="921.589844"/>
      </g>
     </g>
    </g>
    <g id="xtick_3">
     <g id="line2d_3">
      <g>
       <use xlink:href="#m3d8a5a1aee" x="101.638871" y="89.023879" style="stroke: #000000; stroke-width: 0.8"/>
      </g>
     </g>
     <g id="text_3">
      <!-- Bacillota (263) -->
      <g transform="translate(63.053012 121.889487) rotate(-30) scale(0.06 -0.06)">
       <defs>
        <path id="DejaVuSans-6c" d="M 603 4863 
L 1178 4863 
L 1178 0 
L 603 0 
L 603 4863 
z
" transform="scale(0.015625)"/>
        <path id="DejaVuSans-32" d="M 1228 531 
L 3431 531 
L 3431 0 
L 469 0 
L 469 531 
Q 828 903 1448 1529 
Q 2069 2156 2228 2338 
Q 2531 2678 2651 2914 
Q 2772 3150 2772 3378 
Q 2772 3750 2511 3984 
Q 2250 4219 1831 4219 
Q 1534 4219 1204 4116 
Q 875 4013 500 3803 
L 500 4441 
Q 881 4594 1212 4672 
Q 1544 4750 1819 4750 
Q 2544 4750 2975 4387 
Q 3406 4025 3406 3419 
Q 3406 3131 3298 2873 
Q 3191 2616 2906 2266 
Q 2828 2175 2409 1742 
Q 1991 1309 1228 531 
z
" transform="scale(0.015625)"/>
        <path id="DejaVuSans-36" d="M 2113 2584 
Q 1688 2584 1439 2293 
Q 1191 2003 1191 1497 
Q 1191 994 1439 701 
Q 1688 409 2113 409 
Q 2538 409 2786 701 
Q 3034 994 3034 1497 
Q 3034 2003 2786 2293 
Q 2538 2584 2113 2584 
z
M 3366 4563 
L 3366 3988 
Q 3128 4100 2886 4159 
Q 2644 4219 2406 4219 
Q 1781 4219 1451 3797 
Q 1122 3375 1075 2522 
Q 1259 2794 1537 2939 
Q 1816 3084 2150 3084 
Q 2853 3084 3261 2657 
Q 3669 2231 3669 1497 
Q 3669 778 3244 343 
Q 2819 -91 2113 -91 
Q 1303 -91 875 529 
Q 447 1150 447 2328 
Q 447 3434 972 4092 
Q 1497 4750 2381 4750 
Q 2619 4750 2861 4703 
Q 3103 4656 3366 4563 
z
" transform="scale(0.015625)"/>
       </defs>
       <use xlink:href="#DejaVuSans-42"/>
       <use xlink:href="#DejaVuSans-61" x="68.603516"/>
       <use xlink:href="#DejaVuSans-63" x="129.882812"/>
       <use xlink:href="#DejaVuSans-69" x="184.863281"/>
       <use xlink:href="#DejaVuSans-6c" x="212.646484"/>
       <use xlink:href="#DejaVuSans-6c" x="240.429688"/>
       <use xlink:href="#DejaVuSans-6f" x="268.212891"/>
       <use xlink:href="#DejaVuSans-74" x="329.394531"/>
       <use xlink:href="#DejaVuSans-61" x="368.603516"/>
       <use xlink:href="#DejaVuSans-20" x="429.882812"/>
       <use xlink:href="#DejaVuSans-28" x="461.669922"/>
       <use xlink:href="#DejaVuSans-32" x="500.683594"/>
       <use xlink:href="#DejaVuSans-36" x="564.306641"/>
       <use xlink:href="#DejaVuSans-33" x="627.929688"/>
       <use xlink:href="#DejaVuSans-29" x="691.552734"/>
      </g>
     </g>
    </g>
    <g id="xtick_4">
     <g id="line2d_4">
      <g>
       <use xlink:href="#m3d8a5a1aee" x="124.656371" y="89.023879" style="stroke: #000000; stroke-width: 0.8"/>
      </g>
     </g>
     <g id="text_4">
      <!-- Enterobacterales γp. (55) -->
      <g transform="translate(57.785581 138.219799) rotate(-30) scale(0.06 -0.06)">
       <defs>
        <path id="DejaVuSans-45" d="M 628 4666 
L 3578 4666 
L 3578 4134 
L 1259 4134 
L 1259 2753 
L 3481 2753 
L 3481 2222 
L 1259 2222 
L 1259 531 
L 3634 531 
L 3634 0 
L 628 0 
L 628 4666 
z
" transform="scale(0.015625)"/>
        <path id="DejaVuSans-62" d="M 3116 1747 
Q 3116 2381 2855 2742 
Q 2594 3103 2138 3103 
Q 1681 3103 1420 2742 
Q 1159 2381 1159 1747 
Q 1159 1113 1420 752 
Q 1681 391 2138 391 
Q 2594 391 2855 752 
Q 3116 1113 3116 1747 
z
M 1159 2969 
Q 1341 3281 1617 3432 
Q 1894 3584 2278 3584 
Q 2916 3584 3314 3078 
Q 3713 2572 3713 1747 
Q 3713 922 3314 415 
Q 2916 -91 2278 -91 
Q 1894 -91 1617 61 
Q 1341 213 1159 525 
L 1159 0 
L 581 0 
L 581 4863 
L 1159 4863 
L 1159 2969 
z
" transform="scale(0.015625)"/>
        <path id="DejaVuSans-73" d="M 2834 3397 
L 2834 2853 
Q 2591 2978 2328 3040 
Q 2066 3103 1784 3103 
Q 1356 3103 1142 2972 
Q 928 2841 928 2578 
Q 928 2378 1081 2264 
Q 1234 2150 1697 2047 
L 1894 2003 
Q 2506 1872 2764 1633 
Q 3022 1394 3022 966 
Q 3022 478 2636 193 
Q 2250 -91 1575 -91 
Q 1294 -91 989 -36 
Q 684 19 347 128 
L 347 722 
Q 666 556 975 473 
Q 1284 391 1588 391 
Q 1994 391 2212 530 
Q 2431 669 2431 922 
Q 2431 1156 2273 1281 
Q 2116 1406 1581 1522 
L 1381 1569 
Q 847 1681 609 1914 
Q 372 2147 372 2553 
Q 372 3047 722 3315 
Q 1072 3584 1716 3584 
Q 2034 3584 2315 3537 
Q 2597 3491 2834 3397 
z
" transform="scale(0.015625)"/>
        <path id="DejaVuSans-3b3" d="M 1128 2950 
L 1894 788 
L 2988 3500 
L 3597 3500 
L 2181 0 
L 2181 -1331 
L 1606 -1331 
L 1606 0 
L 688 2613 
Q 550 3006 253 3006 
L 100 3006 
L 100 3500 
L 319 3500 
Q 934 3500 1128 2950 
z
" transform="scale(0.015625)"/>
        <path id="DejaVuSans-70" d="M 1159 525 
L 1159 -1331 
L 581 -1331 
L 581 3500 
L 1159 3500 
L 1159 2969 
Q 1341 3281 1617 3432 
Q 1894 3584 2278 3584 
Q 2916 3584 3314 3078 
Q 3713 2572 3713 1747 
Q 3713 922 3314 415 
Q 2916 -91 2278 -91 
Q 1894 -91 1617 61 
Q 1341 213 1159 525 
z
M 3116 1747 
Q 3116 2381 2855 2742 
Q 2594 3103 2138 3103 
Q 1681 3103 1420 2742 
Q 1159 2381 1159 1747 
Q 1159 1113 1420 752 
Q 1681 391 2138 391 
Q 2594 391 2855 752 
Q 3116 1113 3116 1747 
z
" transform="scale(0.015625)"/>
        <path id="DejaVuSans-2e" d="M 684 794 
L 1344 794 
L 1344 0 
L 684 0 
L 684 794 
z
" transform="scale(0.015625)"/>
        <path id="DejaVuSans-35" d="M 691 4666 
L 3169 4666 
L 3169 4134 
L 1269 4134 
L 1269 2991 
Q 1406 3038 1543 3061 
Q 1681 3084 1819 3084 
Q 2600 3084 3056 2656 
Q 3513 2228 3513 1497 
Q 3513 744 3044 326 
Q 2575 -91 1722 -91 
Q 1428 -91 1123 -41 
Q 819 9 494 109 
L 494 744 
Q 775 591 1075 516 
Q 1375 441 1709 441 
Q 2250 441 2565 725 
Q 2881 1009 2881 1497 
Q 2881 1984 2565 2268 
Q 2250 2553 1709 2553 
Q 1456 2553 1204 2497 
Q 953 2441 691 2322 
L 691 4666 
z
" transform="scale(0.015625)"/>
       </defs>
       <use xlink:href="#DejaVuSans-45"/>
       <use xlink:href="#DejaVuSans-6e" x="63.183594"/>
       <use xlink:href="#DejaVuSans-74" x="126.5625"/>
       <use xlink:href="#DejaVuSans-65" x="165.771484"/>
       <use xlink:href="#DejaVuSans-72" x="227.294922"/>
       <use xlink:href="#DejaVuSans-6f" x="266.158203"/>
       <use xlink:href="#DejaVuSans-62" x="327.339844"/>
       <use xlink:href="#DejaVuSans-61" x="390.816406"/>
       <use xlink:href="#DejaVuSans-63" x="452.095703"/>
       <use xlink:href="#DejaVuSans-74" x="507.076172"/>
       <use xlink:href="#DejaVuSans-65" x="546.285156"/>
       <use xlink:href="#DejaVuSans-72" x="607.808594"/>
       <use xlink:href="#DejaVuSans-61" x="648.921875"/>
       <use xlink:href="#DejaVuSans-6c" x="710.201172"/>
       <use xlink:href="#DejaVuSans-65" x="737.984375"/>
       <use xlink:href="#DejaVuSans-73" x="799.507812"/>
       <use xlink:href="#DejaVuSans-20" x="851.607422"/>
       <use xlink:href="#DejaVuSans-3b3" x="883.394531"/>
       <use xlink:href="#DejaVuSans-70" x="942.574219"/>
       <use xlink:href="#DejaVuSans-2e" x="1006.050781"/>
       <use xlink:href="#DejaVuSans-20" x="1037.837891"/>
       <use xlink:href="#DejaVuSans-28" x="1069.625"/>
       <use xlink:href="#DejaVuSans-35" x="1108.638672"/>
       <use xlink:href="#DejaVuSans-35" x="1172.261719"/>
       <use xlink:href="#DejaVuSans-29" x="1235.884766"/>
      </g>
     </g>
    </g>
    <g id="xtick_5">
     <g id="line2d_5">
      <g>
       <use xlink:href="#m3d8a5a1aee" x="147.673871" y="89.023879" style="stroke: #000000; stroke-width: 0.8"/>
      </g>
     </g>
     <g id="text_5">
      <!-- Pseudomonadales γp. (29) -->
      <g transform="translate(77.7885 139.960268) rotate(-30) scale(0.06 -0.06)">
       <defs>
        <path id="DejaVuSans-50" d="M 1259 4147 
L 1259 2394 
L 2053 2394 
Q 2494 2394 2734 2622 
Q 2975 2850 2975 3272 
Q 2975 3691 2734 3919 
Q 2494 4147 2053 4147 
L 1259 4147 
z
M 628 4666 
L 2053 4666 
Q 2838 4666 3239 4311 
Q 3641 3956 3641 3272 
Q 3641 2581 3239 2228 
Q 2838 1875 2053 1875 
L 1259 1875 
L 1259 0 
L 628 0 
L 628 4666 
z
" transform="scale(0.015625)"/>
        <path id="DejaVuSans-75" d="M 544 1381 
L 544 3500 
L 1119 3500 
L 1119 1403 
Q 1119 906 1312 657 
Q 1506 409 1894 409 
Q 2359 409 2629 706 
Q 2900 1003 2900 1516 
L 2900 3500 
L 3475 3500 
L 3475 0 
L 2900 0 
L 2900 538 
Q 2691 219 2414 64 
Q 2138 -91 1772 -91 
Q 1169 -91 856 284 
Q 544 659 544 1381 
z
M 1991 3584 
L 1991 3584 
z
" transform="scale(0.015625)"/>
        <path id="DejaVuSans-39" d="M 703 97 
L 703 672 
Q 941 559 1184 500 
Q 1428 441 1663 441 
Q 2288 441 2617 861 
Q 2947 1281 2994 2138 
Q 2813 1869 2534 1725 
Q 2256 1581 1919 1581 
Q 1219 1581 811 2004 
Q 403 2428 403 3163 
Q 403 3881 828 4315 
Q 1253 4750 1959 4750 
Q 2769 4750 3195 4129 
Q 3622 3509 3622 2328 
Q 3622 1225 3098 567 
Q 2575 -91 1691 -91 
Q 1453 -91 1209 -44 
Q 966 3 703 97 
z
M 1959 2075 
Q 2384 2075 2632 2365 
Q 2881 2656 2881 3163 
Q 2881 3666 2632 3958 
Q 2384 4250 1959 4250 
Q 1534 4250 1286 3958 
Q 1038 3666 1038 3163 
Q 1038 2656 1286 2365 
Q 1534 2075 1959 2075 
z
" transform="scale(0.015625)"/>
       </defs>
       <use xlink:href="#DejaVuSans-50"/>
       <use xlink:href="#DejaVuSans-73" x="58.552734"/>
       <use xlink:href="#DejaVuSans-65" x="110.652344"/>
       <use xlink:href="#DejaVuSans-75" x="172.175781"/>
       <use xlink:href="#DejaVuSans-64" x="235.554688"/>
       <use xlink:href="#DejaVuSans-6f" x="299.03125"/>
       <use xlink:href="#DejaVuSans-6d" x="360.212891"/>
       <use xlink:href="#DejaVuSans-6f" x="457.625"/>
       <use xlink:href="#DejaVuSans-6e" x="518.806641"/>
       <use xlink:href="#DejaVuSans-61" x="582.185547"/>
       <use xlink:href="#DejaVuSans-64" x="643.464844"/>
       <use xlink:href="#DejaVuSans-61" x="706.941406"/>
       <use xlink:href="#DejaVuSans-6c" x="768.220703"/>
       <use xlink:href="#DejaVuSans-65" x="796.003906"/>
       <use xlink:href="#DejaVuSans-73" x="857.527344"/>
       <use xlink:href="#DejaVuSans-20" x="909.626953"/>
       <use xlink:href="#DejaVuSans-3b3" x="941.414062"/>
       <use xlink:href="#DejaVuSans-70" x="1000.59375"/>
       <use xlink:href="#DejaVuSans-2e" x="1064.070312"/>
       <use xlink:href="#DejaVuSans-20" x="1095.857422"/>
       <use xlink:href="#DejaVuSans-28" x="1127.644531"/>
       <use xlink:href="#DejaVuSans-32" x="1166.658203"/>
       <use xlink:href="#DejaVuSans-39" x="1230.28125"/>
       <use xlink:href="#DejaVuSans-29" x="1293.904297"/>
      </g>
     </g>
    </g>
    <g id="xtick_6">
     <g id="line2d_6">
      <g>
       <use xlink:href="#m3d8a5a1aee" x="170.691371" y="89.023879" style="stroke: #000000; stroke-width: 0.8"/>
      </g>
     </g>
     <g id="text_6">
      <!-- Vibrionales γp. (13) -->
      <g transform="translate(119.308363 129.277924) rotate(-30) scale(0.06 -0.06)">
       <defs>
        <path id="DejaVuSans-56" d="M 1831 0 
L 50 4666 
L 709 4666 
L 2188 738 
L 3669 4666 
L 4325 4666 
L 2547 0 
L 1831 0 
z
" transform="scale(0.015625)"/>
        <path id="DejaVuSans-31" d="M 794 531 
L 1825 531 
L 1825 4091 
L 703 3866 
L 703 4441 
L 1819 4666 
L 2450 4666 
L 2450 531 
L 3481 531 
L 3481 0 
L 794 0 
L 794 531 
z
" transform="scale(0.015625)"/>
       </defs>
       <use xlink:href="#DejaVuSans-56"/>
       <use xlink:href="#DejaVuSans-69" x="66.158203"/>
       <use xlink:href="#DejaVuSans-62" x="93.941406"/>
       <use xlink:href="#DejaVuSans-72" x="157.417969"/>
       <use xlink:href="#DejaVuSans-69" x="198.53125"/>
       <use xlink:href="#DejaVuSans-6f" x="226.314453"/>
       <use xlink:href="#DejaVuSans-6e" x="287.496094"/>
       <use xlink:href="#DejaVuSans-61" x="350.875"/>
       <use xlink:href="#DejaVuSans-6c" x="412.154297"/>
       <use xlink:href="#DejaVuSans-65" x="439.9375"/>
       <use xlink:href="#DejaVuSans-73" x="501.460938"/>
       <use xlink:href="#DejaVuSans-20" x="553.560547"/>
       <use xlink:href="#DejaVuSans-3b3" x="585.347656"/>
       <use xlink:href="#DejaVuSans-70" x="644.527344"/>
       <use xlink:href="#DejaVuSans-2e" x="708.003906"/>
       <use xlink:href="#DejaVuSans-20" x="739.791016"/>
       <use xlink:href="#DejaVuSans-28" x="771.578125"/>
       <use xlink:href="#DejaVuSans-31" x="810.591797"/>
       <use xlink:href="#DejaVuSans-33" x="874.214844"/>
       <use xlink:href="#DejaVuSans-29" x="937.837891"/>
      </g>
     </g>
    </g>
    <g id="xtick_7">
     <g id="line2d_7">
      <g>
       <use xlink:href="#m3d8a5a1aee" x="193.708871" y="89.023879" style="stroke: #000000; stroke-width: 0.8"/>
      </g>
     </g>
     <g id="text_7">
      <!-- Xanthomonadales γp. (30) -->
      <g transform="translate(123.994811 139.861362) rotate(-30) scale(0.06 -0.06)">
       <defs>
        <path id="DejaVuSans-58" d="M 403 4666 
L 1081 4666 
L 2241 2931 
L 3406 4666 
L 4084 4666 
L 2584 2425 
L 4184 0 
L 3506 0 
L 2194 1984 
L 872 0 
L 191 0 
L 1856 2491 
L 403 4666 
z
" transform="scale(0.015625)"/>
        <path id="DejaVuSans-68" d="M 3513 2113 
L 3513 0 
L 2938 0 
L 2938 2094 
Q 2938 2591 2744 2837 
Q 2550 3084 2163 3084 
Q 1697 3084 1428 2787 
Q 1159 2491 1159 1978 
L 1159 0 
L 581 0 
L 581 4863 
L 1159 4863 
L 1159 2956 
Q 1366 3272 1645 3428 
Q 1925 3584 2291 3584 
Q 2894 3584 3203 3211 
Q 3513 2838 3513 2113 
z
" transform="scale(0.015625)"/>
        <path id="DejaVuSans-30" d="M 2034 4250 
Q 1547 4250 1301 3770 
Q 1056 3291 1056 2328 
Q 1056 1369 1301 889 
Q 1547 409 2034 409 
Q 2525 409 2770 889 
Q 3016 1369 3016 2328 
Q 3016 3291 2770 3770 
Q 2525 4250 2034 4250 
z
M 2034 4750 
Q 2819 4750 3233 4129 
Q 3647 3509 3647 2328 
Q 3647 1150 3233 529 
Q 2819 -91 2034 -91 
Q 1250 -91 836 529 
Q 422 1150 422 2328 
Q 422 3509 836 4129 
Q 1250 4750 2034 4750 
z
" transform="scale(0.015625)"/>
       </defs>
       <use xlink:href="#DejaVuSans-58"/>
       <use xlink:href="#DejaVuSans-61" x="68.505859"/>
       <use xlink:href="#DejaVuSans-6e" x="129.785156"/>
       <use xlink:href="#DejaVuSans-74" x="193.164062"/>
       <use xlink:href="#DejaVuSans-68" x="232.373047"/>
       <use xlink:href="#DejaVuSans-6f" x="295.751953"/>
       <use xlink:href="#DejaVuSans-6d" x="356.933594"/>
       <use xlink:href="#DejaVuSans-6f" x="454.345703"/>
       <use xlink:href="#DejaVuSans-6e" x="515.527344"/>
       <use xlink:href="#DejaVuSans-61" x="578.90625"/>
       <use xlink:href="#DejaVuSans-64" x="640.185547"/>
       <use xlink:href="#DejaVuSans-61" x="703.662109"/>
       <use xlink:href="#DejaVuSans-6c" x="764.941406"/>
       <use xlink:href="#DejaVuSans-65" x="792.724609"/>
       <use xlink:href="#DejaVuSans-73" x="854.248047"/>
       <use xlink:href="#DejaVuSans-20" x="906.347656"/>
       <use xlink:href="#DejaVuSans-3b3" x="938.134766"/>
       <use xlink:href="#DejaVuSans-70" x="997.314453"/>
       <use xlink:href="#DejaVuSans-2e" x="1060.791016"/>
       <use xlink:href="#DejaVuSans-20" x="1092.578125"/>
       <use xlink:href="#DejaVuSans-28" x="1124.365234"/>
       <use xlink:href="#DejaVuSans-33" x="1163.378906"/>
       <use xlink:href="#DejaVuSans-30" x="1227.001953"/>
       <use xlink:href="#DejaVuSans-29" x="1290.625"/>
      </g>
     </g>
    </g>
    <g id="xtick_8">
     <g id="line2d_8">
      <g>
       <use xlink:href="#m3d8a5a1aee" x="216.726371" y="89.023879" style="stroke: #000000; stroke-width: 0.8"/>
      </g>
     </g>
     <g id="text_8">
      <!-- Pseudomonadota oth. (103) -->
      <g transform="translate(143.530889 141.871362) rotate(-30) scale(0.06 -0.06)">
       <use xlink:href="#DejaVuSans-50"/>
       <use xlink:href="#DejaVuSans-73" x="58.552734"/>
       <use xlink:href="#DejaVuSans-65" x="110.652344"/>
       <use xlink:href="#DejaVuSans-75" x="172.175781"/>
       <use xlink:href="#DejaVuSans-64" x="235.554688"/>
       <use xlink:href="#DejaVuSans-6f" x="299.03125"/>
       <use xlink:href="#DejaVuSans-6d" x="360.212891"/>
       <use xlink:href="#DejaVuSans-6f" x="457.625"/>
       <use xlink:href="#DejaVuSans-6e" x="518.806641"/>
       <use xlink:href="#DejaVuSans-61" x="582.185547"/>
       <use xlink:href="#DejaVuSans-64" x="643.464844"/>
       <use xlink:href="#DejaVuSans-6f" x="706.941406"/>
       <use xlink:href="#DejaVuSans-74" x="768.123047"/>
       <use xlink:href="#DejaVuSans-61" x="807.332031"/>
       <use xlink:href="#DejaVuSans-20" x="868.611328"/>
       <use xlink:href="#DejaVuSans-6f" x="900.398438"/>
       <use xlink:href="#DejaVuSans-74" x="961.580078"/>
       <use xlink:href="#DejaVuSans-68" x="1000.789062"/>
       <use xlink:href="#DejaVuSans-2e" x="1064.167969"/>
       <use xlink:href="#DejaVuSans-20" x="1095.955078"/>
       <use xlink:href="#DejaVuSans-28" x="1127.742188"/>
       <use xlink:href="#DejaVuSans-31" x="1166.755859"/>
       <use xlink:href="#DejaVuSans-30" x="1230.378906"/>
       <use xlink:href="#DejaVuSans-33" x="1294.001953"/>
       <use xlink:href="#DejaVuSans-29" x="1357.625"/>
      </g>
     </g>
    </g>
   </g>
   <g id="matplotlib.axis_2">
    <g id="ytick_1">
     <g id="line2d_9">
      <path d="M 44.095121 89.023879 
L 228.235121 89.023879 
" clip-path="url(#p31b3d359ee)" style="fill: none; stroke-dasharray: 2.96,1.28; stroke-dashoffset: 0; stroke: #000000; stroke-opacity: 0.6; stroke-width: 0.8"/>
     </g>
     <g id="line2d_10">
      <defs>
       <path id="m9d314f84c3" d="M 0 0 
L -3.5 0 
" style="stroke: #000000; stroke-width: 0.8"/>
      </defs>
      <g>
       <use xlink:href="#m9d314f84c3" x="44.095121" y="89.023879" style="stroke: #000000; stroke-width: 0.8"/>
      </g>
     </g>
     <g id="text_9">
      <!-- 0 -->
      <g transform="translate(33.277621 91.30341) scale(0.06 -0.06)">
       <use xlink:href="#DejaVuSans-30"/>
      </g>
     </g>
    </g>
    <g id="ytick_2">
     <g id="line2d_11">
      <path d="M 44.095121 73.11501 
L 228.235121 73.11501 
" clip-path="url(#p31b3d359ee)" style="fill: none; stroke-dasharray: 2.96,1.28; stroke-dashoffset: 0; stroke: #000000; stroke-opacity: 0.6; stroke-width: 0.8"/>
     </g>
     <g id="line2d_12">
      <g>
       <use xlink:href="#m9d314f84c3" x="44.095121" y="73.11501" style="stroke: #000000; stroke-width: 0.8"/>
      </g>
     </g>
     <g id="text_10">
      <!-- 50 -->
      <g transform="translate(29.460121 75.394541) scale(0.06 -0.06)">
       <use xlink:href="#DejaVuSans-35"/>
       <use xlink:href="#DejaVuSans-30" x="63.623047"/>
      </g>
     </g>
    </g>
    <g id="ytick_3">
     <g id="line2d_13">
      <path d="M 44.095121 57.20614 
L 228.235121 57.20614 
" clip-path="url(#p31b3d359ee)" style="fill: none; stroke-dasharray: 2.96,1.28; stroke-dashoffset: 0; stroke: #000000; stroke-opacity: 0.6; stroke-width: 0.8"/>
     </g>
     <g id="line2d_14">
      <g>
       <use xlink:href="#m9d314f84c3" x="44.095121" y="57.20614" style="stroke: #000000; stroke-width: 0.8"/>
      </g>
     </g>
     <g id="text_11">
      <!-- 100 -->
      <g transform="translate(25.642621 59.485671) scale(0.06 -0.06)">
       <use xlink:href="#DejaVuSans-31"/>
       <use xlink:href="#DejaVuSans-30" x="63.623047"/>
       <use xlink:href="#DejaVuSans-30" x="127.246094"/>
      </g>
     </g>
    </g>
    <g id="ytick_4">
     <g id="line2d_15">
      <path d="M 44.095121 41.29727 
L 228.235121 41.29727 
" clip-path="url(#p31b3d359ee)" style="fill: none; stroke-dasharray: 2.96,1.28; stroke-dashoffset: 0; stroke: #000000; stroke-opacity: 0.6; stroke-width: 0.8"/>
     </g>
     <g id="line2d_16">
      <g>
       <use xlink:href="#m9d314f84c3" x="44.095121" y="41.29727" style="stroke: #000000; stroke-width: 0.8"/>
      </g>
     </g>
     <g id="text_12">
      <!-- 150 -->
      <g transform="translate(25.642621 43.576802) scale(0.06 -0.06)">
       <use xlink:href="#DejaVuSans-31"/>
       <use xlink:href="#DejaVuSans-35" x="63.623047"/>
       <use xlink:href="#DejaVuSans-30" x="127.246094"/>
      </g>
     </g>
    </g>
    <g id="ytick_5">
     <g id="line2d_17">
      <path d="M 44.095121 25.388401 
L 228.235121 25.388401 
" clip-path="url(#p31b3d359ee)" style="fill: none; stroke-dasharray: 2.96,1.28; stroke-dashoffset: 0; stroke: #000000; stroke-opacity: 0.6; stroke-width: 0.8"/>
     </g>
     <g id="line2d_18">
      <g>
       <use xlink:href="#m9d314f84c3" x="44.095121" y="25.388401" style="stroke: #000000; stroke-width: 0.8"/>
      </g>
     </g>
     <g id="text_13">
      <!-- 200 -->
      <g transform="translate(25.642621 27.667932) scale(0.06 -0.06)">
       <use xlink:href="#DejaVuSans-32"/>
       <use xlink:href="#DejaVuSans-30" x="63.623047"/>
       <use xlink:href="#DejaVuSans-30" x="127.246094"/>
      </g>
     </g>
    </g>
    <g id="text_14">
     <!-- ICE sequence length (kb) -->
     <g transform="translate(20.394808 86.98983) rotate(-90) scale(0.06 -0.06)">
      <defs>
       <path id="DejaVuSans-49" d="M 628 4666 
L 1259 4666 
L 1259 0 
L 628 0 
L 628 4666 
z
" transform="scale(0.015625)"/>
       <path id="DejaVuSans-43" d="M 4122 4306 
L 4122 3641 
Q 3803 3938 3442 4084 
Q 3081 4231 2675 4231 
Q 1875 4231 1450 3742 
Q 1025 3253 1025 2328 
Q 1025 1406 1450 917 
Q 1875 428 2675 428 
Q 3081 428 3442 575 
Q 3803 722 4122 1019 
L 4122 359 
Q 3791 134 3420 21 
Q 3050 -91 2638 -91 
Q 1578 -91 968 557 
Q 359 1206 359 2328 
Q 359 3453 968 4101 
Q 1578 4750 2638 4750 
Q 3056 4750 3426 4639 
Q 3797 4528 4122 4306 
z
" transform="scale(0.015625)"/>
       <path id="DejaVuSans-71" d="M 947 1747 
Q 947 1113 1208 752 
Q 1469 391 1925 391 
Q 2381 391 2643 752 
Q 2906 1113 2906 1747 
Q 2906 2381 2643 2742 
Q 2381 3103 1925 3103 
Q 1469 3103 1208 2742 
Q 947 2381 947 1747 
z
M 2906 525 
Q 2725 213 2448 61 
Q 2172 -91 1784 -91 
Q 1150 -91 751 415 
Q 353 922 353 1747 
Q 353 2572 751 3078 
Q 1150 3584 1784 3584 
Q 2172 3584 2448 3432 
Q 2725 3281 2906 2969 
L 2906 3500 
L 3481 3500 
L 3481 -1331 
L 2906 -1331 
L 2906 525 
z
" transform="scale(0.015625)"/>
       <path id="DejaVuSans-67" d="M 2906 1791 
Q 2906 2416 2648 2759 
Q 2391 3103 1925 3103 
Q 1463 3103 1205 2759 
Q 947 2416 947 1791 
Q 947 1169 1205 825 
Q 1463 481 1925 481 
Q 2391 481 2648 825 
Q 2906 1169 2906 1791 
z
M 3481 434 
Q 3481 -459 3084 -895 
Q 2688 -1331 1869 -1331 
Q 1566 -1331 1297 -1286 
Q 1028 -1241 775 -1147 
L 775 -588 
Q 1028 -725 1275 -790 
Q 1522 -856 1778 -856 
Q 2344 -856 2625 -561 
Q 2906 -266 2906 331 
L 2906 616 
Q 2728 306 2450 153 
Q 2172 0 1784 0 
Q 1141 0 747 490 
Q 353 981 353 1791 
Q 353 2603 747 3093 
Q 1141 3584 1784 3584 
Q 2172 3584 2450 3431 
Q 2728 3278 2906 2969 
L 2906 3500 
L 3481 3500 
L 3481 434 
z
" transform="scale(0.015625)"/>
       <path id="DejaVuSans-6b" d="M 581 4863 
L 1159 4863 
L 1159 1991 
L 2875 3500 
L 3609 3500 
L 1753 1863 
L 3688 0 
L 2938 0 
L 1159 1709 
L 1159 0 
L 581 0 
L 581 4863 
z
" transform="scale(0.015625)"/>
      </defs>
      <use xlink:href="#DejaVuSans-49"/>
      <use xlink:href="#DejaVuSans-43" x="29.492188"/>
      <use xlink:href="#DejaVuSans-45" x="99.316406"/>
      <use xlink:href="#DejaVuSans-20" x="162.5"/>
      <use xlink:href="#DejaVuSans-73" x="194.287109"/>
      <use xlink:href="#DejaVuSans-65" x="246.386719"/>
      <use xlink:href="#DejaVuSans-71" x="307.910156"/>
      <use xlink:href="#DejaVuSans-75" x="371.386719"/>
      <use xlink:href="#DejaVuSans-65" x="434.765625"/>
      <use xlink:href="#DejaVuSans-6e" x="496.289062"/>
      <use xlink:href="#DejaVuSans-63" x="559.667969"/>
      <use xlink:href="#DejaVuSans-65" x="614.648438"/>
      <use xlink:href="#DejaVuSans-20" x="676.171875"/>
      <use xlink:href="#DejaVuSans-6c" x="707.958984"/>
      <use xlink:href="#DejaVuSans-65" x="735.742188"/>
      <use xlink:href="#DejaVuSans-6e" x="797.265625"/>
      <use xlink:href="#DejaVuSans-67" x="860.644531"/>
      <use xlink:href="#DejaVuSans-74" x="924.121094"/>
      <use xlink:href="#DejaVuSans-68" x="963.330078"/>
      <use xlink:href="#DejaVuSans-20" x="1026.708984"/>
      <use xlink:href="#DejaVuSans-28" x="1058.496094"/>
      <use xlink:href="#DejaVuSans-6b" x="1097.509766"/>
      <use xlink:href="#DejaVuSans-62" x="1155.419922"/>
      <use xlink:href="#DejaVuSans-29" x="1218.896484"/>
     </g>
    </g>
   </g>
   <g id="PathCollection_1">
    <defs>
     <path id="mac6e690b1f" d="M -0 1.414214 
L 0.848528 0 
L 0 -1.414214 
L -0.848528 -0 
z
" style="stroke: #2b2b2b"/>
    </defs>
    <g clip-path="url(#p31b3d359ee)">
     <use xlink:href="#mac6e690b1f" x="55.603871" y="80.246319" style="fill: #2b2b2b; stroke: #2b2b2b"/>
     <use xlink:href="#mac6e690b1f" x="55.603871" y="81.161079" style="fill: #2b2b2b; stroke: #2b2b2b"/>
     <use xlink:href="#mac6e690b1f" x="55.603871" y="82.175111" style="fill: #2b2b2b; stroke: #2b2b2b"/>
     <use xlink:href="#mac6e690b1f" x="55.603871" y="78.291437" style="fill: #2b2b2b; stroke: #2b2b2b"/>
     <use xlink:href="#mac6e690b1f" x="55.603871" y="56.919144" style="fill: #2b2b2b; stroke: #2b2b2b"/>
     <use xlink:href="#mac6e690b1f" x="55.603871" y="56.265926" style="fill: #2b2b2b; stroke: #2b2b2b"/>
     <use xlink:href="#mac6e690b1f" x="55.603871" y="57.182913" style="fill: #2b2b2b; stroke: #2b2b2b"/>
     <use xlink:href="#mac6e690b1f" x="55.603871" y="28.347132" style="fill: #2b2b2b; stroke: #2b2b2b"/>
    </g>
   </g>
   <g id="PatchCollection_1">
    <path d="M 51.000371 78.241165 
L 60.207371 78.241165 
L 60.207371 58.135536 
L 51.000371 58.135536 
z
" clip-path="url(#p31b3d359ee)" style="fill: #fbfaf4; stroke: #2b2b2b; stroke-width: 0.6"/>
    <path d="M 46.396871 73.911726 
L 64.810871 73.911726 
L 64.810871 64.956941 
L 46.396871 64.956941 
z
" clip-path="url(#p31b3d359ee)" style="fill: #e2dbb4; stroke: #2b2b2b; stroke-width: 0.6"/>
   </g>
   <g id="PathCollection_2">
    <g clip-path="url(#p31b3d359ee)">
     <use xlink:href="#mac6e690b1f" x="78.621371" y="80.080549" style="fill: #2b2b2b; stroke: #2b2b2b"/>
     <use xlink:href="#mac6e690b1f" x="78.621371" y="51.318585" style="fill: #2b2b2b; stroke: #2b2b2b"/>
    </g>
   </g>
   <g id="PatchCollection_2">
    <defs>
     <path id="maf8c21d3ed" d="M 69.414371 -72.463269 
L 87.828371 -72.463269 
L 87.828371 -86.006172 
L 69.414371 -86.006172 
z
" style="stroke: #2b2b2b; stroke-width: 0.6"/>
    </defs>
    <g clip-path="url(#p31b3d359ee)">
     <use xlink:href="#maf8c21d3ed" x="0" y="150.151999" style="fill: #7eba80; stroke: #2b2b2b; stroke-width: 0.6"/>
    </g>
   </g>
   <g id="PathCollection_3">
    <g clip-path="url(#p31b3d359ee)">
     <use xlink:href="#mac6e690b1f" x="101.638871" y="84.780029" style="fill: #2b2b2b; stroke: #2b2b2b"/>
     <use xlink:href="#mac6e690b1f" x="101.638871" y="84.769211" style="fill: #2b2b2b; stroke: #2b2b2b"/>
     <use xlink:href="#mac6e690b1f" x="101.638871" y="84.568123" style="fill: #2b2b2b; stroke: #2b2b2b"/>
     <use xlink:href="#mac6e690b1f" x="101.638871" y="85.332067" style="fill: #2b2b2b; stroke: #2b2b2b"/>
     <use xlink:href="#mac6e690b1f" x="101.638871" y="85.758425" style="fill: #2b2b2b; stroke: #2b2b2b"/>
     <use xlink:href="#mac6e690b1f" x="101.638871" y="52.504114" style="fill: #2b2b2b; stroke: #2b2b2b"/>
     <use xlink:href="#mac6e690b1f" x="101.638871" y="52.504114" style="fill: #2b2b2b; stroke: #2b2b2b"/>
     <use xlink:href="#mac6e690b1f" x="101.638871" y="55.93693" style="fill: #2b2b2b; stroke: #2b2b2b"/>
     <use xlink:href="#mac6e690b1f" x="101.638871" y="37.580958" style="fill: #2b2b2b; stroke: #2b2b2b"/>
     <use xlink:href="#mac6e690b1f" x="101.638871" y="52.408661" style="fill: #2b2b2b; stroke: #2b2b2b"/>
    </g>
   </g>
   <g id="PatchCollection_3">
    <path d="M 101.063433 84.543335 
L 102.214308 84.543335 
L 102.214308 56.379147 
L 101.063433 56.379147 
z
" clip-path="url(#p31b3d359ee)" style="fill: #e1ede5; stroke: #2b2b2b; stroke-width: 0.6"/>
    <path d="M 100.487996 83.751421 
L 102.789746 83.751421 
L 102.789746 62.751415 
L 100.487996 62.751415 
z
" clip-path="url(#p31b3d359ee)" style="fill: #b8d4c0; stroke: #2b2b2b; stroke-width: 0.6"/>
    <path d="M 99.337121 83.296089 
L 103.940621 83.296089 
L 103.940621 65.671607 
L 99.337121 65.671607 
z
" clip-path="url(#p31b3d359ee)" style="fill: #8eba9b; stroke: #2b2b2b; stroke-width: 0.6"/>
    <path d="M 97.035371 82.966895 
L 106.242371 82.966895 
L 106.242371 68.698707 
L 97.035371 68.698707 
z
" clip-path="url(#p31b3d359ee)" style="fill: #63a176; stroke: #2b2b2b; stroke-width: 0.6"/>
    <path d="M 92.431871 81.467007 
L 110.845871 81.467007 
L 110.845871 72.672743 
L 92.431871 72.672743 
z
" clip-path="url(#p31b3d359ee)" style="fill: #398751; stroke: #2b2b2b; stroke-width: 0.6"/>
   </g>
   <g id="PathCollection_4">
    <g clip-path="url(#p31b3d359ee)">
     <use xlink:href="#mac6e690b1f" x="124.656371" y="75.32507" style="fill: #2b2b2b; stroke: #2b2b2b"/>
     <use xlink:href="#mac6e690b1f" x="124.656371" y="74.754896" style="fill: #2b2b2b; stroke: #2b2b2b"/>
     <use xlink:href="#mac6e690b1f" x="124.656371" y="77.041" style="fill: #2b2b2b; stroke: #2b2b2b"/>
     <use xlink:href="#mac6e690b1f" x="124.656371" y="81.641845" style="fill: #2b2b2b; stroke: #2b2b2b"/>
     <use xlink:href="#mac6e690b1f" x="124.656371" y="81.938069" style="fill: #2b2b2b; stroke: #2b2b2b"/>
     <use xlink:href="#mac6e690b1f" x="124.656371" y="76.307283" style="fill: #2b2b2b; stroke: #2b2b2b"/>
     <use xlink:href="#mac6e690b1f" x="124.656371" y="76.307283" style="fill: #2b2b2b; stroke: #2b2b2b"/>
     <use xlink:href="#mac6e690b1f" x="124.656371" y="47.10369" style="fill: #2b2b2b; stroke: #2b2b2b"/>
     <use xlink:href="#mac6e690b1f" x="124.656371" y="46.547516" style="fill: #2b2b2b; stroke: #2b2b2b"/>
     <use xlink:href="#mac6e690b1f" x="124.656371" y="44.139867" style="fill: #2b2b2b; stroke: #2b2b2b"/>
     <use xlink:href="#mac6e690b1f" x="124.656371" y="54.209863" style="fill: #2b2b2b; stroke: #2b2b2b"/>
     <use xlink:href="#mac6e690b1f" x="124.656371" y="52.641567" style="fill: #2b2b2b; stroke: #2b2b2b"/>
     <use xlink:href="#mac6e690b1f" x="124.656371" y="47.218233" style="fill: #2b2b2b; stroke: #2b2b2b"/>
     <use xlink:href="#mac6e690b1f" x="124.656371" y="45.47494" style="fill: #2b2b2b; stroke: #2b2b2b"/>
    </g>
   </g>
   <g id="PatchCollection_4">
    <path d="M 120.052871 73.330257 
L 129.259871 73.330257 
L 129.259871 55.386563 
L 120.052871 55.386563 
z
" clip-path="url(#p31b3d359ee)" style="fill: #f1f8f7; stroke: #2b2b2b; stroke-width: 0.6"/>
    <path d="M 115.449371 68.20935 
L 133.863371 68.20935 
L 133.863371 58.00922 
L 115.449371 58.00922 
z
" clip-path="url(#p31b3d359ee)" style="fill: #9fcdc6; stroke: #2b2b2b; stroke-width: 0.6"/>
   </g>
   <g id="PathCollection_5">
    <g clip-path="url(#p31b3d359ee)">
     <use xlink:href="#mac6e690b1f" x="147.673871" y="75.611111" style="fill: #2b2b2b; stroke: #2b2b2b"/>
     <use xlink:href="#mac6e690b1f" x="147.673871" y="75.61302" style="fill: #2b2b2b; stroke: #2b2b2b"/>
     <use xlink:href="#mac6e690b1f" x="147.673871" y="78.395481" style="fill: #2b2b2b; stroke: #2b2b2b"/>
     <use xlink:href="#mac6e690b1f" x="147.673871" y="80.724222" style="fill: #2b2b2b; stroke: #2b2b2b"/>
     <use xlink:href="#mac6e690b1f" x="147.673871" y="78.199484" style="fill: #2b2b2b; stroke: #2b2b2b"/>
     <use xlink:href="#mac6e690b1f" x="147.673871" y="82.426153" style="fill: #2b2b2b; stroke: #2b2b2b"/>
     <use xlink:href="#mac6e690b1f" x="147.673871" y="75.514703" style="fill: #2b2b2b; stroke: #2b2b2b"/>
     <use xlink:href="#mac6e690b1f" x="147.673871" y="55.629889" style="fill: #2b2b2b; stroke: #2b2b2b"/>
     <use xlink:href="#mac6e690b1f" x="147.673871" y="56.320652" style="fill: #2b2b2b; stroke: #2b2b2b"/>
     <use xlink:href="#mac6e690b1f" x="147.673871" y="55.308212" style="fill: #2b2b2b; stroke: #2b2b2b"/>
     <use xlink:href="#mac6e690b1f" x="147.673871" y="56.082656" style="fill: #2b2b2b; stroke: #2b2b2b"/>
     <use xlink:href="#mac6e690b1f" x="147.673871" y="52.395934" style="fill: #2b2b2b; stroke: #2b2b2b"/>
     <use xlink:href="#mac6e690b1f" x="147.673871" y="54.675993" style="fill: #2b2b2b; stroke: #2b2b2b"/>
     <use xlink:href="#mac6e690b1f" x="147.673871" y="57.436819" style="fill: #2b2b2b; stroke: #2b2b2b"/>
    </g>
   </g>
   <g id="PatchCollection_5">
    <defs>
     <path id="m453f94ed6c" d="M 138.466871 -74.739112 
L 156.880871 -74.739112 
L 156.880871 -88.555648 
L 138.466871 -88.555648 
z
" style="stroke: #2b2b2b; stroke-width: 0.6"/>
    </defs>
    <g clip-path="url(#p31b3d359ee)">
     <use xlink:href="#m453f94ed6c" x="0" y="150.151999" style="fill: #57a89a; stroke: #2b2b2b; stroke-width: 0.6"/>
    </g>
   </g>
   <g id="PathCollection_6">
    <g clip-path="url(#p31b3d359ee)">
     <use xlink:href="#mac6e690b1f" x="170.691371" y="62.977241" style="fill: #2b2b2b; stroke: #2b2b2b"/>
     <use xlink:href="#mac6e690b1f" x="170.691371" y="62.553747" style="fill: #2b2b2b; stroke: #2b2b2b"/>
     <use xlink:href="#mac6e690b1f" x="170.691371" y="75.039346" style="fill: #2b2b2b; stroke: #2b2b2b"/>
     <use xlink:href="#mac6e690b1f" x="170.691371" y="56.256699" style="fill: #2b2b2b; stroke: #2b2b2b"/>
     <use xlink:href="#mac6e690b1f" x="170.691371" y="54.755538" style="fill: #2b2b2b; stroke: #2b2b2b"/>
     <use xlink:href="#mac6e690b1f" x="170.691371" y="56.130382" style="fill: #2b2b2b; stroke: #2b2b2b"/>
    </g>
   </g>
   <g id="PatchCollection_6">
    <defs>
     <path id="md0e1ae4d90" d="M 161.484371 -91.45838 
L 179.898371 -91.45838 
L 179.898371 -93.620713 
L 161.484371 -93.620713 
z
" style="stroke: #2b2b2b; stroke-width: 0.6"/>
    </defs>
    <g clip-path="url(#p31b3d359ee)">
     <use xlink:href="#md0e1ae4d90" x="0" y="150.151999" style="fill: #458479; stroke: #2b2b2b; stroke-width: 0.6"/>
    </g>
   </g>
   <g id="PathCollection_7">
    <g clip-path="url(#p31b3d359ee)">
     <use xlink:href="#mac6e690b1f" x="193.708871" y="81.189079" style="fill: #2b2b2b; stroke: #2b2b2b"/>
     <use xlink:href="#mac6e690b1f" x="193.708871" y="82.131839" style="fill: #2b2b2b; stroke: #2b2b2b"/>
     <use xlink:href="#mac6e690b1f" x="193.708871" y="75.180617" style="fill: #2b2b2b; stroke: #2b2b2b"/>
     <use xlink:href="#mac6e690b1f" x="193.708871" y="77.652219" style="fill: #2b2b2b; stroke: #2b2b2b"/>
     <use xlink:href="#mac6e690b1f" x="193.708871" y="76.446645" style="fill: #2b2b2b; stroke: #2b2b2b"/>
     <use xlink:href="#mac6e690b1f" x="193.708871" y="77.651901" style="fill: #2b2b2b; stroke: #2b2b2b"/>
     <use xlink:href="#mac6e690b1f" x="193.708871" y="79.784962" style="fill: #2b2b2b; stroke: #2b2b2b"/>
     <use xlink:href="#mac6e690b1f" x="193.708871" y="77.171135" style="fill: #2b2b2b; stroke: #2b2b2b"/>
    </g>
   </g>
   <g id="PatchCollection_7">
    <defs>
     <path id="md0d3e52113" d="M 184.501871 -69.524185 
L 202.915871 -69.524185 
L 202.915871 -69.909816 
L 184.501871 -69.909816 
z
" style="stroke: #2b2b2b; stroke-width: 0.6"/>
    </defs>
    <g clip-path="url(#p31b3d359ee)">
     <use xlink:href="#md0d3e52113" x="0" y="150.151999" style="fill: #305e56; stroke: #2b2b2b; stroke-width: 0.6"/>
    </g>
   </g>
   <g id="PathCollection_8">
    <g clip-path="url(#p31b3d359ee)">
     <use xlink:href="#mac6e690b1f" x="216.726371" y="82.538469" style="fill: #2b2b2b; stroke: #2b2b2b"/>
     <use xlink:href="#mac6e690b1f" x="216.726371" y="79.78178" style="fill: #2b2b2b; stroke: #2b2b2b"/>
     <use xlink:href="#mac6e690b1f" x="216.726371" y="79.54092" style="fill: #2b2b2b; stroke: #2b2b2b"/>
     <use xlink:href="#mac6e690b1f" x="216.726371" y="82.185929" style="fill: #2b2b2b; stroke: #2b2b2b"/>
     <use xlink:href="#mac6e690b1f" x="216.726371" y="84.074948" style="fill: #2b2b2b; stroke: #2b2b2b"/>
     <use xlink:href="#mac6e690b1f" x="216.726371" y="83.141734" style="fill: #2b2b2b; stroke: #2b2b2b"/>
     <use xlink:href="#mac6e690b1f" x="216.726371" y="81.076444" style="fill: #2b2b2b; stroke: #2b2b2b"/>
     <use xlink:href="#mac6e690b1f" x="216.726371" y="7.725419" style="fill: #2b2b2b; stroke: #2b2b2b"/>
     <use xlink:href="#mac6e690b1f" x="216.726371" y="38.403129" style="fill: #2b2b2b; stroke: #2b2b2b"/>
     <use xlink:href="#mac6e690b1f" x="216.726371" y="33.725285" style="fill: #2b2b2b; stroke: #2b2b2b"/>
     <use xlink:href="#mac6e690b1f" x="216.726371" y="43.793054" style="fill: #2b2b2b; stroke: #2b2b2b"/>
     <use xlink:href="#mac6e690b1f" x="216.726371" y="31.703268" style="fill: #2b2b2b; stroke: #2b2b2b"/>
     <use xlink:href="#mac6e690b1f" x="216.726371" y="50.935182" style="fill: #2b2b2b; stroke: #2b2b2b"/>
     <use xlink:href="#mac6e690b1f" x="216.726371" y="38.859713" style="fill: #2b2b2b; stroke: #2b2b2b"/>
    </g>
   </g>
   <g id="PatchCollection_8">
    <path d="M 214.424621 79.441887 
L 219.028121 79.441887 
L 219.028121 52.524716 
L 214.424621 52.524716 
z
" clip-path="url(#p31b3d359ee)" style="fill: #f9f1f2; stroke: #2b2b2b; stroke-width: 0.6"/>
    <path d="M 212.122871 78.384743 
L 221.329871 78.384743 
L 221.329871 59.989078 
L 212.122871 59.989078 
z
" clip-path="url(#p31b3d359ee)" style="fill: #e6c9ce; stroke: #2b2b2b; stroke-width: 0.6"/>
    <path d="M 207.519371 76.219625 
L 225.933371 76.219625 
L 225.933371 62.572679 
L 207.519371 62.572679 
z
" clip-path="url(#p31b3d359ee)" style="fill: #d4a0a9; stroke: #2b2b2b; stroke-width: 0.6"/>
   </g>
   <g id="line2d_19">
    <path d="M 46.396871 71.484987 
L 64.810871 71.484987 
" clip-path="url(#p31b3d359ee)" style="fill: none; stroke: #262626; stroke-opacity: 0.45; stroke-width: 0.6"/>
   </g>
   <g id="line2d_20">
    <path d="M 69.414371 72.656516 
L 87.828371 72.656516 
" clip-path="url(#p31b3d359ee)" style="fill: none; stroke: #262626; stroke-opacity: 0.45; stroke-width: 0.6"/>
   </g>
   <g id="line2d_21">
    <path d="M 92.431871 78.110713 
L 110.845871 78.110713 
" clip-path="url(#p31b3d359ee)" style="fill: none; stroke: #262626; stroke-opacity: 0.45; stroke-width: 0.6"/>
   </g>
   <g id="line2d_22">
    <path d="M 115.449371 60.855316 
L 133.863371 60.855316 
" clip-path="url(#p31b3d359ee)" style="fill: none; stroke: #262626; stroke-opacity: 0.45; stroke-width: 0.6"/>
   </g>
   <g id="line2d_23">
    <path d="M 138.466871 75.05621 
L 156.880871 75.05621 
" clip-path="url(#p31b3d359ee)" style="fill: none; stroke: #262626; stroke-opacity: 0.45; stroke-width: 0.6"/>
   </g>
   <g id="line2d_24">
    <path d="M 161.484371 57.869858 
L 179.898371 57.869858 
" clip-path="url(#p31b3d359ee)" style="fill: none; stroke: #262626; stroke-opacity: 0.45; stroke-width: 0.6"/>
   </g>
   <g id="line2d_25">
    <path d="M 184.501871 80.627814 
L 202.915871 80.627814 
" clip-path="url(#p31b3d359ee)" style="fill: none; stroke: #262626; stroke-opacity: 0.45; stroke-width: 0.6"/>
   </g>
   <g id="line2d_26">
    <path d="M 207.519371 72.873831 
L 225.933371 72.873831 
" clip-path="url(#p31b3d359ee)" style="fill: none; stroke: #262626; stroke-opacity: 0.45; stroke-width: 0.6"/>
   </g>
   <g id="patch_3">
    <path d="M 44.095121 89.023879 
L 44.095121 9.479531 
" style="fill: none; stroke: #000000; stroke-width: 0.8; stroke-linejoin: miter; stroke-linecap: square"/>
   </g>
   <g id="patch_4">
    <path d="M 44.095121 89.023879 
L 228.235121 89.023879 
" style="fill: none; stroke: #000000; stroke-width: 0.8; stroke-linejoin: miter; stroke-linecap: square"/>
   </g>
   <g id="text_15">
    <!-- *** -->
    <g transform="translate(51.103871 14.595267) scale(0.06 -0.06)">
     <defs>
      <path id="DejaVuSans-2a" d="M 3009 3897 
L 1888 3291 
L 3009 2681 
L 2828 2375 
L 1778 3009 
L 1778 1831 
L 1422 1831 
L 1422 3009 
L 372 2375 
L 191 2681 
L 1313 3291 
L 191 3897 
L 372 4206 
L 1422 3572 
L 1422 4750 
L 1778 4750 
L 1778 3572 
L 2828 4206 
L 3009 3897 
z
" transform="scale(0.015625)"/>
     </defs>
     <use xlink:href="#DejaVuSans-2a"/>
     <use xlink:href="#DejaVuSans-2a" x="50"/>
     <use xlink:href="#DejaVuSans-2a" x="100"/>
    </g>
   </g>
   <g id="text_16">
    <!-- ns -->
    <g transform="translate(75.157308 14.595267) scale(0.06 -0.06)">
     <use xlink:href="#DejaVuSans-6e"/>
     <use xlink:href="#DejaVuSans-73" x="63.378906"/>
    </g>
   </g>
   <g id="text_17">
    <!-- *** -->
    <g transform="translate(120.156371 14.595267) scale(0.06 -0.06)">
     <use xlink:href="#DejaVuSans-2a"/>
     <use xlink:href="#DejaVuSans-2a" x="50"/>
     <use xlink:href="#DejaVuSans-2a" x="100"/>
    </g>
   </g>
   <g id="text_18">
    <!-- *** -->
    <g transform="translate(143.173871 14.595267) scale(0.06 -0.06)">
     <use xlink:href="#DejaVuSans-2a"/>
     <use xlink:href="#DejaVuSans-2a" x="50"/>
     <use xlink:href="#DejaVuSans-2a" x="100"/>
    </g>
   </g>
   <g id="text_19">
    <!-- *** -->
    <g transform="translate(166.191371 14.595267) scale(0.06 -0.06)">
     <use xlink:href="#DejaVuSans-2a"/>
     <use xlink:href="#DejaVuSans-2a" x="50"/>
     <use xlink:href="#DejaVuSans-2a" x="100"/>
    </g>
   </g>
   <g id="text_20">
    <!-- *** -->
    <g transform="translate(189.208871 14.595267) scale(0.06 -0.06)">
     <use xlink:href="#DejaVuSans-2a"/>
     <use xlink:href="#DejaVuSans-2a" x="50"/>
     <use xlink:href="#DejaVuSans-2a" x="100"/>
    </g>
   </g>
   <g id="text_21">
    <!-- *** -->
    <g transform="translate(212.226371 14.595267) scale(0.06 -0.06)">
     <use xlink:href="#DejaVuSans-2a"/>
     <use xlink:href="#DejaVuSans-2a" x="50"/>
     <use xlink:href="#DejaVuSans-2a" x="100"/>
    </g>
   </g>
  </g>
 </g>
 <defs>
  <clipPath id="p31b3d359ee">
   <rect x="44.095121" y="9.479531" width="184.14" height="79.544348"/>
  </clipPath>
 </defs>
</svg>
